<?xml version="1.0" encoding="utf-8"?>
<COLLADA xmlns="http://www.collada.org/2005/11/COLLADASchema" version="1.4.1" xmlns:xsi="http://www.w3.org/2001/XMLSchema-instance">
  <asset>
    <contributor>
      <author>Blender User</author>
      <authoring_tool>Blender 2.79.0 commit date:2018-03-22, commit time:14:10, hash:f4dc9f9d68b</authoring_tool>
    </contributor>
    <created>2019-01-21T16:53:43</created>
    <modified>2019-01-21T16:53:43</modified>
    <unit name="meter" meter="1"/>
    <up_axis>Z_UP</up_axis>
  </asset>
  <library_images/>
  <library_effects>
    <effect id="Material_001-effect">
      <profile_COMMON>
        <technique sid="common">
          <phong>
            <emission>
              <color sid="emission">0 0 0 1</color>
            </emission>
            <ambient>
              <color sid="ambient">1 1 1 1</color>
            </ambient>
            <diffuse>
              <color sid="diffuse">0.5436341 0.2659613 0.047609 1</color>
            </diffuse>
            <specular>
              <color sid="specular">0.5 0.5 0.5 1</color>
            </specular>
            <shininess>
              <float sid="shininess">50</float>
            </shininess>
            <index_of_refraction>
              <float sid="index_of_refraction">1</float>
            </index_of_refraction>
          </phong>
        </technique>
      </profile_COMMON>
    </effect>
    <effect id="Carrot_GReen-effect">
      <profile_COMMON>
        <technique sid="common">
          <phong>
            <emission>
              <color sid="emission">0 0 0 1</color>
            </emission>
            <ambient>
              <color sid="ambient">1 1 1 1</color>
            </ambient>
            <diffuse>
              <color sid="diffuse">0.0836932 0.2369107 0.05184262 1</color>
            </diffuse>
            <specular>
              <color sid="specular">0.25 0.25 0.25 1</color>
            </specular>
            <shininess>
              <float sid="shininess">50</float>
            </shininess>
            <index_of_refraction>
              <float sid="index_of_refraction">1</float>
            </index_of_refraction>
          </phong>
        </technique>
      </profile_COMMON>
    </effect>
  </library_effects>
  <library_materials>
    <material id="Material_001-material" name="Material_001">
      <instance_effect url="#Material_001-effect"/>
    </material>
    <material id="Carrot_GReen-material" name="Carrot_GReen">
      <instance_effect url="#Carrot_GReen-effect"/>
    </material>
  </library_materials>
  <library_geometries>
    <geometry id="Icosphere_003-mesh" name="Icosphere.003">
      <mesh>
        <source id="Icosphere_003-mesh-positions">
          <float_array id="Icosphere_003-mesh-positions-array" count="126">0 -0.3482455 -1 0.7236073 -0.9032162 -0.4472195 -0.276388 -0.8506492 -0.4472199 -0.8944262 -0.4813845 -0.4472156 -0.276388 0.8506492 -0.4472199 0.7236073 0.5257253 -0.4472195 0.276388 -0.8506492 0.4472199 -0.7236073 -0.5257253 0.4472195 -0.7236073 0.5257253 0.4472195 0.276388 0.8506492 0.4472199 0.8944262 0 0.4472156 0 0 1 -0.1624555 -0.8482407 -0.8506544 0.4253227 -0.6572569 -0.8506542 0.2628688 -0.8090116 -0.5257377 0.8506479 -0.4197901 -0.5257359 0.4253227 0.3090114 -0.8506542 -0.5257298 -0.4813845 -0.8506517 -0.6881894 -0.9813815 -0.5257362 -0.1624555 0.4999952 -0.8506544 -0.6881894 0.4999969 -0.5257362 0.2628688 0.8090116 -0.5257377 0.9510579 -0.7288028 0 0.9510579 0.2667134 0 0 -1 0 0.5877856 -0.8090167 0 -0.9510579 -0.7504244 0 -0.5877856 -0.8090167 0 -0.5877856 0.8090167 0 -0.9510579 -0.1323992 0 0.5877856 0.8090167 0 0 1 0 0.6881894 -0.8566526 0.5257362 -0.2628688 -0.8090116 0.5257377 -0.8506479 -0.4414118 0.5257359 -0.2628688 0.8090116 0.5257377 0.6881894 0.4999969 0.5257362 0.1624555 -0.856651 0.8506544 0.5257298 -0.3566557 0.8506517 -0.4253227 -0.3090114 0.8506542 -0.4253227 0.3090114 0.8506542 0.1624555 0.4999952 0.8506544</float_array>
          <technique_common>
            <accessor source="#Icosphere_003-mesh-positions-array" count="42" stride="3">
              <param name="X" type="float"/>
              <param name="Y" type="float"/>
              <param name="Z" type="float"/>
            </accessor>
          </technique_common>
        </source>
        <source id="Icosphere_003-mesh-normals">
          <float_array id="Icosphere_003-mesh-normals-array" count="240">0.1023809 -0.3150898 -0.9435235 0.6776779 -0.2879832 -0.6766228 -0.216341 -0.2142215 -0.952526 -0.297295 0.110046 -0.9484227 0.05984956 0.1841939 -0.9810661 0.8939398 -0.2903699 -0.3414043 0.02474659 -0.9435213 -0.3303864 -0.8958907 -0.3213573 -0.3067728 -0.574602 0.7487835 -0.3303876 0.534576 0.7778645 -0.3303867 0.2081006 -0.9424444 0.2617112 -0.3065689 -0.9435216 -0.125629 -0.9920774 0 -0.1256283 -0.3065689 0.9435216 -0.125629 0.8266792 0.553767 -0.09971922 -0.01113945 -0.9997757 -0.01801925 -0.4712998 -0.5831221 0.6616986 -0.754377 0.1509575 0.6388485 0.03853034 0.7487791 0.6616988 0.657074 0.1551805 0.7376806 0.3659472 0.155182 0.9176062 0.51313 0.2175968 0.8302707 0.408946 0.6284253 0.6616986 -0.1023808 0.3150899 0.9435235 -0.1875938 0.5773454 0.7946577 -0.4712998 0.5831222 0.6616986 -0.3313045 0 0.9435239 -0.6070606 0 0.7946556 -0.1828816 -0.8033385 0.5667467 -0.1895138 -0.2034035 0.9605788 -0.5361887 -0.5754883 0.6175071 -0.08244091 -0.9958676 -0.03809696 0.185234 -0.1345776 0.9734358 0.4911196 -0.356821 0.7946574 0.7878265 -0.1345783 0.6010141 0.8962407 0.321723 0.3053637 0.8192769 0.5488082 0.1661177 0.574602 0.7487835 0.3303875 -0.02474659 0.9435213 0.3303865 -0.3035309 0.9341715 0.1875973 -0.534576 0.7778646 0.3303866 -0.9521204 0.1468377 0.2681519 -0.9822458 0 0.1875985 -0.2208154 -0.8218201 0.5252164 -0.534576 -0.7778646 0.3303866 -0.3035309 -0.9341715 0.1875974 -0.02474659 -0.9435213 0.3303865 0.002787828 -0.9958685 -0.09076601 0.213826 -0.968373 -0.1285784 0.8967204 -0.1787712 0.4048868 0.3065689 0.9435216 0.1256287 0.3035309 0.9341715 -0.1875974 0.02474659 0.9435213 -0.3303864 -0.9315273 0.3594565 -0.05520933 -0.9324293 0.3598043 -0.0334146 -0.9490431 0.1786699 -0.2596042 -0.1379197 -0.8551024 0.4997782 -0.150101 -0.9306256 0.3337752 0.2470613 -0.9337579 0.2589535 0.3065689 -0.9435216 0.1256287 0.3035309 -0.9341715 -0.1875973 -0.2207063 -0.9657567 0.1363916 0.9920775 0 0.1256283 0.9822459 0 -0.1875985 0.9138942 0.1539832 -0.3756148 0.4712998 0.5831221 -0.6616986 0.1875942 0.5773454 -0.7946577 -0.03853058 0.7487792 -0.6616986 -0.408946 0.6284253 -0.6616986 -0.5160462 0.1910207 -0.8349894 -0.7344263 0.1006376 -0.6711855 -0.7240421 -0.1947361 -0.6616955 -0.4056757 -0.4017084 -0.8210102 0.2885556 -0.9544587 0.07579189 0.7530273 0.1542942 -0.639643 0.6070607 0 -0.7946556 0.3313045 0 -0.9435239 0.07935559 -0.9967105 0.01646023 0.2968178 -0.9134965 -0.2782508 -0.1013706 -0.8809862 -0.4621552</float_array>
          <technique_common>
            <accessor source="#Icosphere_003-mesh-normals-array" count="80" stride="3">
              <param name="X" type="float"/>
              <param name="Y" type="float"/>
              <param name="Z" type="float"/>
            </accessor>
          </technique_common>
        </source>
        <source id="Icosphere_003-mesh-colors-Col" name="Col">
          <float_array id="Icosphere_003-mesh-colors-Col-array" count="720">0.7019608 0.4941176 0.2509804 0.7019608 0.4941176 0.2509804 0.7019608 0.4980392 0.254902 0.7058824 0.4980392 0.254902 0.7019608 0.4941176 0.2509804 0.7176471 0.5215687 0.2666667 0.7019608 0.4941176 0.2509804 0.7019608 0.4941176 0.2509804 0.7294118 0.5450981 0.3294118 0.7019608 0.4941176 0.2509804 0.7294118 0.5450981 0.3294118 0.5294118 0.372549 0.1921569 0.7019608 0.4941176 0.2509804 0.5294118 0.372549 0.1921569 0.7019608 0.4941176 0.2509804 0.7019608 0.4941176 0.2509804 0.7019608 0.4941176 0.2509804 0.7019608 0.4941176 0.2509804 0.7019608 0.4941176 0.2509804 0.7019608 0.4941176 0.2509804 0.7019608 0.4941176 0.2509804 0.7019608 0.4941176 0.2509804 0.7019608 0.4941176 0.2509804 0.6117647 0.4313725 0.2196078 0.7019608 0.4941176 0.2509804 0.7019608 0.4941176 0.2509804 0.7019608 0.4941176 0.2509804 0.7019608 0.4941176 0.2509804 0.7019608 0.4941176 0.2509804 0.7019608 0.4941176 0.2509804 0.7019608 0.4941176 0.2509804 0.7019608 0.4941176 0.2509804 0.7019608 0.4941176 0.2509804 0.7019608 0.4941176 0.2509804 0.7019608 0.4941176 0.2509804 0.682353 0.4784314 0.2470588 0.7019608 0.4941176 0.2509804 0.6117647 0.4313725 0.2196078 0.5607843 0.3921568 0.2039216 0.7019608 0.4941176 0.2509804 0.7019608 0.4941176 0.2509804 0.7019608 0.4941176 0.2509804 0.7019608 0.4941176 0.2509804 0.7019608 0.4941176 0.2509804 0.5294118 0.372549 0.1921569 0.7019608 0.4941176 0.2509804 0.7019608 0.4941176 0.2509804 0.7019608 0.4941176 0.2509804 0.7019608 0.4941176 0.2509804 0.7019608 0.4941176 0.2509804 0.6901961 0.4901961 0.2509804 0.6627451 0.4666666 0.2352941 0.7019608 0.4941176 0.2509804 0.7019608 0.4941176 0.2509804 0.7019608 0.4941176 0.2509804 0.5294118 0.372549 0.1921569 0.7019608 0.4941176 0.2509804 0.7019608 0.4941176 0.2509804 0.7019608 0.4941176 0.2509804 0.5686275 0.3960784 0.2039216 0.5686275 0.3960784 0.2039216 0.7019608 0.4941176 0.2509804 0.5411765 0.3803921 0.1960784 0.5686275 0.3960784 0.2039216 0.7019608 0.4941176 0.2509804 0.7019608 0.4941176 0.2509804 0.7019608 0.4941176 0.2509804 0.7019608 0.4941176 0.2509804 0.7019608 0.4941176 0.2509804 0.7019608 0.4941176 0.2509804 0.7019608 0.4941176 0.2509804 0.5411765 0.3803921 0.1960784 0.7019608 0.4941176 0.2509804 0.5294118 0.372549 0.1921569 0.7019608 0.4941176 0.2509804 0.5294118 0.372549 0.1921569 0.6627451 0.4666666 0.2352941 0.7019608 0.4941176 0.2509804 0.7019608 0.4941176 0.2509804 0.6901961 0.4901961 0.2509804 0.5411765 0.3803921 0.1960784 0.7019608 0.4941176 0.2509804 0.7019608 0.4941176 0.2509804 0.6901961 0.4901961 0.2509804 0.7019608 0.4941176 0.2509804 0.7019608 0.4941176 0.2509804 0.6901961 0.4901961 0.2509804 0.6901961 0.4901961 0.2509804 0.7019608 0.4941176 0.2509804 0.5411765 0.3803921 0.1960784 0.6901961 0.4901961 0.2509804 0.7019608 0.4941176 0.2509804 0.7058824 0.4980392 0.254902 0.7019608 0.4941176 0.2509804 0.7019608 0.4941176 0.2509804 0.7019608 0.4941176 0.2509804 0.7019608 0.4941176 0.2509804 0.5686275 0.3960784 0.2039216 0.5411765 0.3803921 0.1960784 0.7019608 0.4941176 0.2509804 0.7019608 0.4941176 0.2509804 0.5686275 0.3960784 0.2039216 0.7019608 0.4941176 0.2509804 0.7019608 0.4941176 0.2509804 0.5686275 0.3960784 0.2039216 0.5294118 0.372549 0.1921569 0.7019608 0.4941176 0.2509804 0.7019608 0.4941176 0.2509804 0.5294118 0.372549 0.1921569 0.7019608 0.4941176 0.2509804 0.7019608 0.4941176 0.2509804 0.7058824 0.4980392 0.2509804 0.7019608 0.4941176 0.2509804 0.7019608 0.4941176 0.2509804 0.7019608 0.4941176 0.2509804 0.5294118 0.372549 0.1921569 0.7019608 0.4941176 0.2509804 0.7019608 0.4941176 0.2509804 0.7019608 0.4941176 0.2509804 0.5294118 0.372549 0.1921569 0.7019608 0.4941176 0.2509804 0.6627451 0.4666666 0.2352941 0.5294118 0.372549 0.1921569 0.5607843 0.3921568 0.2039216 0.7019608 0.4941176 0.2509804 0.6627451 0.4666666 0.2352941 0.5607843 0.3921568 0.2039216 0.6117647 0.4313725 0.2196078 0.7019608 0.4941176 0.2509804 0.6117647 0.4313725 0.2196078 0.7019608 0.4941176 0.2509804 0.7019608 0.4941176 0.2509804 0.682353 0.4784314 0.2470588 0.7019608 0.4941176 0.2509804 0.7019608 0.4941176 0.2509804 0.682353 0.4784314 0.2470588 0.7019608 0.4941176 0.2509804 0.7019608 0.4941176 0.2509804 0.7019608 0.4941176 0.2509804 0.7019608 0.4941176 0.2509804 0.7019608 0.4941176 0.2509804 0.7019608 0.4941176 0.2509804 0.7019608 0.4941176 0.2509804 0.7019608 0.4941176 0.2509804 0.7019608 0.4941176 0.2509804 0.7019608 0.4941176 0.2509804 0.7019608 0.4941176 0.2509804 0.7019608 0.4941176 0.2509804 0.7019608 0.4941176 0.2509804 0.7019608 0.4941176 0.2509804 0.7019608 0.4941176 0.2509804 0.7019608 0.4941176 0.2509804 0.7019608 0.4941176 0.2509804 0.7019608 0.4941176 0.2509804 0.7019608 0.4941176 0.2509804 0.7019608 0.4941176 0.2509804 0.7019608 0.4941176 0.2509804 0.7019608 0.4941176 0.2509804 0.7019608 0.4941176 0.2509804 0.7019608 0.4941176 0.2509804 0.5607843 0.3921568 0.2039216 0.6627451 0.4666666 0.2352941 0.7019608 0.4941176 0.2509804 0.7058824 0.4980392 0.254902 0.5607843 0.3921568 0.2039216 0.7019608 0.4941176 0.2509804 0.7019608 0.4941176 0.2509804 0.5607843 0.3921568 0.2039216 0.7019608 0.4941176 0.2509804 0.7019608 0.4941176 0.2509804 0.7019608 0.4941176 0.2509804 0.7019608 0.4941176 0.2509804 0.7019608 0.4941176 0.2509804 0.7019608 0.4941176 0.2509804 0.7019608 0.4941176 0.2509804 0.7019608 0.4941176 0.2509804 0.7019608 0.4941176 0.2509804 0.7019608 0.4941176 0.2509804 0.7019608 0.4941176 0.2509804 0.7019608 0.4941176 0.2509804 0.7019608 0.4941176 0.2509804 0.7019608 0.4941176 0.2509804 0.7019608 0.4941176 0.2509804 0.7019608 0.4941176 0.2509804 0.7019608 0.4941176 0.2509804 0.7019608 0.4941176 0.2509804 0.7019608 0.4941176 0.2509804 0.5294118 0.372549 0.1921569 0.7019608 0.4941176 0.2509804 0.7019608 0.4941176 0.2509804 0.7019608 0.4941176 0.2509804 0.5294118 0.372549 0.1921569 0.7019608 0.4941176 0.2509804 0.7019608 0.4941176 0.2509804 0.5294118 0.372549 0.1921569 0.7019608 0.4941176 0.2509804 0.7019608 0.4941176 0.2509804 0.7019608 0.4941176 0.2509804 0.7019608 0.4941176 0.2509804 0.5294118 0.372549 0.1921569 0.7019608 0.4941176 0.2509804 0.5294118 0.372549 0.1921569 0.7019608 0.4941176 0.2509804 0.7019608 0.4941176 0.2509804 0.5294118 0.372549 0.1921569 0.7019608 0.4980392 0.254902 0.7019608 0.4941176 0.2509804 0.5294118 0.372549 0.1921569 0.7294118 0.5450981 0.3294118 0.7019608 0.4980392 0.254902 0.7294118 0.5450981 0.3294118 0.7019608 0.4941176 0.2509804 0.7019608 0.4980392 0.254902 0.7294118 0.5450981 0.3294118 0.7019608 0.4941176 0.2509804 0.7019608 0.4941176 0.2509804 0.7294118 0.5450981 0.3294118 0.7019608 0.4941176 0.2509804 0.7019608 0.4941176 0.2509804 0.7019608 0.4941176 0.2509804 0.7019608 0.4941176 0.2509804 0.7019608 0.4941176 0.2509804 0.7176471 0.5215687 0.2901961 0.7019608 0.4941176 0.2509804 0.7019608 0.4941176 0.2509804 0.7176471 0.5215687 0.2901961 0.7019608 0.4941176 0.2509804 0.7019608 0.4941176 0.2509804 0.7019608 0.4941176 0.2509804 0.7019608 0.4941176 0.2509804 0.7019608 0.4941176 0.2509804 0.7019608 0.4941176 0.2509804 0.7019608 0.4941176 0.2509804 0.7019608 0.4941176 0.2509804 0.7019608 0.4941176 0.2509804 0.7019608 0.4941176 0.2509804 0.7019608 0.4941176 0.2509804 0.7019608 0.4941176 0.2509804 0.7058824 0.4980392 0.2588235 0.7019608 0.4941176 0.2509804</float_array>
          <technique_common>
            <accessor source="#Icosphere_003-mesh-colors-Col-array" count="240" stride="3">
              <param name="R" type="float"/>
              <param name="G" type="float"/>
              <param name="B" type="float"/>
            </accessor>
          </technique_common>
        </source>
        <vertices id="Icosphere_003-mesh-vertices">
          <input semantic="POSITION" source="#Icosphere_003-mesh-positions"/>
        </vertices>
        <triangles material="Material_001-material" count="80">
          <input semantic="VERTEX" source="#Icosphere_003-mesh-vertices" offset="0"/>
          <input semantic="NORMAL" source="#Icosphere_003-mesh-normals" offset="1"/>
          <input semantic="COLOR" source="#Icosphere_003-mesh-colors-Col" offset="2" set="0"/>
          <p>0 0 0 13 0 1 12 0 2 1 1 3 13 1 4 15 1 5 0 2 6 12 2 7 17 2 8 0 3 9 17 3 10 19 3 11 0 4 12 19 4 13 16 4 14 1 5 15 15 5 16 22 5 17 2 6 18 14 6 19 24 6 20 3 7 21 18 7 22 26 7 23 4 8 24 20 8 25 28 8 26 5 9 27 21 9 28 30 9 29 1 10 30 22 10 31 25 10 32 2 11 33 24 11 34 27 11 35 3 12 36 26 12 37 29 12 38 4 13 39 28 13 40 31 13 41 5 14 42 30 14 43 23 14 44 6 15 45 32 15 46 37 15 47 7 16 48 33 16 49 39 16 50 8 17 51 34 17 52 40 17 53 9 18 54 35 18 55 41 18 56 10 19 57 36 19 58 38 19 59 38 20 60 41 20 61 11 20 62 38 21 63 36 21 64 41 21 65 36 22 66 9 22 67 41 22 68 41 23 69 40 23 70 11 23 71 41 24 72 35 24 73 40 24 74 35 25 75 8 25 76 40 25 77 40 26 78 39 26 79 11 26 80 40 27 81 34 27 82 39 27 83 34 28 84 7 28 85 39 28 86 39 29 87 37 29 88 11 29 89 39 30 90 33 30 91 37 30 92 33 31 93 6 31 94 37 31 95 37 32 96 38 32 97 11 32 98 37 33 99 32 33 100 38 33 101 32 34 102 10 34 103 38 34 104 23 35 105 36 35 106 10 35 107 23 36 108 30 36 109 36 36 110 30 37 111 9 37 112 36 37 113 31 38 114 35 38 115 9 38 116 31 39 117 28 39 118 35 39 119 28 40 120 8 40 121 35 40 122 29 41 123 34 41 124 8 41 125 29 42 126 26 42 127 34 42 128 26 43 129 7 43 130 34 43 131 27 44 132 33 44 133 7 44 134 27 45 135 24 45 136 33 45 137 24 46 138 6 46 139 33 46 140 25 47 141 32 47 142 6 47 143 25 48 144 22 48 145 32 48 146 22 49 147 10 49 148 32 49 149 30 50 150 31 50 151 9 50 152 30 51 153 21 51 154 31 51 155 21 52 156 4 52 157 31 52 158 28 53 159 29 53 160 8 53 161 28 54 162 20 54 163 29 54 164 20 55 165 3 55 166 29 55 167 26 56 168 27 56 169 7 56 170 26 57 171 18 57 172 27 57 173 18 58 174 2 58 175 27 58 176 24 59 177 25 59 178 6 59 179 24 60 180 14 60 181 25 60 182 14 61 183 1 61 184 25 61 185 22 62 186 23 62 187 10 62 188 22 63 189 15 63 190 23 63 191 15 64 192 5 64 193 23 64 194 16 65 195 21 65 196 5 65 197 16 66 198 19 66 199 21 66 200 19 67 201 4 67 202 21 67 203 19 68 204 20 68 205 4 68 206 19 69 207 17 69 208 20 69 209 17 70 210 3 70 211 20 70 212 17 71 213 18 71 214 3 71 215 17 72 216 12 72 217 18 72 218 12 73 219 2 73 220 18 73 221 15 74 222 16 74 223 5 74 224 15 75 225 13 75 226 16 75 227 13 76 228 0 76 229 16 76 230 12 77 231 14 77 232 2 77 233 12 78 234 13 78 235 14 78 236 13 79 237 1 79 238 14 79 239</p>
        </triangles>
      </mesh>
    </geometry>
    <geometry id="Cylinder_008-mesh" name="Cylinder.008">
      <mesh>
        <source id="Cylinder_008-mesh-positions">
          <float_array id="Cylinder_008-mesh-positions-array" count="477">0 0.353523 3.987634 0.2499785 0.2499785 3.987634 0.353523 0 3.987634 0.2499785 -0.2499785 3.987634 0.01528692 -0.3121849 3.891824 -0.203333 -0.2312263 3.911064 -0.3207491 0.05382478 3.962608 -0.2499786 0.2499785 3.987634 0.0971862 0.2346284 3.987634 0.2346284 0.09718626 3.987634 0.2346284 -0.09718626 3.987634 0.0971862 -0.2346284 3.987634 -0.09718626 -0.2346284 3.987634 -0.271051 -0.1198966 4.034897 -0.2346284 0.09718626 3.987634 -0.09718626 0.2346284 3.987634 -0.1924514 0.03258299 3.610898 -0.1495007 0.1495007 3.618183 0 -0.211426 3.618183 -0.1495007 -0.1495007 3.618183 0.2114259 0 3.618183 0.1495007 -0.1495007 3.618183 0 0.211426 3.618183 0.1495007 0.1495007 3.618183 0.1403205 0.05812263 3.618183 0.05812263 -0.1403205 3.618183 -0.1403205 -0.05812263 3.618183 -0.05812269 0.1403205 3.618183 0.05812263 0.1403205 3.618183 0.1403205 -0.05812263 3.618183 -0.05812269 -0.1403205 3.618183 -0.1403205 0.05812263 3.618183 0.06985765 0.6259476 4.242053 0.414563 0.5074799 4.433213 0.5454624 0.1391262 4.343981 0.414563 -0.2469999 4.225344 0.002263844 -0.3878995 4.183513 -0.2674095 -0.2359036 4.184035 -0.4047883 0.1010137 4.108109 -0.2329276 0.4761536 4.270991 0.1770806 0.4815372 4.477083 0.3904803 0.2760431 4.44856 0.394742 -0.01641315 4.351644 0.1839858 -0.2238351 4.358455 -0.1145734 -0.2300466 4.410146 -0.2592461 -0.05246561 4.258284 -0.2313877 0.247528 4.296287 -0.0919426 0.4791329 4.434251 0.2676684 0.1222039 4.513909 0.007900834 0.3718277 4.525683 0.006003022 -0.1052394 4.416892 -0.2367877 0.1259831 4.516797 0.4408921 -0.07095962 5.246046 0.3470424 0.02655738 5.403344 0.2832645 -0.205498 5.235406 0.1894147 -0.107981 5.392704 0.6222452 0.9523704 4.742744 0.382678 0.9330719 4.87 0.6780644 0.7689535 4.935621 0.5718582 0.6517838 5.120657 0.2764719 0.8159026 5.055037 1.099299 0.05450654 4.681805 1.013343 0.1781283 4.857963 1.010567 -0.1121852 4.816129 0.9405592 0.01536858 4.963942 0.02061229 0.09772074 5.023219 0.2313143 0.2914135 5.046111 0.4162819 0.1105708 4.946278 0.18457 -0.064345 4.879564 0.08082926 0.4134345 4.665378 0.3223 0.1830312 4.654421 -0.1622253 0.180252 4.652092 0.05369901 -0.03457421 4.568716 0.6235327 0.3083205 4.666275 0.7440017 0.1780511 4.525906 0.6242755 0.0169354 4.634279 0.5257348 0.150021 4.751939 0.4386851 0.3633892 4.865447 0.1746396 0.5280425 4.796496 0.5060609 0.6819547 4.595558 0.5332621 0.4865528 4.719274 0.2863591 0.6565653 4.680325 0.07998901 0.7845143 4.25914 0.1184169 2.2083 4.573196 -0.1294752 1.808908 4.330337 -0.07543295 2.149194 4.617339 -0.3561574 0.7839732 4.503085 -0.4362846 0.661638 4.682852 -0.1506858 0.7263616 4.607177 -0.08406025 0.6687 4.755767 -0.370925 0.5726079 4.858413 -0.5545106 0.1934896 4.185879 -0.5560519 0.05384641 4.459388 -0.4333429 0.3427636 4.412185 -0.4510558 0.2350863 4.58177 -0.7798154 0.2814457 4.32976 -0.8833724 0.1394096 4.474789 -0.7136703 0.4975498 4.39723 -0.7703863 0.3863771 4.621382 -0.4876396 -0.2908267 4.505081 -0.3214675 -0.3572458 4.660389 -0.5869544 -0.1104578 4.647395 -0.3282443 -0.2484492 4.852063 -0.476189 -0.1124544 4.853312 -0.7399425 -0.4812737 4.628189 -0.632123 -0.5996944 4.752114 -0.8398285 -0.3715935 4.782298 -0.6669461 -0.5718765 4.935211 -0.7842797 -0.4485813 4.958137 -0.01024115 -0.4897958 4.236302 0.109611 -0.4439064 4.527132 -0.08635002 -0.4318884 4.508715 -0.005244553 -0.3810349 4.606095 -0.04968422 -0.684672 4.206619 0.06354421 -1.885201 4.500084 -0.1299664 -1.85001 4.386272 -0.05039763 -1.853171 4.596888 0.484888 -0.3829934 4.357357 0.5160369 -0.2863994 4.48754 0.3663885 -0.3947457 4.474895 0.4768592 -0.2460768 4.632527 0.2806642 -0.335173 4.566389 0.5968559 -0.6448776 4.534451 0.6419785 -0.6297894 4.619541 0.5434824 -0.6766115 4.61132 0.642849 -0.644995 4.710109 0.5133989 -0.6654362 4.686758 0 0.1925776 2.849914 0.002476513 0.1895479 2.849914 0.05294102 0.1278111 2.849914 -0.002476513 0.1895479 2.849914 -0.1322794 0.1357818 2.849914 -0.05294108 0.1278111 2.849914 0.1361729 0.1361729 2.849914 0.1357818 0.1322794 2.849914 -0.1357818 0.1322794 2.849914 -0.1361729 0.1361729 2.849914 0.1322794 0.1357818 2.849914 0.1278111 0.05294102 2.849914 -0.1278111 0.05294102 2.849914 -0.1300882 0.05183559 2.849914 0.1895479 0.002476513 2.849914 0.1925776 0 2.849914 -0.1917697 0.001416206 2.849914 0.1895479 -0.002476513 2.849914 -0.1278111 -0.05294102 2.849914 -0.1895479 -0.002476513 2.849914 0.1278111 -0.05294102 2.849914 0.1357818 -0.1322794 2.849914 -0.1357818 -0.1322794 2.849914 -0.002476513 -0.1895479 2.849914 -0.05294108 -0.1278111 2.849914 0.1361729 -0.1361729 2.849914 0.1322794 -0.1357818 2.849914 0.05294102 -0.1278111 2.849914 0.002476513 -0.1895479 2.849914 -0.1361729 -0.1361729 2.849914 -0.1322794 -0.1357818 2.849914 0 -0.1925776 2.849914</float_array>
          <technique_common>
            <accessor source="#Cylinder_008-mesh-positions-array" count="159" stride="3">
              <param name="X" type="float"/>
              <param name="Y" type="float"/>
              <param name="Z" type="float"/>
            </accessor>
          </technique_common>
        </source>
        <source id="Cylinder_008-mesh-normals">
          <float_array id="Cylinder_008-mesh-normals-array" count="894">0.5322895 0.6511872 -0.5409466 -0.4086855 0.8908247 -0.1985139 -0.6840048 -0.6862121 -0.2474884 0.6149261 -0.7522822 -0.2365113 0.752282 0.6149264 -0.2365111 0.09712612 0.9667622 -0.2365111 -0.9245925 -0.2058216 -0.3205716 -0.09712606 -0.9667621 -0.2365111 0.9667623 -0.09712445 -0.2365112 0.614927 0.7522816 -0.236511 0.7462872 -0.610027 -0.2663127 -0.825003 -0.4959149 -0.2709954 -0.752282 0.6149264 -0.2365109 -0.09712392 0.9667624 -0.2365111 0.9667622 0.09712487 -0.2365114 0.09676152 -0.9631462 -0.2509716 -0.9667621 -0.09712535 -0.2365115 -0.4895836 -0.4803845 0.7276941 -0.09982383 -0.9936304 0.05228728 0.8188976 0.08226937 -0.5680128 -0.8220513 -0.5687414 -0.0276615 0.7585185 -0.6381859 -0.1317903 -0.9986484 0.02629369 0.04483646 -0.016833 -0.9996361 -0.02107965 -0.2768009 0.8650354 -0.4184436 -0.84588 -0.3923425 -0.3613234 0.4773734 0.768384 -0.4262635 0.9301708 0.2435595 -0.2747018 -0.9981911 -7.10177e-5 0.06012284 0.9536444 -0.09580731 -0.2852777 -0.8131337 0.4948084 -0.306559 -0.1777432 0.8790515 -0.4423529 0.6293184 -0.769888 -0.1059756 0.08517253 -0.8234223 0.5610004 0.4433439 0.8209691 -0.3598001 -0.5762443 0.5560611 0.598948 0.9203865 0.05283266 -0.3874243 -0.582699 -0.7975507 -0.1561247 -0.9027433 -0.03833496 -0.4284683 0.6484012 0.3128346 0.6940537 -0.7682473 0.07828694 -0.6353483 0.4673704 -0.5990019 0.6502013 0.7447425 0.5961772 0.2998857 -0.7446717 -0.6667122 -0.03096753 0.6018959 -0.6709404 -0.4330825 0.270673 0.7355059 0.6211016 0.897529 -0.139833 -0.4181969 0.8534464 -0.5056944 0.1261055 -0.4217004 0.5665269 -0.7079662 -0.8676481 0.4488765 -0.213768 0.8734592 -0.07761567 0.4806714 -0.4762563 -0.7534316 0.4533441 -0.2066096 0.5613189 0.8013948 0.1262709 -0.6623198 -0.738504 0.6550829 -0.6745325 -0.3404003 -0.6631145 -0.7302657 0.1642898 0.6870588 0.7254366 -0.04113489 -0.6299493 0.6319059 0.4515073 -0.6888567 0.7095698 0.1482808 0.5846284 0.6366307 -0.5029028 -0.4788093 -0.69129 0.5411654 0.6103075 -0.774029 0.1685343 0.6340171 -0.6360456 -0.4398503 -0.5726787 0.6346235 0.5189338 -0.3985845 -0.7551982 0.5203905 0.2979979 0.8135778 -0.499288 -0.7918573 0.6034426 -0.09391021 -0.3178571 0.7298407 -0.6052268 0.7886503 -0.6137042 0.03739148 0.9137166 -0.1208068 -0.3879791 -0.5149205 -0.566202 0.6436399 0.5388467 0.1675598 -0.8255713 0.1404343 0.09720104 -0.9853072 -0.9799472 -0.01211673 0.1988889 0.2969991 -0.03528296 0.9542258 -0.1008523 0.9114279 0.3989086 -0.9383963 -0.2924041 -0.1841534 0.8132361 0.4923475 -0.3102275 0.4923482 0.5743994 -0.6539562 0.4350439 -0.4609558 0.7734704 -0.08432829 -0.4797961 0.8733181 0.5086063 0.7018325 0.4987493 0.05826348 0.8187192 -0.5712307 -0.6184496 -0.6984645 -0.3600939 -0.864217 0.4816608 -0.1453682 0.1840035 0.2411766 -0.9528781 0.417918 0.7465618 0.5176777 -0.5386549 -0.7491488 -0.3855219 0.6345311 -0.6623198 0.3983751 0.142784 -0.9872083 -0.07094055 0.6528893 0.4105103 0.6365666 -0.4711911 0.8423364 0.2616265 0.6942893 -0.6830126 0.2268396 -0.7393951 -0.6732718 -6.74734e-5 0.1329342 -0.6562384 -0.7427514 0.1227801 0.1245356 0.9845892 -0.5705356 0.6707445 0.4739103 -0.6787326 0.3144007 -0.6636824 0.6413591 -0.03488284 0.7664475 -0.9475367 -0.2371548 -0.2143172 0.7944845 -0.3533698 -0.4938867 -0.5446892 0.4894119 0.6810212 0.4773409 -0.1659149 -0.8629125 0.7988265 -0.07068908 -0.5973939 -0.7732927 0.01975476 0.6337416 -0.9587218 0.05359762 -0.2792489 -0.5081354 -0.6123828 -0.6056284 0.8839451 0.4538204 0.1126419 -0.3793686 -0.7622174 -0.5245037 0.9290536 0.1538387 -0.3364419 -0.3570142 0.09646308 0.9291048 0.1192213 -0.9741555 0.1918525 -0.1931452 0.1092661 0.9750671 0.9250402 0.1636909 -0.3427914 -0.7324043 -0.6192668 -0.2830065 0.9114022 0.387508 0.1385045 0.4040778 0.7983847 -0.4464337 -0.3942909 0.8973959 -0.1980289 -0.7606699 -0.6217843 -0.1864559 0.614927 -0.7522816 -0.236511 0.7522823 0.6149262 -0.2365108 0.09712392 0.9667624 -0.2365111 -0.9832519 0.09878104 -0.1531603 -0.09712392 -0.9667624 -0.2365111 0.9667622 -0.09712487 -0.2365114 0.6149261 0.7522822 -0.2365113 0.7964775 -0.5603402 -0.2272498 -0.8634829 -0.3833975 -0.327725 -0.7522816 0.6149268 -0.2365111 -0.09712606 0.9667621 -0.2365111 0.9667623 0.09712445 -0.2365112 0.136119 -0.963266 -0.2314957 -0.9667623 -0.09712445 -0.2365112 -0.4343736 -0.4760727 0.7646401 -0.06634646 -0.9960852 0.05841797 0.8417331 0.3132193 -0.4397489 -0.6715354 -0.7093629 -0.2141134 0.7397218 -0.6550343 -0.1540836 -0.9229497 -0.3144241 -0.2220392 0.02099424 -0.9997112 0.01170486 -0.2961446 0.8450805 -0.4451263 -0.8038437 -0.5563779 0.2104254 0.07804846 0.7768758 -0.6247979 0.5782868 0.4726983 -0.6649366 -0.9932562 -0.09978669 0.05903375 0.951722 -0.1178293 -0.2834461 -0.7336193 0.5996715 -0.3196823 -0.08991819 0.8950365 -0.4368345 0.7108834 -0.694366 -0.1118062 -0.02619254 -0.5489574 0.8354399 0.4519463 0.8131548 -0.366775 -0.5495277 0.5976666 0.5837929 0.946254 -0.09381276 0.30952 -0.6422963 -0.758853 -0.1076934 -0.9046518 -0.05288034 -0.4228579 0.5388842 0.4614825 0.7047253 -0.8183306 0.2465614 -0.5191749 0.4673704 -0.5990017 0.6502014 0.8195723 0.554221 0.1453981 -0.7304857 -0.6796346 -0.06698888 0.6177943 -0.6491249 -0.4438098 0.2706713 0.735508 0.6210999 0.2706758 0.7355078 0.6210982 0.8966946 -0.1607924 -0.4124132 0.8334766 -0.5345499 0.1399044 -0.345664 0.6097025 -0.7132878 -0.8290923 0.5063144 -0.2371745 0.8734596 -0.07761681 0.4806705 -0.4645835 -0.767284 0.442083 -0.2032178 0.5964724 0.7764814 0.1265122 -0.6166543 -0.777002 0.6251241 -0.6863383 -0.3716982 -0.6064836 -0.7741749 0.1811931 0.6888138 0.7238186 -0.04027873 -0.6305745 0.6315696 0.451105 -0.7065195 0.6992668 0.1088865 0.5893168 0.6367154 -0.4972919 -0.4871945 -0.723124 0.4896257 0.6052522 -0.7889184 0.1061964 0.5478499 -0.7074514 -0.4465122 -0.5480338 0.6572694 0.5173548 -0.3825136 -0.8287727 0.4084354 0.3584399 0.7880362 -0.5005196 -0.5646114 0.8161196 -0.1231386 -0.1934229 0.7924559 -0.5784474 0.8093091 -0.5866501 0.02933436 0.9140523 -0.1183757 -0.3879377 -0.5197434 -0.5652104 0.6406279 -0.3504583 0.6357318 -0.6877676 -0.7345978 -0.07344341 -0.6745163 -0.7132785 -0.06940841 0.6974356 0.2351238 -0.04605138 0.9708739 -0.04383879 0.8349121 0.5486348 -0.117501 0.8673664 0.4836003 -0.9117906 -0.3843848 0.1445214 0.8886003 0.3852556 -0.2489333 0.5855721 0.6242933 -0.5170718 0.4322188 -0.4649478 0.7726645 -0.1314357 -0.5013374 0.8552109 0.5701646 0.713491 0.4072384 0.1059753 0.7349008 -0.6698433 -0.5064461 -0.7985548 -0.3253039 -0.9453896 0.3152345 -0.08286023 -0.01929026 0.8393206 -0.5432947 0.402293 0.775579 0.4864541 -0.1989783 -0.6253649 -0.7545373 0.7008012 -0.6733334 0.2355842 0.03840255 -0.9032573 -0.4273775 0.4809637 0.5167225 0.708288 -0.6104007 0.6756694 -0.4133787 0.7222734 -0.590197 0.3605395 -0.7271438 -0.6856365 -0.03412634 -0.7419546 -0.6679321 -0.05805248 0.3376324 -0.6791762 -0.6517087 0.2569327 0.06521058 0.9642269 -0.5901424 0.7391619 0.3246102 -0.5834492 0.280196 -0.7622842 0.5580705 -0.02230447 0.8294938 -0.9104822 -0.09658432 -0.4021114 0.8325663 -0.4856162 -0.2664777 -0.7990412 0.1699326 0.5767636 -0.2166581 -0.9739296 0.06723427 0.9255788 -0.02249181 -0.3778864 -0.9354754 -0.001740157 0.3533875 -0.9097407 0.1237686 0.3962996 -0.520865 -0.6197003 -0.587087 0.8252466 0.5308502 0.1927851 -0.4418531 -0.7319605 -0.5186518 0.9146813 0.2517961 -0.3161599 -0.4155014 0.09202653 0.9049254 0.4330472 -0.8986259 -0.07029718 0.4346603 -0.8874724 -0.1531769 -0.3544102 0.08948922 0.9307981 0.8658454 0.1320556 -0.4825694 -0.7741317 -0.5932591 -0.2208254 0.9177626 0.3929947 0.05715894 0.09994906 -0.9948715 -0.01552492 -0.9948716 -0.09994804 -0.01552504 -0.7741547 0.6328061 -0.01552492 -0.4384256 0.8986707 -0.01319968 0.774155 -0.6328057 -0.01552492 -0.6328052 -0.7741554 -0.01552492 0.6328052 -0.7741554 -0.01552492 -0.099949 0.9948714 -0.01552492 -0.0999487 -0.9948716 -0.01552492 -0.7741547 -0.6328062 -0.01552492 -0.9948715 0.09994935 -0.01552492 -0.09994757 0.9948717 -0.0155248 -0.9948715 -0.09994935 -0.01552492 0.9948716 -0.09994852 -0.01552486 0.6328075 0.7741535 -0.01552492 -0.7741553 -0.6328054 -0.01552492 -0.7741541 0.6328068 -0.01552492 0.6328061 -0.7741547 -0.01552486 0.9948715 -0.09994935 -0.01552492 7.51881e-6 0 -1 0.7741544 -0.6328064 -0.01552498 -0.9948716 0.09994852 -0.01552486 0.6328052 0.7741554 -0.01552492 -0.868325 -0.4956116 0.01952016 0.09994757 -0.9948717 -0.0155248 0.09994912 0.9948715 -0.01552492 -0.6325522 0.7738456 -0.03226011 0.9948716 0.09994804 -0.01552504 0.7741556 0.6328049 -0.01552492 0.7741549 0.6328058 -0.01552498 0.09994876 0.9948716 -0.01552486 0.9948715 0.09994935 -0.01552492 -0.099949 -0.9948714 -0.01552492 -0.9948716 -0.09994852 -0.01552486 -0.436684 0.8995206 -0.01302921 -0.09994757 -0.9948717 -0.0155248 -0.0999487 0.9948716 -0.01552492 0.9948716 -0.09994804 -0.01552504 0.6328061 0.7741547 -0.01552486 -0.7741541 -0.6328068 -0.01552492 -0.7741553 0.6328054 -0.01552492 0.6328075 -0.7741535 -0.01552492 4.69057e-6 0 -1 0 0 -1 -5.40778e-5 0 -1 -1.55154e-5 0 -1 -1.70968e-6 0 -1 1.21826e-5 0 -1 -7.51882e-6 0 -1 -6.09133e-6 0 -1 6.22879e-6 0 -1 -6.09132e-6 0 -1 1.70968e-6 0 -1 -6.70046e-5 0 -1 -6.22879e-6 0 -1 0.7741556 -0.6328049 -0.01552492 -0.9948716 0.09994804 -0.01552504 -0.8675217 -0.4970138 0.01958811 0.09994876 -0.9948716 -0.01552486 0.9948716 0.09994852 -0.01552486 0.7741544 0.6328064 -0.01552498 0.09994757 0.9948717 -0.0155248</float_array>
          <technique_common>
            <accessor source="#Cylinder_008-mesh-normals-array" count="298" stride="3">
              <param name="X" type="float"/>
              <param name="Y" type="float"/>
              <param name="Z" type="float"/>
            </accessor>
          </technique_common>
        </source>
        <source id="Cylinder_008-mesh-colors-Col" name="Col">
          <float_array id="Cylinder_008-mesh-colors-Col-array" count="2826">0.3568627 0.5803922 0.2823529 0.3568627 0.5803922 0.2823529 0.3568627 0.5803922 0.2823529 0.3647059 0.5882353 0.2901961 0.3568627 0.5803922 0.2823529 0.3647059 0.5882353 0.2862745 0.3647059 0.5882353 0.2901961 0.3568627 0.5803922 0.2823529 0.3568627 0.5803922 0.2823529 0.7333334 1 0.6509804 0.3568627 0.5803922 0.2823529 0.7607843 1 0.6784314 0.4039216 0.6313726 0.3294118 0.3568627 0.5803922 0.2823529 0.4 0.6235294 0.3254902 0.4 0.6313726 0.3254902 0.3568627 0.5803922 0.2823529 0.3960784 0.6196079 0.317647 0.3647059 0.5882353 0.2901961 0.3568627 0.5803922 0.2823529 0.3568627 0.5803922 0.2823529 0.7607843 1 0.6784314 0.3568627 0.5803922 0.2823529 0.7607843 1 0.6784314 0.3882353 0.6156863 0.3137255 0.3568627 0.5803922 0.2823529 0.3843137 0.6078432 0.3058823 0.3764706 0.6 0.3019608 0.3568627 0.5803922 0.2823529 0.3568627 0.5803922 0.2823529 0.7607843 1 0.6784314 0.3568627 0.5803922 0.2823529 0.7607843 1 0.6784314 0.3647059 0.5882353 0.2901961 0.3568627 0.5803922 0.2823529 0.3647059 0.5882353 0.2901961 0.3647059 0.5882353 0.2901961 0.3568627 0.5803922 0.2823529 0.3568627 0.5803922 0.2823529 0.3882353 0.6156863 0.3137255 0.3568627 0.5803922 0.2823529 0.3568627 0.5803922 0.2823529 0.3686274 0.5960785 0.2941176 0.3568627 0.5803922 0.2823529 0.3568627 0.5803922 0.2823529 0.7607843 1 0.6784314 0.3568627 0.5803922 0.2823529 0.7607843 1 0.6784314 0.3647059 0.5882353 0.2901961 0.3568627 0.5803922 0.2823529 0.3568627 0.5803922 0.2823529 0.3568627 0.5803922 0.2823529 0.3568627 0.5803922 0.2823529 0.3568627 0.5803922 0.2823529 0.3568627 0.5803922 0.2823529 0.3568627 0.5803922 0.2823529 0.3568627 0.5803922 0.2823529 0.3568627 0.5803922 0.2823529 0.3568627 0.5803922 0.2823529 0.3568627 0.5803922 0.2823529 0.3568627 0.5803922 0.2823529 0.3568627 0.5803922 0.2823529 0.3568627 0.5803922 0.2823529 0.3568627 0.5803922 0.2823529 0.3568627 0.5803922 0.2823529 0.3568627 0.5803922 0.2823529 0.3568627 0.5803922 0.2823529 0.3568627 0.5803922 0.2823529 0.3568627 0.5803922 0.2823529 0.3568627 0.5803922 0.2823529 0.3568627 0.5803922 0.2823529 0.3568627 0.5803922 0.2823529 0.3568627 0.5803922 0.2823529 0.3568627 0.5803922 0.2823529 0.3568627 0.5803922 0.2823529 0.3568627 0.5803922 0.2823529 0.3568627 0.5803922 0.2823529 0.3568627 0.5803922 0.2823529 0.3568627 0.5803922 0.2823529 0.3568627 0.5803922 0.2823529 0.3568627 0.5803922 0.2823529 0.3568627 0.5803922 0.2823529 0.3568627 0.5803922 0.2823529 0.3568627 0.5803922 0.2823529 0.3568627 0.5803922 0.2823529 0.3568627 0.5803922 0.2823529 0.3568627 0.5803922 0.2823529 0.3568627 0.5803922 0.2823529 0.3568627 0.5803922 0.2823529 0.3568627 0.5803922 0.2823529 0.3568627 0.5803922 0.2823529 0.3568627 0.5803922 0.2823529 0.3568627 0.5803922 0.2823529 0.3568627 0.5803922 0.2823529 0.3568627 0.5803922 0.2823529 0.3568627 0.5803922 0.2823529 0.3568627 0.5803922 0.2823529 0.3568627 0.5803922 0.2823529 0.3568627 0.5803922 0.2823529 0.3568627 0.5803922 0.2823529 0.3568627 0.5803922 0.2823529 0.3568627 0.5803922 0.2823529 0.3568627 0.5803922 0.2823529 0.3568627 0.5803922 0.2823529 0.3568627 0.5803922 0.2823529 0.3568627 0.5803922 0.2823529 0.3568627 0.5803922 0.2823529 0.3568627 0.5803922 0.2823529 0.3568627 0.5803922 0.2823529 0.3568627 0.5803922 0.2823529 0.3568627 0.5803922 0.2823529 0.3568627 0.5803922 0.2823529 0.3568627 0.5803922 0.2823529 0.3568627 0.5803922 0.2823529 0.3568627 0.5803922 0.2823529 0.3568627 0.5803922 0.2823529 0.3568627 0.5803922 0.2823529 0.3568627 0.5803922 0.2823529 0.3568627 0.5803922 0.2823529 0.3568627 0.5803922 0.2823529 0.3568627 0.5803922 0.2823529 0.3568627 0.5803922 0.2823529 0.3568627 0.5803922 0.2823529 0.3568627 0.5803922 0.2823529 0.3568627 0.5803922 0.2823529 0.3568627 0.5803922 0.2823529 0.3568627 0.5803922 0.2823529 0.3568627 0.5803922 0.2823529 0.3568627 0.5803922 0.2823529 0.3568627 0.5803922 0.2823529 0.3568627 0.5803922 0.2823529 0.3568627 0.5803922 0.2823529 0.3568627 0.5803922 0.2823529 0.3568627 0.5803922 0.2823529 0.3568627 0.5803922 0.2823529 0.3568627 0.5803922 0.2823529 0.3568627 0.5803922 0.2823529 0.3568627 0.5803922 0.2823529 0.3568627 0.5803922 0.2823529 0.3568627 0.5803922 0.2823529 0.3568627 0.5803922 0.2823529 0.3568627 0.5803922 0.2823529 0.3568627 0.5803922 0.2823529 0.3568627 0.5803922 0.2823529 0.3568627 0.5803922 0.2823529 0.3568627 0.5803922 0.2823529 0.3568627 0.5803922 0.2823529 0.3568627 0.5803922 0.2823529 0.3568627 0.5803922 0.2823529 0.3568627 0.5803922 0.2823529 0.3568627 0.5803922 0.2823529 0.3568627 0.5803922 0.2823529 0.3568627 0.5803922 0.2823529 0.3568627 0.5803922 0.2823529 0.3568627 0.5803922 0.2823529 0.3568627 0.5803922 0.2823529 0.3568627 0.5803922 0.2823529 0.3568627 0.5803922 0.2823529 0.3568627 0.5803922 0.2823529 0.3568627 0.5803922 0.2823529 0.3568627 0.5803922 0.2823529 0.3568627 0.5803922 0.2823529 0.3568627 0.5803922 0.2823529 0.3568627 0.5803922 0.2823529 0.3568627 0.5803922 0.2823529 0.3568627 0.5803922 0.2823529 0.3568627 0.5803922 0.2823529 0.3568627 0.5803922 0.2823529 0.3568627 0.5803922 0.2823529 0.3568627 0.5803922 0.2823529 0.3568627 0.5803922 0.2823529 0.3568627 0.5803922 0.2823529 0.3568627 0.5803922 0.2823529 0.3568627 0.5803922 0.2823529 0.3568627 0.5803922 0.2823529 0.3568627 0.5803922 0.2823529 0.3568627 0.5803922 0.2823529 0.3568627 0.5803922 0.2823529 0.3568627 0.5803922 0.2823529 0.3568627 0.5803922 0.2823529 0.3568627 0.5803922 0.2823529 0.3568627 0.5803922 0.2823529 0.3568627 0.5803922 0.2823529 0.3568627 0.5803922 0.2823529 0.3568627 0.5803922 0.2823529 0.3568627 0.5803922 0.2823529 0.3568627 0.5803922 0.2823529 0.3568627 0.5803922 0.2823529 0.3568627 0.5803922 0.2823529 0.3568627 0.5803922 0.2823529 0.3568627 0.5803922 0.2823529 0.3568627 0.5803922 0.2823529 0.3568627 0.5803922 0.2823529 0.3568627 0.5803922 0.2823529 0.3568627 0.5803922 0.2823529 0.3568627 0.5803922 0.2823529 0.3568627 0.5803922 0.2823529 0.3568627 0.5803922 0.2823529 0.3568627 0.5803922 0.2823529 0.3568627 0.5803922 0.2823529 0.3568627 0.5803922 0.2823529 0.3568627 0.5803922 0.2823529 0.3568627 0.5803922 0.2823529 0.3568627 0.5803922 0.2823529 0.3568627 0.5803922 0.2823529 0.3568627 0.5803922 0.2823529 0.3568627 0.5803922 0.2823529 0.3568627 0.5803922 0.2823529 0.3568627 0.5803922 0.2823529 0.3568627 0.5803922 0.2823529 0.3568627 0.5803922 0.2823529 0.3568627 0.5803922 0.2823529 0.3568627 0.5803922 0.2823529 0.3568627 0.5803922 0.2823529 0.3568627 0.5803922 0.2823529 0.3568627 0.5803922 0.2823529 0.3568627 0.5803922 0.2823529 0.3568627 0.5803922 0.2823529 0.3568627 0.5803922 0.2823529 0.3568627 0.5803922 0.2823529 0.3568627 0.5803922 0.2823529 0.3568627 0.5803922 0.2823529 0.3568627 0.5803922 0.2823529 0.3568627 0.5803922 0.2823529 0.3568627 0.5803922 0.2823529 0.3568627 0.5803922 0.2823529 0.3568627 0.5803922 0.2823529 0.3568627 0.5803922 0.2823529 0.3568627 0.5803922 0.2823529 0.3568627 0.5803922 0.2823529 0.3568627 0.5803922 0.2823529 0.3568627 0.5803922 0.2823529 0.3568627 0.5803922 0.2823529 0.3568627 0.5803922 0.2823529 0.3568627 0.5803922 0.2823529 0.3568627 0.5803922 0.2823529 0.3568627 0.5803922 0.2823529 0.3568627 0.5803922 0.2823529 0.3647059 0.5882353 0.2901961 0.3568627 0.5803922 0.2823529 0.3568627 0.5803922 0.2823529 0.3568627 0.5803922 0.2823529 0.3568627 0.5803922 0.2823529 0.3607843 0.5843138 0.2862745 0.3568627 0.5803922 0.2823529 0.3568627 0.5803922 0.2823529 0.3568627 0.5803922 0.2823529 0.3568627 0.5803922 0.2823529 0.3568627 0.5803922 0.2823529 0.3568627 0.5803922 0.2823529 0.3568627 0.5803922 0.2823529 0.3568627 0.5803922 0.2823529 0.3568627 0.5803922 0.2823529 0.3568627 0.5803922 0.2823529 0.3568627 0.5803922 0.2823529 0.3568627 0.5803922 0.2823529 0.4117647 0.6156863 0.3411765 0.3568627 0.5803922 0.2823529 0.3568627 0.5803922 0.2823529 0.3568627 0.5803922 0.2823529 0.3568627 0.5803922 0.2823529 0.3568627 0.5803922 0.2823529 0.3568627 0.5803922 0.2823529 0.3568627 0.5803922 0.2823529 0.3568627 0.5803922 0.2823529 0.3568627 0.5803922 0.2823529 0.3568627 0.5803922 0.2823529 0.3568627 0.5803922 0.2823529 0.3568627 0.5803922 0.2823529 0.3568627 0.5803922 0.2823529 0.3568627 0.5803922 0.2823529 0.3568627 0.5803922 0.2823529 0.3568627 0.5803922 0.2823529 0.3568627 0.5803922 0.2823529 0.3568627 0.5803922 0.2823529 0.3568627 0.5803922 0.2823529 0.3568627 0.5803922 0.2823529 0.3568627 0.5803922 0.2823529 0.3568627 0.5803922 0.2823529 0.3568627 0.5803922 0.2823529 0.3568627 0.5803922 0.2823529 0.3568627 0.5803922 0.2823529 0.3568627 0.5803922 0.2823529 0.3568627 0.5803922 0.2823529 0.3568627 0.5803922 0.2823529 0.3568627 0.5803922 0.2823529 0.3568627 0.5803922 0.2823529 0.3568627 0.5803922 0.2823529 0.3568627 0.5803922 0.2823529 0.3568627 0.5803922 0.2823529 0.3607843 0.5843138 0.2862745 0.3568627 0.5803922 0.2823529 0.3568627 0.5803922 0.2823529 0.3568627 0.5803922 0.2823529 0.3568627 0.5803922 0.2823529 0.3568627 0.5803922 0.2823529 0.3568627 0.5803922 0.2823529 0.3568627 0.5803922 0.2823529 0.3568627 0.5803922 0.2823529 0.3568627 0.5803922 0.2823529 0.3568627 0.5803922 0.2823529 0.3568627 0.5803922 0.2823529 0.3568627 0.5803922 0.2823529 0.3568627 0.5803922 0.2823529 0.3568627 0.5803922 0.2823529 0.3568627 0.5803922 0.2823529 0.3568627 0.5803922 0.2823529 0.3568627 0.5803922 0.2823529 0.3568627 0.5803922 0.2823529 0.3568627 0.5803922 0.2823529 0.3568627 0.5803922 0.2823529 0.3568627 0.5803922 0.2823529 0.3568627 0.5803922 0.2823529 0.4392157 0.6392157 0.372549 0.3568627 0.5803922 0.2823529 0.3568627 0.5803922 0.2823529 0.4 0.6117647 0.3294118 0.3568627 0.5803922 0.2823529 0.3568627 0.5803922 0.2823529 0.3568627 0.5803922 0.2823529 0.3568627 0.5803922 0.2823529 0.3568627 0.5803922 0.2823529 0.3568627 0.5803922 0.2823529 0.3568627 0.5803922 0.2823529 0.3568627 0.5803922 0.2823529 0.3568627 0.5803922 0.2823529 0.3568627 0.5803922 0.2823529 0.3568627 0.5803922 0.2823529 0.3568627 0.5803922 0.2823529 0.3568627 0.5803922 0.2823529 0.3568627 0.5803922 0.2823529 0.3568627 0.5803922 0.2823529 0.3568627 0.5803922 0.2823529 0.3568627 0.5803922 0.2823529 0.3568627 0.5803922 0.2823529 0.3568627 0.5803922 0.2823529 0.3568627 0.5803922 0.2823529 0.3568627 0.5803922 0.2823529 0.3568627 0.5803922 0.2823529 0.3568627 0.5803922 0.2823529 0.3568627 0.5803922 0.2823529 0.3568627 0.5803922 0.2823529 0.3568627 0.5803922 0.2823529 0.3568627 0.5803922 0.2823529 0.3568627 0.5803922 0.2823529 0.3568627 0.5803922 0.2823529 0.3568627 0.5803922 0.2823529 0.3568627 0.5803922 0.2823529 0.3568627 0.5803922 0.2823529 0.3568627 0.5803922 0.2823529 0.3568627 0.5803922 0.2823529 0.3647059 0.5882353 0.2901961 0.3568627 0.5803922 0.2823529 0.3568627 0.5803922 0.2823529 0.3647059 0.5882353 0.2901961 0.3647059 0.5882353 0.2901961 0.3568627 0.5803922 0.2823529 0.7333334 1 0.6509804 0.3568627 0.5803922 0.2823529 0.3568627 0.5803922 0.2823529 0.4039216 0.6313726 0.3294118 0.3568627 0.5803922 0.2823529 0.3568627 0.5803922 0.2823529 0.4 0.6313726 0.3254902 0.3568627 0.5803922 0.2823529 0.3568627 0.5803922 0.2823529 0.3647059 0.5882353 0.2901961 0.3647059 0.5882353 0.2901961 0.3568627 0.5803922 0.2823529 0.7607843 1 0.6784314 0.3568627 0.5803922 0.2823529 0.3568627 0.5803922 0.2823529 0.3882353 0.6156863 0.3137255 0.3568627 0.5803922 0.2823529 0.3568627 0.5803922 0.2823529 0.3764706 0.6 0.3019608 0.3843137 0.6078432 0.3058823 0.3568627 0.5803922 0.2823529 0.7607843 1 0.6784314 0.3568627 0.5803922 0.2823529 0.3568627 0.5803922 0.2823529 0.3647059 0.5882353 0.2901961 0.3568627 0.5803922 0.2823529 0.3568627 0.5803922 0.2823529 0.3647059 0.5882353 0.2901961 0.3647059 0.5882353 0.2901961 0.3568627 0.5803922 0.2823529 0.3882353 0.6156863 0.3137255 0.4 0.6235294 0.3254902 0.3568627 0.5803922 0.2823529 0.3686274 0.5960785 0.2941176 0.3764706 0.6 0.3019608 0.3568627 0.5803922 0.2823529 0.7607843 1 0.6784314 0.3568627 0.5803922 0.2823529 0.3568627 0.5803922 0.2823529 0.3647059 0.5882353 0.2901961 0.3647059 0.5882353 0.2862745 0.3568627 0.5803922 0.2823529 0.3568627 0.5803922 0.2823529 0.3568627 0.5803922 0.2823529 0.3568627 0.5803922 0.2823529 0.3568627 0.5803922 0.2823529 0.3568627 0.5803922 0.2823529 0.3568627 0.5803922 0.2823529 0.3568627 0.5803922 0.2823529 0.3568627 0.5803922 0.2823529 0.3568627 0.5803922 0.2823529 0.3568627 0.5803922 0.2823529 0.3568627 0.5803922 0.2823529 0.3568627 0.5803922 0.2823529 0.3568627 0.5803922 0.2823529 0.3568627 0.5803922 0.2823529 0.3568627 0.5803922 0.2823529 0.3568627 0.5803922 0.2823529 0.3568627 0.5803922 0.2823529 0.3568627 0.5803922 0.2823529 0.3568627 0.5803922 0.2823529 0.3568627 0.5803922 0.2823529 0.3568627 0.5803922 0.2823529 0.3568627 0.5803922 0.2823529 0.3568627 0.5803922 0.2823529 0.3568627 0.5803922 0.2823529 0.3568627 0.5803922 0.2823529 0.3568627 0.5803922 0.2823529 0.3568627 0.5803922 0.2823529 0.3568627 0.5803922 0.2823529 0.3568627 0.5803922 0.2823529 0.3568627 0.5803922 0.2823529 0.3568627 0.5803922 0.2823529 0.3568627 0.5803922 0.2823529 0.3568627 0.5803922 0.2823529 0.3568627 0.5803922 0.2823529 0.3568627 0.5803922 0.2823529 0.3568627 0.5803922 0.2823529 0.3568627 0.5803922 0.2823529 0.3568627 0.5803922 0.2823529 0.3568627 0.5803922 0.2823529 0.3568627 0.5803922 0.2823529 0.3568627 0.5803922 0.2823529 0.3568627 0.5803922 0.2823529 0.3568627 0.5803922 0.2823529 0.3568627 0.5803922 0.2823529 0.3568627 0.5803922 0.2823529 0.3568627 0.5803922 0.2823529 0.3568627 0.5803922 0.2823529 0.3568627 0.5803922 0.2823529 0.3568627 0.5803922 0.2823529 0.3568627 0.5803922 0.2823529 0.3568627 0.5803922 0.2823529 0.3568627 0.5803922 0.2823529 0.3568627 0.5803922 0.2823529 0.3568627 0.5803922 0.2823529 0.3568627 0.5803922 0.2823529 0.3568627 0.5803922 0.2823529 0.3568627 0.5803922 0.2823529 0.3568627 0.5803922 0.2823529 0.3568627 0.5803922 0.2823529 0.3568627 0.5803922 0.2823529 0.3568627 0.5803922 0.2823529 0.3568627 0.5803922 0.2823529 0.3568627 0.5803922 0.2823529 0.3568627 0.5803922 0.2823529 0.3568627 0.5803922 0.2823529 0.3568627 0.5803922 0.2823529 0.3568627 0.5803922 0.2823529 0.3568627 0.5803922 0.2823529 0.3568627 0.5803922 0.2823529 0.3568627 0.5803922 0.2823529 0.3568627 0.5803922 0.2823529 0.3568627 0.5803922 0.2823529 0.3568627 0.5803922 0.2823529 0.3568627 0.5803922 0.2823529 0.3568627 0.5803922 0.2823529 0.3568627 0.5803922 0.2823529 0.3568627 0.5803922 0.2823529 0.3568627 0.5803922 0.2823529 0.3568627 0.5803922 0.2823529 0.3568627 0.5803922 0.2823529 0.3568627 0.5803922 0.2823529 0.3568627 0.5803922 0.2823529 0.3568627 0.5803922 0.2823529 0.3568627 0.5803922 0.2823529 0.3568627 0.5803922 0.2823529 0.3568627 0.5803922 0.2823529 0.3568627 0.5803922 0.2823529 0.3568627 0.5803922 0.2823529 0.3568627 0.5803922 0.2823529 0.3568627 0.5803922 0.2823529 0.3568627 0.5803922 0.2823529 0.3568627 0.5803922 0.2823529 0.3568627 0.5803922 0.2823529 0.3568627 0.5803922 0.2823529 0.3568627 0.5803922 0.2823529 0.3568627 0.5803922 0.2823529 0.3568627 0.5803922 0.2823529 0.3568627 0.5803922 0.2823529 0.3568627 0.5803922 0.2823529 0.3568627 0.5803922 0.2823529 0.3568627 0.5803922 0.2823529 0.3568627 0.5803922 0.2823529 0.3568627 0.5803922 0.2823529 0.3568627 0.5803922 0.2823529 0.3568627 0.5803922 0.2823529 0.3568627 0.5803922 0.2823529 0.3568627 0.5803922 0.2823529 0.3568627 0.5803922 0.2823529 0.3568627 0.5803922 0.2823529 0.3568627 0.5803922 0.2823529 0.3568627 0.5803922 0.2823529 0.3568627 0.5803922 0.2823529 0.3568627 0.5803922 0.2823529 0.3568627 0.5803922 0.2823529 0.3568627 0.5803922 0.2823529 0.3568627 0.5803922 0.2823529 0.3568627 0.5803922 0.2823529 0.3568627 0.5803922 0.2823529 0.3568627 0.5803922 0.2823529 0.3568627 0.5803922 0.2823529 0.3568627 0.5803922 0.2823529 0.3568627 0.5803922 0.2823529 0.3568627 0.5803922 0.2823529 0.3568627 0.5803922 0.2823529 0.3568627 0.5803922 0.2823529 0.3568627 0.5803922 0.2823529 0.3568627 0.5803922 0.2823529 0.3568627 0.5803922 0.2823529 0.3568627 0.5803922 0.2823529 0.3568627 0.5803922 0.2823529 0.3568627 0.5803922 0.2823529 0.3568627 0.5803922 0.2823529 0.3568627 0.5803922 0.2823529 0.3568627 0.5803922 0.2823529 0.3568627 0.5803922 0.2823529 0.3568627 0.5803922 0.2823529 0.3568627 0.5803922 0.2823529 0.3568627 0.5803922 0.2823529 0.3568627 0.5803922 0.2823529 0.3568627 0.5803922 0.2823529 0.3568627 0.5803922 0.2823529 0.3568627 0.5803922 0.2823529 0.3568627 0.5803922 0.2823529 0.3568627 0.5803922 0.2823529 0.3568627 0.5803922 0.2823529 0.3568627 0.5803922 0.2823529 0.3568627 0.5803922 0.2823529 0.3568627 0.5803922 0.2823529 0.3568627 0.5803922 0.2823529 0.3568627 0.5803922 0.2823529 0.3568627 0.5803922 0.2823529 0.3568627 0.5803922 0.2823529 0.3568627 0.5803922 0.2823529 0.3568627 0.5803922 0.2823529 0.3568627 0.5803922 0.2823529 0.3568627 0.5803922 0.2823529 0.3568627 0.5803922 0.2823529 0.3568627 0.5803922 0.2823529 0.3568627 0.5803922 0.2823529 0.3568627 0.5803922 0.2823529 0.3568627 0.5803922 0.2823529 0.3568627 0.5803922 0.2823529 0.3568627 0.5803922 0.2823529 0.3568627 0.5803922 0.2823529 0.3568627 0.5803922 0.2823529 0.3568627 0.5803922 0.2823529 0.3568627 0.5803922 0.2823529 0.3568627 0.5803922 0.2823529 0.3568627 0.5803922 0.2823529 0.3568627 0.5803922 0.2823529 0.3568627 0.5803922 0.2823529 0.3568627 0.5803922 0.2823529 0.3568627 0.5803922 0.2823529 0.3568627 0.5803922 0.2823529 0.3568627 0.5803922 0.2823529 0.3568627 0.5803922 0.2823529 0.3568627 0.5803922 0.2823529 0.3568627 0.5803922 0.2823529 0.3568627 0.5803922 0.2823529 0.3568627 0.5803922 0.2823529 0.3568627 0.5803922 0.2823529 0.3568627 0.5803922 0.2823529 0.3568627 0.5803922 0.2823529 0.3568627 0.5803922 0.2823529 0.3568627 0.5803922 0.2823529 0.3568627 0.5803922 0.2823529 0.3568627 0.5803922 0.2823529 0.3568627 0.5803922 0.2823529 0.3568627 0.5803922 0.2823529 0.3568627 0.5803922 0.2823529 0.3607843 0.5843138 0.2862745 0.3568627 0.5803922 0.2823529 0.3568627 0.5803922 0.2823529 0.3568627 0.5803922 0.2823529 0.3803921 0.5960785 0.3098039 0.3568627 0.5803922 0.2823529 0.3568627 0.5803922 0.2823529 0.3568627 0.5803922 0.2823529 0.3607843 0.5843138 0.2862745 0.3568627 0.5803922 0.2823529 0.3568627 0.5803922 0.2823529 0.3568627 0.5803922 0.2823529 0.3568627 0.5803922 0.2823529 0.3568627 0.5803922 0.2823529 0.3568627 0.5803922 0.2823529 0.3568627 0.5803922 0.2823529 0.3568627 0.5803922 0.2823529 0.3568627 0.5803922 0.2823529 0.3568627 0.5803922 0.2823529 0.3568627 0.5803922 0.2823529 0.3568627 0.5803922 0.2823529 0.3568627 0.5803922 0.2823529 0.3568627 0.5803922 0.2823529 0.3568627 0.5803922 0.2823529 0.3568627 0.5803922 0.2823529 0.3568627 0.5803922 0.2823529 0.3568627 0.5803922 0.2823529 0.3568627 0.5803922 0.2823529 0.3568627 0.5803922 0.2823529 0.3568627 0.5803922 0.2823529 0.3568627 0.5803922 0.2823529 0.3568627 0.5803922 0.2823529 0.3568627 0.5803922 0.2823529 0.4627451 0.654902 0.4039216 0.3568627 0.5803922 0.2823529 0.3568627 0.5803922 0.2823529 0.3568627 0.5803922 0.2823529 0.3568627 0.5803922 0.2823529 0.3568627 0.5803922 0.2823529 0.3568627 0.5803922 0.2823529 0.3568627 0.5803922 0.2823529 0.3568627 0.5803922 0.2823529 0.3568627 0.5803922 0.2823529 0.3568627 0.5803922 0.2823529 0.3568627 0.5803922 0.2823529 0.3568627 0.5803922 0.2823529 0.3568627 0.5803922 0.2823529 0.3568627 0.5803922 0.2823529 0.3568627 0.5803922 0.2823529 0.3568627 0.5803922 0.2823529 0.3568627 0.5803922 0.2823529 0.3568627 0.5803922 0.2823529 0.3568627 0.5803922 0.2823529 0.3568627 0.5803922 0.2823529 0.3568627 0.5803922 0.2823529 0.3568627 0.5803922 0.2823529 0.3568627 0.5803922 0.2823529 0.3568627 0.5803922 0.2823529 0.3568627 0.5803922 0.2823529 0.3568627 0.5803922 0.2823529 0.3568627 0.5803922 0.2823529 0.3568627 0.5803922 0.2823529 0.3568627 0.5803922 0.2823529 0.3568627 0.5803922 0.2823529 0.3568627 0.5803922 0.2823529 0.3568627 0.5803922 0.2823529 0.3568627 0.5803922 0.2823529 0.3568627 0.5803922 0.2823529 0.3568627 0.5803922 0.2823529 0.3568627 0.5803922 0.2823529 0.3568627 0.5803922 0.2823529 0.3568627 0.5803922 0.2823529 0.3568627 0.5803922 0.2823529 0.3568627 0.5803922 0.2823529 0.3568627 0.5803922 0.2823529 0.3568627 0.5803922 0.2823529 0.3607843 0.5843138 0.2862745 0.3568627 0.5803922 0.2823529 0.3568627 0.5803922 0.2823529 0.3568627 0.5803922 0.2823529 0.3568627 0.5803922 0.2823529 0.4 0.6117647 0.3294118 0.3568627 0.5803922 0.2823529 0.3568627 0.5803922 0.2823529 0.3568627 0.5803922 0.2823529 0.4 0.6117647 0.3294118 0.3568627 0.5803922 0.2823529 0.3568627 0.5803922 0.2823529 0.3568627 0.5803922 0.2823529 0.3568627 0.5803922 0.2823529 0.3568627 0.5803922 0.2823529 0.3568627 0.5803922 0.2823529 0.3568627 0.5803922 0.2823529 0.3568627 0.5803922 0.2823529 0.3568627 0.5803922 0.2823529 0.3568627 0.5803922 0.2823529 0.3568627 0.5803922 0.2823529 0.3568627 0.5803922 0.2823529 0.3568627 0.5803922 0.2823529 0.3568627 0.5803922 0.2823529 0.3568627 0.5803922 0.2823529 0.3568627 0.5803922 0.2823529 0.3568627 0.5803922 0.2823529 0.3568627 0.5803922 0.2823529 0.3568627 0.5803922 0.2823529 0.3568627 0.5803922 0.2823529 0.3568627 0.5803922 0.2823529 0.3568627 0.5803922 0.2823529 0.3568627 0.5803922 0.2823529 0.3568627 0.5803922 0.2823529 0.3568627 0.5803922 0.2823529 0.3568627 0.5803922 0.2823529 0.3568627 0.5803922 0.2823529 0.3568627 0.5803922 0.2823529 0.3568627 0.5803922 0.2823529 0.3568627 0.5803922 0.2823529 0.3568627 0.5803922 0.2823529 0.3568627 0.5803922 0.2823529 0.3568627 0.5803922 0.2823529 0.9411765 1 0.7411765 0.8941177 1 0.7215687 0.7607843 1 0.6784314 1 1 0.8588235 0.3647059 0.5882353 0.2901961 1 1 0.8588235 1 1 0.8431373 1 1 0.8156863 0.4980392 0.7254902 0.4196078 0.7607843 1 0.6784314 0.3647059 0.5882353 0.2901961 0.3647059 0.5882353 0.2862745 0.7607843 1 0.6784314 0.7607843 1 0.6784314 0.7607843 1 0.6784314 1 1 0.7882353 0.9686275 1 0.7411765 0.3647059 0.5882353 0.2901961 0.7607843 1 0.6784314 0.7607843 1 0.6784314 0.7607843 1 0.6784314 0.7607843 1 0.6784314 0.7607843 1 0.6784314 0.4 0.6235294 0.3254902 0.7607843 1 0.6784314 0.7607843 1 0.6784314 0.7607843 1 0.6784314 0.8941177 1 0.7215687 0.882353 1 0.7176471 0.3843137 0.6078432 0.3098039 0.9686275 1 0.7411765 0.9411765 1 0.7411765 0.3647059 0.5882353 0.2901961 0.7607843 1 0.6784314 0.3882353 0.6156863 0.3137255 0.7607843 1 0.6784314 1 1 0.8588235 1 1 0.8 0.3647059 0.5882353 0.2862745 0.7607843 1 0.6784314 0.3882353 0.6156863 0.3137255 0.3843137 0.6078432 0.3058823 0.7607843 1 0.6784314 0.3764706 0.6 0.3019608 0.7607843 1 0.6784314 0.882353 1 0.7176471 0.3647059 0.5882353 0.2901961 0.3647059 0.5882353 0.2901961 1 1 0.7607843 0.3647059 0.5882353 0.2901961 1 1 0.7607843 0.7607843 1 0.6784314 0.7333334 1 0.6509804 0.7607843 1 0.6784314 0.7607843 1 0.6784314 0.7607843 1 0.6784314 0.7607843 1 0.6784314 0.7607843 1 0.6784314 0.7607843 1 0.6784314 0.7607843 1 0.6784314 0.7607843 1 0.6784314 0.7607843 1 0.6784314 0.7607843 1 0.6784314 0.7803922 1 0.6862745 0.3647059 0.5882353 0.2901961 0.3647059 0.5882353 0.2901961 0.7607843 1 0.6784314 0.7607843 1 0.6784314 0.3843137 0.6078432 0.3058823 1 1 0.7882353 0.3647059 0.5882353 0.2901961 1 1 0.7921569 0.9254902 1 0.7372549 0.7607843 1 0.6784314 0.9254902 1 0.7372549 0.7607843 1 0.6784314 0.7607843 1 0.6784314 0.4156863 0.6392157 0.3372549 1 1 0.8 1 1 0.7921569 0.3647059 0.5882353 0.2901961 0.7607843 1 0.6784314 0.3686274 0.5960785 0.2941176 0.7607843 1 0.6784314 0.7607843 1 0.6784314 0.4039216 0.6313726 0.3294118 0.4 0.6235294 0.3254902 0.7607843 1 0.6784314 0.7607843 1 0.6784314 0.4078431 0.6352941 0.3294118 0.7607843 1 0.6784314 0.4 0.6313726 0.3254902 0.3960784 0.6196079 0.317647 0.7607843 1 0.6784314 0.7607843 1 0.6784314 0.7568628 1 0.6784314 0.7607843 1 0.6784314 0.7607843 1 0.6784314 0.7607843 1 0.6784314 1 1 0.8588235 0.3647059 0.5882353 0.2862745 0.3647059 0.5882353 0.2901961 0.7607843 1 0.6784314 0.7607843 1 0.6784314 0.3647059 0.5882353 0.2901961 0.7607843 1 0.6784314 0.7607843 1 0.6784314 0.7607843 1 0.6784314 0.7607843 1 0.6784314 0.4 0.6235294 0.3254902 0.3882353 0.6156863 0.3137255 0.7607843 1 0.6784314 0.7607843 1 0.6784314 0.3882353 0.6156863 0.3137255 0.7607843 1 0.6784314 0.3843137 0.6078432 0.3058823 0.3764706 0.6 0.3019608 0.882353 1 0.7176471 0.882353 1 0.7176471 0.3647059 0.5882353 0.2901961 1 1 0.7607843 0.3647059 0.5882353 0.2901961 0.3647059 0.5882353 0.2901961 0.7607843 1 0.6784314 0.7607843 1 0.6784314 0.7333334 1 0.6509804 0.7607843 1 0.6784314 0.7607843 1 0.6784314 0.7607843 1 0.6784314 0.7607843 1 0.6784314 0.7607843 1 0.6784314 0.7607843 1 0.6784314 0.7607843 1 0.6784314 0.7607843 1 0.6784314 0.7607843 1 0.6784314 0.7607843 1 0.6784314 0.7607843 1 0.6784314 0.7607843 1 0.6784314 0.7607843 1 0.6784314 0.7607843 1 0.6784314 0.7607843 1 0.6784314 0.7607843 1 0.6784314 0.7607843 1 0.6784314 0.7607843 1 0.6784314 0.7607843 1 0.6784314 0.7607843 1 0.6784314 0.7607843 1 0.6784314 0.7607843 1 0.6784314 0.7607843 1 0.6784314 0.7607843 1 0.6784314 0.7607843 1 0.6784314 0.7607843 1 0.6784314 0.7607843 1 0.6784314 0.7607843 1 0.6784314 0.7607843 1 0.6784314 0.7607843 1 0.6784314 0.7607843 1 0.6784314 0.7607843 1 0.6784314 0.7607843 1 0.6784314 0.7607843 1 0.6784314 0.7607843 1 0.6784314 0.7607843 1 0.6784314 0.7607843 1 0.6784314 0.7607843 1 0.6784314 0.7607843 1 0.6784314 0.7607843 1 0.6784314 0.7607843 1 0.6784314 0.7607843 1 0.6784314 0.7607843 1 0.6784314 0.7607843 1 0.6784314 0.7607843 1 0.6784314 0.7607843 1 0.6784314 0.7607843 1 0.6784314 0.7607843 1 0.6784314 0.7607843 1 0.6784314 0.7607843 1 0.6784314 0.7607843 1 0.6784314 0.7607843 1 0.6784314 0.7607843 1 0.6784314 0.7607843 1 0.6784314 0.7607843 1 0.6784314 0.7607843 1 0.6784314 0.7607843 1 0.6784314 0.7607843 1 0.6784314 0.7607843 1 0.6784314 0.7607843 1 0.6784314 0.7607843 1 0.6784314 0.7607843 1 0.6784314 0.7607843 1 0.6784314 0.7607843 1 0.6784314 0.7607843 1 0.6784314 0.7607843 1 0.6784314 0.7607843 1 0.6784314 0.7607843 1 0.6784314 0.7607843 1 0.6784314 0.7607843 1 0.6784314 0.7607843 1 0.6784314 0.7607843 1 0.6784314 0.7607843 1 0.6784314 0.7607843 1 0.6784314 0.7607843 1 0.6784314 0.7607843 1 0.6784314 0.7607843 1 0.6784314 0.7607843 1 0.6784314 0.7607843 1 0.6784314 0.7607843 1 0.6784314 0.7607843 1 0.6784314 0.7607843 1 0.6784314 0.7607843 1 0.6784314 0.7607843 1 0.6784314 0.7607843 1 0.6784314 0.7607843 1 0.6784314 0.7607843 1 0.6784314 0.7607843 1 0.6784314 0.7607843 1 0.6784314 0.7607843 1 0.6784314 0.7803922 1 0.6862745 0.7803922 1 0.6862745 0.3647059 0.5882353 0.2901961 1 1 0.7882353 0.3647059 0.5882353 0.2901961 0.3647059 0.5882353 0.2901961 0.9254902 1 0.7372549 0.7607843 1 0.6784314 0.7607843 1 0.6784314 0.7607843 1 0.6784314 0.3764706 0.6 0.3019608 0.3686274 0.5960785 0.2941176 0.7607843 1 0.6784314 0.7607843 1 0.6784314 0.4039216 0.6313726 0.3294118 0.7607843 1 0.6784314 0.7607843 1 0.6784314 0.4 0.6313726 0.3254902</float_array>
          <technique_common>
            <accessor source="#Cylinder_008-mesh-colors-Col-array" count="942" stride="3">
              <param name="R" type="float"/>
              <param name="G" type="float"/>
              <param name="B" type="float"/>
            </accessor>
          </technique_common>
        </source>
        <vertices id="Cylinder_008-mesh-vertices">
          <input semantic="POSITION" source="#Cylinder_008-mesh-positions"/>
        </vertices>
        <triangles material="Carrot_GReen-material" count="314">
          <input semantic="VERTEX" source="#Cylinder_008-mesh-vertices" offset="0"/>
          <input semantic="NORMAL" source="#Cylinder_008-mesh-normals" offset="1"/>
          <input semantic="COLOR" source="#Cylinder_008-mesh-colors-Col" offset="2" set="0"/>
          <p>9 0 0 34 0 1 2 0 2 16 1 3 14 1 4 31 1 5 30 2 6 4 2 7 12 2 8 20 3 9 10 3 10 29 3 11 22 4 12 8 4 13 28 4 14 17 5 15 15 5 16 27 5 17 26 6 18 5 6 19 13 6 20 21 7 21 11 7 22 25 7 23 23 8 24 9 8 25 24 8 26 20 9 27 9 9 28 2 9 29 25 10 30 4 10 31 18 10 32 26 11 33 6 11 34 16 11 35 22 12 36 15 12 37 0 12 38 23 13 39 8 13 40 1 13 41 21 14 42 10 14 43 3 14 44 30 15 45 5 15 46 19 15 47 17 16 48 14 16 49 7 16 50 77 17 51 60 17 52 78 17 53 3 18 54 43 18 55 11 18 56 10 19 57 35 19 58 3 19 59 12 20 60 36 20 61 44 20 62 11 21 63 36 21 64 4 21 65 13 22 66 37 22 67 45 22 68 12 23 69 37 23 70 5 23 71 14 24 72 38 24 73 46 24 74 13 25 75 38 25 76 6 25 77 15 26 78 39 26 79 47 26 80 8 27 81 32 27 82 40 27 83 7 28 84 46 28 85 39 28 86 1 29 87 41 29 88 9 29 89 0 30 90 47 30 91 32 30 92 1 31 93 40 31 94 33 31 95 2 32 96 42 32 97 10 32 98 51 33 99 92 33 100 45 33 101 74 34 102 62 34 103 61 34 104 65 35 105 53 35 106 66 35 107 32 36 108 83 36 109 40 36 110 43 37 111 121 37 112 50 37 113 39 38 114 87 38 115 86 38 116 43 39 117 112 39 118 110 39 119 45 40 120 99 40 121 101 40 122 52 41 123 55 41 124 54 41 125 66 42 126 52 42 127 67 42 128 65 43 129 54 43 130 55 43 131 68 44 132 52 44 133 54 44 134 60 45 135 59 45 136 58 45 137 79 46 138 58 46 139 80 46 140 80 47 141 59 47 142 77 47 143 79 48 144 57 48 145 56 48 146 81 49 147 60 49 148 57 49 149 62 50 150 63 50 151 61 50 152 75 51 153 64 51 154 76 51 155 76 52 156 62 52 157 73 52 158 75 53 159 61 53 160 63 53 161 70 54 162 68 54 163 72 54 164 72 55 165 65 55 166 71 55 167 70 56 168 66 56 169 67 56 170 69 57 171 65 57 172 66 57 173 49 58 174 71 58 175 69 58 176 48 59 177 69 59 178 70 59 179 51 60 180 72 60 181 71 60 182 48 61 183 72 61 184 50 61 185 34 62 186 75 62 187 42 62 188 41 63 189 76 63 190 73 63 191 48 64 192 75 64 193 76 64 194 34 65 195 73 65 196 74 65 197 40 66 198 78 66 199 81 66 200 33 67 201 81 67 202 79 67 203 41 68 204 77 68 205 48 68 206 33 69 207 80 69 208 41 69 209 48 70 210 78 70 211 49 70 212 84 71 213 83 71 214 82 71 215 32 72 216 84 72 217 82 72 218 47 73 219 85 73 220 84 73 221 40 74 222 85 74 223 49 74 224 88 75 225 87 75 226 89 75 227 51 76 228 87 76 229 46 76 230 47 77 231 89 77 232 49 77 233 47 78 234 86 78 235 88 78 236 49 79 237 90 79 238 51 79 239 92 80 240 98 80 241 96 80 242 51 81 243 93 81 244 94 81 245 46 82 246 91 82 247 93 82 248 38 83 249 92 83 250 91 83 251 98 84 252 95 84 253 96 84 254 93 85 255 95 85 256 97 85 257 93 86 258 98 86 259 94 86 260 92 87 261 95 87 262 91 87 263 102 88 264 105 88 265 100 88 266 44 89 267 99 89 268 37 89 269 51 90 270 102 90 271 50 90 272 51 91 273 101 91 274 103 91 275 50 92 276 100 92 277 44 92 278 106 93 279 104 93 280 105 93 281 99 94 282 105 94 283 104 94 284 103 95 285 107 95 286 102 95 287 103 96 288 106 96 289 108 96 290 101 97 291 104 97 292 106 97 293 110 98 294 116 98 295 114 98 296 44 99 297 109 99 298 111 99 299 43 100 300 109 100 301 36 100 302 44 101 303 112 101 304 50 101 305 114 102 306 115 102 307 113 102 308 109 103 309 114 103 310 113 103 311 111 104 312 116 104 313 112 104 314 109 105 315 115 105 316 111 105 317 119 106 318 122 106 319 124 106 320 42 107 321 120 107 322 118 107 323 35 108 324 119 108 325 43 108 326 35 109 327 118 109 328 117 109 329 48 110 330 121 110 331 120 110 332 125 111 333 126 111 334 124 111 335 120 112 336 126 112 337 125 112 338 118 113 339 122 113 340 117 113 341 119 114 342 126 114 343 121 114 344 120 115 345 123 115 346 118 115 347 9 116 348 41 116 349 34 116 350 16 117 351 6 117 352 14 117 353 30 118 354 18 118 355 4 118 356 20 119 357 2 119 358 10 119 359 22 120 360 0 120 361 8 120 362 17 121 363 7 121 364 15 121 365 26 122 366 19 122 367 5 122 368 21 123 369 3 123 370 11 123 371 23 124 372 1 124 373 9 124 374 20 125 375 24 125 376 9 125 377 25 126 378 11 126 379 4 126 380 26 127 381 13 127 382 6 127 383 22 128 384 27 128 385 15 128 386 23 129 387 28 129 388 8 129 389 21 130 390 29 130 391 10 130 392 30 131 393 12 131 394 5 131 395 17 132 396 31 132 397 14 132 398 77 133 399 59 133 400 60 133 401 3 134 402 35 134 403 43 134 404 10 135 405 42 135 406 35 135 407 12 136 408 4 136 409 36 136 410 11 137 411 43 137 412 36 137 413 13 138 414 5 138 415 37 138 416 12 139 417 44 139 418 37 139 419 14 140 420 6 140 421 38 140 422 13 141 423 45 141 424 38 141 425 15 142 426 7 142 427 39 142 428 8 143 429 0 143 430 32 143 431 7 144 432 14 144 433 46 144 434 1 145 435 33 145 436 41 145 437 0 146 438 15 146 439 47 146 440 1 147 441 8 147 442 40 147 443 2 148 444 34 148 445 42 148 446 51 149 447 94 149 448 92 149 449 74 150 450 73 150 451 62 150 452 65 151 453 55 151 454 53 151 455 32 152 456 82 152 457 83 152 458 43 153 459 119 153 460 121 153 461 39 154 462 46 154 463 87 154 464 43 155 465 50 155 466 112 155 467 45 156 468 37 156 469 99 156 470 52 157 471 53 157 472 55 157 473 66 158 474 53 158 475 52 158 476 65 159 477 68 159 478 54 159 479 68 160 480 67 160 481 52 160 482 58 161 483 56 161 484 57 161 485 57 162 486 60 162 487 58 162 488 79 163 489 56 163 490 58 163 491 80 164 492 58 164 493 59 164 494 79 165 495 81 165 496 57 165 497 81 166 498 78 166 499 60 166 500 62 167 501 64 167 502 63 167 503 75 168 504 63 168 505 64 168 506 76 169 507 64 169 508 62 169 509 75 170 510 74 170 511 61 170 512 70 171 513 67 171 514 68 171 515 72 172 516 68 172 517 65 172 518 70 173 519 69 173 520 66 173 521 69 174 522 71 174 523 65 174 524 49 175 525 51 175 526 71 175 527 48 176 528 49 176 529 69 176 530 51 177 531 50 177 532 72 177 533 48 178 534 70 178 535 72 178 536 34 179 537 74 179 538 75 179 539 41 180 540 48 180 541 76 180 542 48 181 543 42 181 544 75 181 545 34 182 546 41 182 547 73 182 548 40 183 549 49 183 550 78 183 551 33 184 552 40 184 553 81 184 554 41 185 555 80 185 556 77 185 557 33 186 558 79 186 559 80 186 560 48 187 561 77 187 562 78 187 563 84 188 564 85 188 565 83 188 566 32 189 567 47 189 568 84 189 569 47 190 570 49 190 571 85 190 572 40 191 573 83 191 574 85 191 575 86 192 576 87 192 577 88 192 578 87 193 579 90 193 580 89 193 581 51 194 582 90 194 583 87 194 584 47 195 585 88 195 586 89 195 587 47 196 588 39 196 589 86 196 590 49 197 591 89 197 592 90 197 593 92 198 594 94 198 595 98 198 596 51 199 597 46 199 598 93 199 599 46 200 600 38 200 601 91 200 602 38 201 603 45 201 604 92 201 605 98 202 606 97 202 607 95 202 608 93 203 609 91 203 610 95 203 611 93 204 612 97 204 613 98 204 614 92 205 615 96 205 616 95 205 617 102 206 618 107 206 619 105 206 620 44 207 621 100 207 622 99 207 623 51 208 624 103 208 625 102 208 626 51 209 627 45 209 628 101 209 629 50 210 630 102 210 631 100 210 632 105 211 633 107 211 634 108 211 635 108 212 636 106 212 637 105 212 638 99 213 639 100 213 640 105 213 641 103 214 642 108 214 643 107 214 644 103 215 645 101 215 646 106 215 647 101 216 648 99 216 649 104 216 650 110 217 651 112 217 652 116 217 653 44 218 654 36 218 655 109 218 656 43 219 657 110 219 658 109 219 659 44 220 660 111 220 661 112 220 662 114 221 663 116 221 664 115 221 665 109 222 666 110 222 667 114 222 668 111 223 669 115 223 670 116 223 671 109 224 672 113 224 673 115 224 674 119 225 675 117 225 676 122 225 677 42 226 678 48 226 679 120 226 680 35 227 681 117 227 682 119 227 683 35 228 684 42 228 685 118 228 686 48 229 687 50 229 688 121 229 689 122 230 690 123 230 691 124 230 692 123 231 693 125 231 694 124 231 695 120 232 696 121 232 697 126 232 698 118 233 699 123 233 700 122 233 701 119 234 702 124 234 703 126 234 704 120 235 705 125 235 706 123 235 707 157 236 708 151 236 709 30 236 710 135 237 711 17 237 712 136 237 713 130 238 714 132 238 715 27 238 716 139 239 717 16 239 718 31 239 719 155 240 720 154 240 721 25 240 722 146 241 723 145 241 724 26 241 725 147 242 726 144 242 727 29 242 728 137 243 729 129 243 730 28 243 731 153 244 732 21 244 733 25 244 734 151 245 735 150 245 736 30 245 737 145 246 738 149 246 739 26 246 740 137 247 741 23 247 742 133 247 743 135 248 744 139 248 745 31 248 746 134 249 747 23 249 748 24 249 749 141 250 750 20 250 751 142 250 752 150 251 753 18 251 754 30 251 755 130 252 756 22 252 757 127 252 758 144 253 759 20 253 760 29 253 761 138 254 762 134 254 763 24 254 764 138 255 765 147 255 766 154 255 767 155 256 768 18 256 769 158 256 770 149 257 771 19 257 772 26 257 773 141 258 774 138 258 775 24 258 776 146 259 777 16 259 778 143 259 779 157 260 780 19 260 781 156 260 782 132 261 783 131 261 784 27 261 785 140 262 786 143 262 787 16 262 788 148 263 789 21 263 790 152 263 791 128 264 792 22 264 793 28 264 794 129 265 795 128 265 796 28 265 797 131 266 798 17 266 799 27 266 800 148 267 801 147 267 802 29 267 803 154 268 804 153 268 805 25 268 806 135 269 807 31 269 808 17 269 809 139 270 810 140 270 811 16 270 812 153 271 813 152 271 814 21 271 815 137 272 816 28 272 817 23 272 818 134 273 819 133 273 820 23 273 821 141 274 822 24 274 823 20 274 824 150 275 825 158 275 826 18 275 827 130 276 828 27 276 829 22 276 830 144 277 831 142 277 832 20 277 833 145 278 834 146 278 835 140 278 836 146 279 837 143 279 838 140 279 839 145 280 840 140 280 841 139 280 842 135 281 843 136 281 844 131 281 845 139 282 846 135 282 847 132 282 848 135 283 849 131 283 850 132 283 851 132 279 852 130 279 853 128 279 854 130 279 855 127 279 856 128 279 857 156 279 858 149 279 859 157 279 860 149 279 861 145 279 862 157 279 863 145 284 864 139 284 865 132 284 866 129 285 867 137 285 868 134 285 869 137 279 870 133 279 871 134 279 872 132 279 873 128 279 874 129 279 875 145 286 876 132 286 877 151 286 878 151 279 879 157 279 880 145 279 881 158 279 882 150 279 883 155 279 884 150 279 885 151 279 886 155 279 887 154 279 888 155 279 889 151 279 890 152 279 891 153 279 892 148 279 893 153 287 894 154 287 895 148 287 896 151 279 897 132 279 898 129 279 899 147 288 900 148 288 901 154 288 902 154 279 903 151 279 904 129 279 905 129 279 906 134 279 907 138 279 908 138 279 909 141 279 910 147 279 911 141 279 912 142 279 913 144 279 914 147 289 915 141 289 916 144 289 917 154 290 918 129 290 919 138 290 920 155 291 921 25 291 922 18 291 923 149 292 924 156 292 925 19 292 926 146 293 927 26 293 928 16 293 929 157 294 930 30 294 931 19 294 932 148 295 933 29 295 934 21 295 935 128 296 936 127 296 937 22 296 938 131 297 939 136 297 940 17 297 941</p>
        </triangles>
      </mesh>
    </geometry>
    <geometry id="Icosphere_001-mesh" name="Icosphere.001">
      <mesh>
        <source id="Icosphere_001-mesh-positions">
          <float_array id="Icosphere_001-mesh-positions-array" count="126">0 0.3180475 -1 0.7236073 -0.5257253 -0.4472195 -0.276388 -0.8506492 -0.4472199 -0.8944262 0.2750194 -0.4472156 -0.276388 0.8506492 -0.4472199 0.7236073 0.5257253 -0.4472195 0.276388 -0.8506492 0.4472199 -0.7236073 -0.5257253 0.4472195 -0.7236073 0.5257253 0.4472195 0.276388 0.8506492 0.4472199 0.8944262 0.2942044 0.4472156 0 0 1 -0.1624555 -0.4999952 -0.8506544 0.4253227 0.009036064 -0.8506542 0.2628688 -0.8090116 -0.5257377 0.8506479 0.3391141 -0.5257359 0.4253227 0.6270589 -0.8506542 -0.5257298 0.2750194 -0.8506517 -0.6881894 -0.2249775 -0.5257362 -0.1624555 0.4999952 -0.8506544 -0.6881894 0.4999969 -0.5257362 0.2628688 0.8090116 -0.5257377 0.9510579 0.03010141 0 0.9510579 0.6481267 0 0 -1 0 0.5877856 -0.8090167 0 -0.9510579 0.01711964 0 -0.5877856 -0.8090167 0 -0.5877856 0.8090167 0 -0.9510579 0.635145 0 0.5877856 0.8090167 0 0 1 0 0.6881894 -0.4999969 0.5257362 -0.2628688 -0.8090116 0.5257377 -0.8506479 0.5637757 0.5257359 -0.2628688 0.8090116 0.5257377 0.6881894 0.7942014 0.5257362 0.1624555 -0.4999952 0.8506544 0.5257298 0.2942044 0.8506517 -0.4253227 -0.07136797 0.8506542 -0.4253227 0.5466548 0.8506542 0.1624555 0.4999952 0.8506544</float_array>
          <technique_common>
            <accessor source="#Icosphere_001-mesh-positions-array" count="42" stride="3">
              <param name="X" type="float"/>
              <param name="Y" type="float"/>
              <param name="Z" type="float"/>
            </accessor>
          </technique_common>
        </source>
        <source id="Icosphere_001-mesh-normals">
          <float_array id="Icosphere_001-mesh-normals-array" count="240">0.1833077 -0.2116647 -0.9599982 0.6762408 -0.1645283 -0.7180731 -0.2618897 -0.1227527 -0.9572594 -0.2779927 0.448871 -0.8492555 -0.1216227 0.5626104 -0.8177271 0.9466341 -0.1642336 -0.277329 0.02474659 -0.9435213 -0.3303864 -0.897556 -0.3231096 -0.2999893 -0.574602 0.7487835 -0.3303876 0.534576 0.7778645 -0.3303867 0.9173581 -0.3971441 0.02703291 -0.3065689 -0.9435216 -0.125629 -0.9920774 0 -0.1256283 -0.3065689 0.9435216 -0.125629 0.3684242 0.8318625 -0.4150522 0.408946 -0.6284251 0.6616986 -0.4078106 -0.4417874 0.7990711 0.1775539 0.9672377 -0.1814552 0.03853034 0.7487791 0.6616988 0.7240421 0.1947361 0.6616955 0.1372578 0.2422829 0.9604475 0.2629641 0.4641885 0.8458009 -0.02058953 0.7574643 0.652552 0.02218776 0.279504 0.9598882 0.06045919 0.7616158 0.6452025 -0.5328807 0.7685283 0.3541221 -0.3313044 0 0.9435239 -0.6070607 0 0.7946556 -0.7194204 -0.1330167 0.681719 -0.2568926 -0.3522773 0.8999483 -0.3209249 -0.4400856 0.8386488 0.03853034 -0.7487791 0.6616988 0.3520386 -0.1610227 0.9220308 0.5111557 -0.2338044 0.8270764 0.7324746 -0.1240257 0.6694017 0.8823935 0.3081244 0.3555857 0.4044147 0.9131246 -0.05150204 0.13542 0.9907863 0.002058565 -0.02474659 0.9435213 0.3303865 -0.3035309 0.9341715 0.1875973 -0.534576 0.7778646 0.3303866 0.3236756 0.9438418 0.06630903 -0.9822458 0 0.1875985 -0.9391495 -0.132353 0.3169872 -0.534576 -0.7778646 0.3303866 -0.3035309 -0.9341715 0.1875974 -0.02474659 -0.9435213 0.3303865 0.574602 -0.7487835 0.3303875 0.91614 -0.3966165 0.0581631 0.9430127 -0.220216 0.2494637 0.3065689 0.9435216 0.1256287 0.3035309 0.9341715 -0.1875974 0.02474659 0.9435213 -0.3303864 -0.3951255 0.8255403 0.4029381 -0.3940316 0.8232545 -0.4086457 -0.7217603 0.4915804 -0.4872483 -0.9151654 -0.4024205 -0.02302461 -0.8832384 -0.3883813 -0.2627734 -0.7184981 -0.5294934 -0.4509959 0.3065689 -0.9435216 0.1256287 0.3035309 -0.9341715 -0.1875973 0.5345759 -0.7778645 -0.3303867 0.9920774 0 0.1256283 0.9822459 0 -0.1875985 0.6155362 0.6224372 -0.4834119 0.5375446 0.8212835 -0.1911527 -0.176916 0.8183898 -0.5467531 -0.03853058 0.7487792 -0.6616986 -0.408946 0.6284253 -0.6616986 -0.40079 0.6471577 -0.6485015 -0.6753541 0.4036847 -0.6171998 -0.7240421 -0.1947361 -0.6616955 -0.6073111 -0.2846634 -0.7417142 -0.6291978 -0.4898505 -0.6034538 0.6952235 0.623657 -0.3573742 0.6070606 0 -0.7946556 0.3313045 0 -0.9435239 -0.03853058 -0.7487792 -0.6616986 0.3507577 -0.4050198 -0.8443506 0.3903251 -0.4057633 -0.8264398</float_array>
          <technique_common>
            <accessor source="#Icosphere_001-mesh-normals-array" count="80" stride="3">
              <param name="X" type="float"/>
              <param name="Y" type="float"/>
              <param name="Z" type="float"/>
            </accessor>
          </technique_common>
        </source>
        <source id="Icosphere_001-mesh-colors-Col" name="Col">
          <float_array id="Icosphere_001-mesh-colors-Col-array" count="720">0.7019608 0.4941176 0.2509804 0.7019608 0.4941176 0.2509804 0.7019608 0.4941176 0.2509804 0.7019608 0.4941176 0.2509804 0.7019608 0.4941176 0.2509804 0.7019608 0.4941176 0.2509804 0.7019608 0.4941176 0.2509804 0.7019608 0.4941176 0.2509804 0.7019608 0.4941176 0.2509804 0.7019608 0.4941176 0.2509804 0.7019608 0.4941176 0.2509804 0.7019608 0.4941176 0.2509804 0.7019608 0.4941176 0.2509804 0.7019608 0.4941176 0.2509804 0.7019608 0.4941176 0.254902 0.6941177 0.4941176 0.2509804 0.7019608 0.4941176 0.2509804 0.7019608 0.4941176 0.2509804 0.7058824 0.4980392 0.254902 0.6156863 0.4313725 0.2156863 0.5960785 0.4196078 0.2156863 0.5333334 0.372549 0.1921569 0.7058824 0.5019608 0.2666667 0.6509804 0.4588235 0.2313725 0.7019608 0.4941176 0.2509804 0.7019608 0.4941176 0.2509804 0.7019608 0.4941176 0.2509804 0.7019608 0.4941176 0.2509804 0.7019608 0.4980392 0.2627451 0.7019608 0.4941176 0.2509804 0.6941177 0.4941176 0.2509804 0.7019608 0.4941176 0.2509804 0.5333334 0.3764706 0.1921569 0.7019608 0.4980392 0.254902 0.5960785 0.4196078 0.2156863 0.7019608 0.4941176 0.2509804 0.5333334 0.372549 0.1921569 0.6509804 0.4588235 0.2313725 0.7019608 0.4941176 0.2509804 0.9490196 0.9137255 0.8705883 0.7019608 0.4941176 0.2509804 0.7137255 0.5176471 0.2901961 0.7019608 0.4941176 0.2509804 0.7019608 0.4941176 0.2509804 0.8196079 0.6941177 0.5490196 0.7019608 0.4941176 0.2509804 0.7019608 0.4941176 0.2509804 0.7019608 0.4941176 0.2509804 0.7019608 0.4941176 0.2509804 0.7019608 0.4941176 0.2509804 0.5372549 0.3764706 0.1921569 0.7019608 0.4941176 0.2509804 0.7058824 0.5019608 0.2627451 0.7019608 0.4980392 0.254902 0.7019608 0.4941176 0.2509804 0.7019608 0.4941176 0.2509804 0.7019608 0.4941176 0.2509804 0.5294118 0.372549 0.1921569 0.7019608 0.4941176 0.2509804 0.7019608 0.4941176 0.2509804 0.7019608 0.4941176 0.2509804 0.7019608 0.4941176 0.2509804 0.627451 0.4431372 0.227451 0.7019608 0.4941176 0.2509804 0.7019608 0.4941176 0.2509804 0.7019608 0.4941176 0.2509804 0.7019608 0.4941176 0.2509804 0.7019608 0.4941176 0.2509804 0.7019608 0.4941176 0.2509804 0.7019608 0.4941176 0.2509804 0.7019608 0.4941176 0.2509804 0.627451 0.4431372 0.227451 0.7019608 0.4941176 0.2509804 0.7019608 0.4941176 0.2509804 0.7019608 0.4941176 0.2509804 0.7019608 0.4941176 0.2509804 0.7019608 0.4941176 0.2509804 0.7019608 0.4941176 0.2509804 0.7019608 0.4941176 0.2509804 0.5372549 0.3764706 0.1921569 0.627451 0.4431372 0.227451 0.7019608 0.4941176 0.2509804 0.7019608 0.4941176 0.2509804 0.5372549 0.3764706 0.1921569 0.7019608 0.4941176 0.2509804 0.7019608 0.4941176 0.2509804 0.5372549 0.3764706 0.1921569 0.5372549 0.3764706 0.1921569 0.7019608 0.4941176 0.2509804 0.627451 0.4431372 0.227451 0.5372549 0.3764706 0.1921569 0.7019608 0.4941176 0.2509804 0.7019608 0.4941176 0.2509804 0.7019608 0.4941176 0.2509804 0.7019608 0.4941176 0.2509804 0.7019608 0.4941176 0.2509804 0.7019608 0.4941176 0.2509804 0.7019608 0.4941176 0.2509804 0.627451 0.4431372 0.227451 0.7019608 0.4941176 0.2509804 0.7019608 0.4941176 0.2509804 0.7019608 0.4941176 0.2509804 0.7019608 0.4941176 0.2509804 0.5294118 0.372549 0.1921569 0.7019608 0.4941176 0.2509804 0.7019608 0.4941176 0.2509804 0.7019608 0.4941176 0.2509804 0.5294118 0.372549 0.1921569 0.8196079 0.6941177 0.5490196 0.7019608 0.4941176 0.2509804 0.8 0.654902 0.4901961 1 1 1 1 1 1 1 1 1 0.7137255 0.5176471 0.2901961 0.7019608 0.4941176 0.2509804 0.7019608 0.4941176 0.2509804 0.7019608 0.4941176 0.2509804 0.7019608 0.4941176 0.2509804 0.7019608 0.4941176 0.2509804 0.7019608 0.4941176 0.2509804 0.7019608 0.4941176 0.2509804 0.7019608 0.4941176 0.2509804 0.7019608 0.4941176 0.2509804 0.7058824 0.5019608 0.2627451 0.7019608 0.4941176 0.2509804 0.7019608 0.4941176 0.2509804 0.6509804 0.4588235 0.2313725 0.7019608 0.4941176 0.2509804 0.6509804 0.4588235 0.2313725 0.7019608 0.4941176 0.2509804 0.7019608 0.4941176 0.2509804 0.7019608 0.4941176 0.2509804 0.7019608 0.4941176 0.2509804 0.7019608 0.4941176 0.2509804 0.7019608 0.4941176 0.2509804 0.6039216 0.427451 0.2235294 0.7019608 0.4941176 0.2509804 0.6039216 0.427451 0.2235294 0.7019608 0.4941176 0.2509804 0.7019608 0.4941176 0.2509804 0.5333334 0.3764706 0.1921569 0.7019608 0.4941176 0.2509804 0.7019608 0.4941176 0.2509804 0.5333334 0.3764706 0.1921569 0.7019608 0.4941176 0.2509804 0.7019608 0.4941176 0.2509804 0.7019608 0.4941176 0.2509804 0.5294118 0.372549 0.1921569 0.7019608 0.4941176 0.2509804 1 1 1 1 1 1 1 1 1 0.7019608 0.4941176 0.2509804 0.7019608 0.4980392 0.2627451 0.7019608 0.4941176 0.2509804 0.7019608 0.4980392 0.2627451 0.9372549 0.8901961 0.8352941 0.7019608 0.4941176 0.2509804 0.7019608 0.4941176 0.2509804 0.7019608 0.4941176 0.2509804 0.7019608 0.4941176 0.2509804 0.7019608 0.4941176 0.2509804 0.7333334 0.5450981 0.3254902 0.7019608 0.4941176 0.2509804 0.7019608 0.4941176 0.2509804 0.5333334 0.372549 0.1921569 0.7019608 0.4941176 0.2509804 0.6509804 0.4588235 0.2313725 0.7019608 0.4980392 0.2588235 0.7019608 0.4941176 0.2509804 0.6509804 0.4588235 0.2313725 0.7058824 0.5019608 0.2666667 0.7019608 0.4980392 0.2588235 0.7019608 0.4941176 0.2509804 0.7019608 0.4980392 0.2588235 0.7019608 0.4941176 0.2509804 0.5960785 0.4196078 0.2156863 0.5333334 0.3764706 0.1921569 0.7019608 0.4941176 0.2509804 0.5960785 0.4196078 0.2156863 0.6156863 0.4313725 0.2156863 0.5333334 0.3764706 0.1921569 0.6156863 0.4313725 0.2156863 0.6941177 0.4941176 0.2509804 0.5333334 0.3764706 0.1921569 0.7019608 0.4941176 0.2509804 0.7019608 0.4941176 0.2509804 0.5294118 0.372549 0.1921569 0.7019608 0.4941176 0.2509804 0.7019608 0.4941176 0.2509804 0.7019608 0.4941176 0.2509804 0.7019608 0.4941176 0.2509804 0.7019608 0.4941176 0.2509804 0.7176471 0.5176471 0.2862745 0.7254902 0.5372549 0.3137255 0.7019608 0.4980392 0.2627451 0.7019608 0.4941176 0.2509804 0.7058824 0.5019608 0.2627451 0.7019608 0.4941176 0.2509804 0.7019608 0.4941176 0.2509804 0.7019608 0.4941176 0.2509804 0.7019608 0.4980392 0.2588235 0.7019608 0.4941176 0.2509804 0.7019608 0.4941176 0.2509804 0.7333334 0.5450981 0.3254902 0.7019608 0.4980392 0.2588235 0.7019608 0.4941176 0.2509804 0.7019608 0.4941176 0.2509804 0.7333334 0.5450981 0.3254902 0.7019608 0.4941176 0.2509804 0.5333334 0.372549 0.1921569 0.7019608 0.4941176 0.2509804 0.7019608 0.4941176 0.2509804 0.7019608 0.4941176 0.2509804 0.5333334 0.372549 0.1921569 0.7019608 0.4941176 0.2509804 0.7019608 0.4941176 0.2509804 0.7019608 0.4941176 0.2509804 0.7019608 0.4941176 0.2509804 0.7019608 0.4980392 0.2588235 0.7019608 0.4941176 0.2509804 0.7019608 0.4941176 0.2509804 0.7058824 0.5019608 0.2627451 0.7019608 0.4941176 0.2509804 0.7019608 0.4941176 0.2509804 0.7019608 0.4941176 0.2509804 0.7019608 0.4941176 0.254902 0.7019608 0.4941176 0.2509804 0.7019608 0.4941176 0.2509804 0.7019608 0.4941176 0.254902 0.7019608 0.4941176 0.2509804 0.6156863 0.4313725 0.2156863 0.7058824 0.4980392 0.2588235 0.7019608 0.4941176 0.2509804 0.7019608 0.4941176 0.2509804 0.6156863 0.4313725 0.2156863 0.7019608 0.4941176 0.2509804 0.7019608 0.4941176 0.2509804 0.6156863 0.4313725 0.2156863</float_array>
          <technique_common>
            <accessor source="#Icosphere_001-mesh-colors-Col-array" count="240" stride="3">
              <param name="R" type="float"/>
              <param name="G" type="float"/>
              <param name="B" type="float"/>
            </accessor>
          </technique_common>
        </source>
        <vertices id="Icosphere_001-mesh-vertices">
          <input semantic="POSITION" source="#Icosphere_001-mesh-positions"/>
        </vertices>
        <triangles material="Material_001-material" count="80">
          <input semantic="VERTEX" source="#Icosphere_001-mesh-vertices" offset="0"/>
          <input semantic="NORMAL" source="#Icosphere_001-mesh-normals" offset="1"/>
          <input semantic="COLOR" source="#Icosphere_001-mesh-colors-Col" offset="2" set="0"/>
          <p>0 0 0 13 0 1 12 0 2 1 1 3 13 1 4 15 1 5 0 2 6 12 2 7 17 2 8 0 3 9 17 3 10 19 3 11 0 4 12 19 4 13 16 4 14 1 5 15 15 5 16 22 5 17 2 6 18 14 6 19 24 6 20 3 7 21 18 7 22 26 7 23 4 8 24 20 8 25 28 8 26 5 9 27 21 9 28 30 9 29 1 10 30 22 10 31 25 10 32 2 11 33 24 11 34 27 11 35 3 12 36 26 12 37 29 12 38 4 13 39 28 13 40 31 13 41 5 14 42 30 14 43 23 14 44 6 15 45 32 15 46 37 15 47 7 16 48 33 16 49 39 16 50 8 17 51 34 17 52 40 17 53 9 18 54 35 18 55 41 18 56 10 19 57 36 19 58 38 19 59 38 20 60 41 20 61 11 20 62 38 21 63 36 21 64 41 21 65 36 22 66 9 22 67 41 22 68 41 23 69 40 23 70 11 23 71 41 24 72 35 24 73 40 24 74 35 25 75 8 25 76 40 25 77 40 26 78 39 26 79 11 26 80 40 27 81 34 27 82 39 27 83 34 28 84 7 28 85 39 28 86 39 29 87 37 29 88 11 29 89 39 30 90 33 30 91 37 30 92 33 31 93 6 31 94 37 31 95 37 32 96 38 32 97 11 32 98 37 33 99 32 33 100 38 33 101 32 34 102 10 34 103 38 34 104 23 35 105 36 35 106 10 35 107 23 36 108 30 36 109 36 36 110 30 37 111 9 37 112 36 37 113 31 38 114 35 38 115 9 38 116 31 39 117 28 39 118 35 39 119 28 40 120 8 40 121 35 40 122 29 41 123 34 41 124 8 41 125 29 42 126 26 42 127 34 42 128 26 43 129 7 43 130 34 43 131 27 44 132 33 44 133 7 44 134 27 45 135 24 45 136 33 45 137 24 46 138 6 46 139 33 46 140 25 47 141 32 47 142 6 47 143 25 48 144 22 48 145 32 48 146 22 49 147 10 49 148 32 49 149 30 50 150 31 50 151 9 50 152 30 51 153 21 51 154 31 51 155 21 52 156 4 52 157 31 52 158 28 53 159 29 53 160 8 53 161 28 54 162 20 54 163 29 54 164 20 55 165 3 55 166 29 55 167 26 56 168 27 56 169 7 56 170 26 57 171 18 57 172 27 57 173 18 58 174 2 58 175 27 58 176 24 59 177 25 59 178 6 59 179 24 60 180 14 60 181 25 60 182 14 61 183 1 61 184 25 61 185 22 62 186 23 62 187 10 62 188 22 63 189 15 63 190 23 63 191 15 64 192 5 64 193 23 64 194 16 65 195 21 65 196 5 65 197 16 66 198 19 66 199 21 66 200 19 67 201 4 67 202 21 67 203 19 68 204 20 68 205 4 68 206 19 69 207 17 69 208 20 69 209 17 70 210 3 70 211 20 70 212 17 71 213 18 71 214 3 71 215 17 72 216 12 72 217 18 72 218 12 73 219 2 73 220 18 73 221 15 74 222 16 74 223 5 74 224 15 75 225 13 75 226 16 75 227 13 76 228 0 76 229 16 76 230 12 77 231 14 77 232 2 77 233 12 78 234 13 78 235 14 78 236 13 79 237 1 79 238 14 79 239</p>
        </triangles>
      </mesh>
    </geometry>
  </library_geometries>
  <library_controllers/>
  <library_visual_scenes>
    <visual_scene id="Scene" name="Scene">
      <node id="Icosphere_001" name="Icosphere_001" type="NODE">
        <matrix sid="transform">0.1 0 0 -0.001881987 0 0.1 0 0.06732281 0 0 0.1 -0.1943191 0 0 0 1</matrix>
        <instance_geometry url="#Icosphere_003-mesh" name="Icosphere_001">
          <bind_material>
            <technique_common>
              <instance_material symbol="Material_001-material" target="#Material_001-material"/>
            </technique_common>
          </bind_material>
        </instance_geometry>
      </node>
      <node id="potatogreen" name="potatogreen" type="NODE">
        <matrix sid="transform">0.1 0 0 0 0 0.1 0 0.02000988 0 0 0.3266083 -1.050516 0 0 0 1</matrix>
        <instance_geometry url="#Cylinder_008-mesh" name="potatogreen">
          <bind_material>
            <technique_common>
              <instance_material symbol="Carrot_GReen-material" target="#Carrot_GReen-material"/>
            </technique_common>
          </bind_material>
        </instance_geometry>
      </node>
      <node id="Icosphere" name="Icosphere" type="NODE">
        <matrix sid="transform">0.095 0 0 -0.001881987 0 0.095 0 -0.02423382 0 0 0.095 -0.1918238 0 0 0 1</matrix>
        <instance_geometry url="#Icosphere_001-mesh" name="Icosphere">
          <bind_material>
            <technique_common>
              <instance_material symbol="Material_001-material" target="#Material_001-material"/>
            </technique_common>
          </bind_material>
        </instance_geometry>
      </node>
    </visual_scene>
  </library_visual_scenes>
  <scene>
    <instance_visual_scene url="#Scene"/>
  </scene>
</COLLADA>