<?xml version="1.0" encoding="utf-8"?>
<COLLADA xmlns="http://www.collada.org/2005/11/COLLADASchema" version="1.4.1" xmlns:xsi="http://www.w3.org/2001/XMLSchema-instance">
  <asset>
    <contributor>
      <author>Blender User</author>
      <authoring_tool>Blender 2.79.0 commit date:2018-03-22, commit time:14:10, hash:f4dc9f9d68b</authoring_tool>
    </contributor>
    <created>2019-01-17T17:24:08</created>
    <modified>2019-01-17T17:24:08</modified>
    <unit name="meter" meter="1"/>
    <up_axis>Z_UP</up_axis>
  </asset>
  <library_images/>
  <library_effects>
    <effect id="Material_002-effect">
      <profile_COMMON>
        <technique sid="common">
          <phong>
            <emission>
              <color sid="emission">0 0 0 1</color>
            </emission>
            <ambient>
              <color sid="ambient">1 1 1 1</color>
            </ambient>
            <diffuse>
              <color sid="diffuse">0.00936181 0.3975377 0.05569919 1</color>
            </diffuse>
            <specular>
              <color sid="specular">0.25 0.25 0.25 1</color>
            </specular>
            <shininess>
              <float sid="shininess">50</float>
            </shininess>
            <index_of_refraction>
              <float sid="index_of_refraction">1</float>
            </index_of_refraction>
          </phong>
        </technique>
      </profile_COMMON>
    </effect>
    <effect id="Material_001-effect">
      <profile_COMMON>
        <technique sid="common">
          <phong>
            <emission>
              <color sid="emission">0 0 0 1</color>
            </emission>
            <ambient>
              <color sid="ambient">1 1 1 1</color>
            </ambient>
            <diffuse>
              <color sid="diffuse">0 0 0 1</color>
            </diffuse>
            <specular>
              <color sid="specular">0.25 0.25 0.25 1</color>
            </specular>
            <shininess>
              <float sid="shininess">50</float>
            </shininess>
            <index_of_refraction>
              <float sid="index_of_refraction">1</float>
            </index_of_refraction>
          </phong>
        </technique>
      </profile_COMMON>
    </effect>
  </library_effects>
  <library_materials>
    <material id="Material_002-material" name="Material_002">
      <instance_effect url="#Material_002-effect"/>
    </material>
    <material id="Material_001-material" name="Material_001">
      <instance_effect url="#Material_001-effect"/>
    </material>
  </library_materials>
  <library_geometries>
    <geometry id="Cylinder-mesh" name="Cylinder">
      <mesh>
        <source id="Cylinder-mesh-positions">
          <float_array id="Cylinder-mesh-positions-array" count="192">0 1 -1 0 1 1 0.1950903 0.9807853 -1 0.1950903 0.9807853 1 0.3826835 0.9238795 -1 0.3826835 0.9238795 1 0.5555703 0.8314696 -1 0.5555703 0.8314696 1 0.7071068 0.7071068 -1 0.7071068 0.7071068 1 0.8314697 0.5555702 -1 0.8314697 0.5555702 1 0.9238795 0.3826834 -1 0.9238795 0.3826834 1 0.9807853 0.1950903 -1 0.9807853 0.1950903 1 1 0 -1 1 0 1 0.9807853 -0.1950902 -1 0.9807853 -0.1950902 1 0.9238796 -0.3826833 -1 0.9238796 -0.3826833 1 0.8314697 -0.5555702 -1 0.8314697 -0.5555702 1 0.7071068 -0.7071068 -1 0.7071068 -0.7071068 1 0.5555702 -0.8314697 -1 0.5555702 -0.8314697 1 0.3826833 -0.9238796 -1 0.3826833 -0.9238796 1 0.1950901 -0.9807853 -1 0.1950901 -0.9807853 1 -3.25841e-7 -1 -1 -3.25841e-7 -1 1 -0.1950907 -0.9807852 -1 -0.1950907 -0.9807852 1 -0.3826839 -0.9238793 -1 -0.3826839 -0.9238793 1 -0.5555707 -0.8314693 -1 -0.5555707 -0.8314693 1 -0.7071073 -0.7071064 -1 -0.7071073 -0.7071064 1 -0.83147 -0.5555697 -1 -0.83147 -0.5555697 1 -0.9238799 -0.3826827 -1 -0.9238799 -0.3826827 1 -0.9807854 -0.1950893 -1 -0.9807854 -0.1950893 1 -1 9.65599e-7 -1 -1 9.65599e-7 1 -0.9807851 0.1950913 -1 -0.9807851 0.1950913 1 -0.9238791 0.3826845 -1 -0.9238791 0.3826845 1 -0.8314689 0.5555713 -1 -0.8314689 0.5555713 1 -0.7071059 0.7071077 -1 -0.7071059 0.7071077 1 -0.5555691 0.8314704 -1 -0.5555691 0.8314704 1 -0.3826821 0.9238801 -1 -0.3826821 0.9238801 1 -0.1950888 0.9807856 -1 -0.1950888 0.9807856 1</float_array>
          <technique_common>
            <accessor source="#Cylinder-mesh-positions-array" count="64" stride="3">
              <param name="X" type="float"/>
              <param name="Y" type="float"/>
              <param name="Z" type="float"/>
            </accessor>
          </technique_common>
        </source>
        <source id="Cylinder-mesh-normals">
          <float_array id="Cylinder-mesh-normals-array" count="207">0.09801697 0.9951848 0 0.2902848 0.9569403 0 0.4713967 0.8819213 0 0.634393 0.7730107 0 0.7730104 0.6343934 0 0.8819217 0.471396 0 0.9569404 0.2902847 0 0.9951848 0.09801727 0 0.9951848 -0.09801673 0 0.9569406 -0.2902842 0 0.8819216 -0.4713963 0 0.7730107 -0.634393 0 0.6343931 -0.7730107 0 0.4713966 -0.8819214 0 0.2902842 -0.9569405 0 0.09801691 -0.9951848 0 -0.09801757 -0.9951848 0 -0.2902851 -0.9569402 0 -0.4713972 -0.8819211 0 -0.6343934 -0.7730104 0 -0.7730111 -0.6343926 0 -0.8819215 -0.4713966 0 -0.9569408 -0.2902831 0 -0.9951849 -0.09801608 0 -0.9951847 0.09801787 0 -0.95694 0.2902857 0 -0.8819207 0.4713978 0 -0.77301 0.6343941 0 -0.6343923 0.7730113 0 -0.4713954 0.8819221 0 0 0 1 -0.2902833 0.9569408 0 -0.0980162 0.9951849 0 0 0 -1 0.2902848 0.9569404 0 0.6343933 0.7730104 0 0.7730107 0.634393 0 0.8819215 0.4713965 0 0.9569402 0.2902853 0 0.9951848 0.09801667 0 0.9951848 -0.09801733 0 0.9569404 -0.2902847 0 0.8819212 -0.4713968 0 0.7730104 -0.6343934 0 0.6343934 -0.7730104 0 0.4713965 -0.8819214 0 0.2902843 -0.9569405 0 -0.2902851 -0.9569403 0 -0.4713971 -0.8819211 0 -0.7730114 -0.6343922 0 -0.9951848 -0.09801667 0 -0.9569399 0.2902862 0 -0.4713953 0.8819221 0 0 0 1 -3.9751e-6 0 1 1.36853e-6 0 1 -2.73706e-6 0 1 -3.88857e-7 0 1 1.02308e-6 0 1 -2.87796e-7 0 1 0 0 1 -0.2902832 0.9569408 0 3.97513e-6 0 -1 -2.73706e-6 0 -1 -3.97508e-6 0 -1 3.97512e-6 0 -1 -3.88857e-7 0 -1 2.87797e-7 0 -1 0 0 -1</float_array>
          <technique_common>
            <accessor source="#Cylinder-mesh-normals-array" count="69" stride="3">
              <param name="X" type="float"/>
              <param name="Y" type="float"/>
              <param name="Z" type="float"/>
            </accessor>
          </technique_common>
        </source>
        <vertices id="Cylinder-mesh-vertices">
          <input semantic="POSITION" source="#Cylinder-mesh-positions"/>
        </vertices>
        <triangles material="Material_002-material" count="124">
          <input semantic="VERTEX" source="#Cylinder-mesh-vertices" offset="0"/>
          <input semantic="NORMAL" source="#Cylinder-mesh-normals" offset="1"/>
          <p>1 0 2 0 0 0 3 1 4 1 2 1 5 2 6 2 4 2 7 3 8 3 6 3 9 4 10 4 8 4 11 5 12 5 10 5 13 6 14 6 12 6 15 7 16 7 14 7 17 8 18 8 16 8 19 9 20 9 18 9 21 10 22 10 20 10 23 11 24 11 22 11 25 12 26 12 24 12 27 13 28 13 26 13 29 14 30 14 28 14 31 15 32 15 30 15 33 16 34 16 32 16 35 17 36 17 34 17 37 18 38 18 36 18 39 19 40 19 38 19 41 20 42 20 40 20 43 21 44 21 42 21 45 22 46 22 44 22 47 23 48 23 46 23 49 24 50 24 48 24 51 25 52 25 50 25 53 26 54 26 52 26 55 27 56 27 54 27 57 28 58 28 56 28 59 29 60 29 58 29 53 30 37 30 21 30 61 31 62 31 60 31 63 32 0 32 62 32 14 33 30 33 46 33 1 0 3 0 2 0 3 34 5 34 4 34 5 2 7 2 6 2 7 35 9 35 8 35 9 36 11 36 10 36 11 37 13 37 12 37 13 38 15 38 14 38 15 39 17 39 16 39 17 40 19 40 18 40 19 41 21 41 20 41 21 42 23 42 22 42 23 43 25 43 24 43 25 44 27 44 26 44 27 45 29 45 28 45 29 46 31 46 30 46 31 15 33 15 32 15 33 16 35 16 34 16 35 47 37 47 36 47 37 48 39 48 38 48 39 19 41 19 40 19 41 49 43 49 42 49 43 21 45 21 44 21 45 22 47 22 46 22 47 50 49 50 48 50 49 24 51 24 50 24 51 51 53 51 52 51 53 26 55 26 54 26 55 27 57 27 56 27 57 28 59 28 58 28 59 52 61 52 60 52 5 53 3 53 1 53 1 53 63 53 5 53 63 53 61 53 5 53 61 53 59 53 57 53 57 53 55 53 53 53 53 54 51 54 49 54 49 53 47 53 53 53 47 53 45 53 53 53 45 55 43 55 37 55 43 53 41 53 37 53 41 53 39 53 37 53 37 53 35 53 33 53 33 53 31 53 29 53 29 53 27 53 25 53 25 53 23 53 21 53 21 53 19 53 17 53 17 53 15 53 21 53 15 56 13 56 21 56 13 53 11 53 9 53 9 53 7 53 5 53 61 53 57 53 5 53 57 53 53 53 5 53 37 57 33 57 21 57 33 53 29 53 21 53 29 58 25 58 21 58 13 53 9 53 21 53 9 53 5 53 21 53 53 59 45 59 37 59 5 60 53 60 21 60 61 61 63 61 62 61 63 32 1 32 0 32 62 33 0 33 2 33 2 33 4 33 6 33 6 33 8 33 10 33 10 33 12 33 6 33 12 33 14 33 6 33 14 62 16 62 18 62 18 33 20 33 14 33 20 63 22 63 14 63 22 33 24 33 30 33 24 33 26 33 30 33 26 33 28 33 30 33 30 33 32 33 34 33 34 33 36 33 38 33 38 33 40 33 42 33 42 64 44 64 46 64 46 65 48 65 50 65 50 33 52 33 54 33 54 33 56 33 62 33 56 33 58 33 62 33 58 33 60 33 62 33 62 33 2 33 6 33 30 33 34 33 46 33 34 33 38 33 46 33 38 33 42 33 46 33 46 66 50 66 62 66 50 33 54 33 62 33 62 33 6 33 14 33 14 67 22 67 30 67 62 68 14 68 46 68</p>
        </triangles>
      </mesh>
    </geometry>
    <geometry id="Torus-mesh" name="Torus">
      <mesh>
        <source id="Torus-mesh-positions">
          <float_array id="Torus-mesh-positions-array" count="1488">1.25 0 0 1.216506 0 0.125 1.125 0 0.2165063 1 0 0.25 1 0 -0.25 1.125 0 -0.2165063 1.216506 0 -0.125 1.239306 0.1631577 0 1.206099 0.1587859 0.125 1.115375 0.1468419 0.2165063 0.9914449 0.1305261 0.25 0.9914449 0.1305261 -0.25 1.115375 0.1468419 -0.2165063 1.206099 0.1587859 -0.125 1.207407 0.3235237 0 1.175055 0.3148549 0.125 1.086667 0.2911714 0.2165063 0.9659258 0.258819 0.25 0.9659258 0.258819 -0.25 1.086667 0.2911714 -0.2165063 1.175055 0.3148549 -0.125 1.154849 0.4783542 0 1.123905 0.4655367 0.125 1.039364 0.4305188 0.2165063 0.9238796 0.3826833 0.25 0.9238796 0.3826833 -0.25 1.039364 0.4305188 -0.2165063 1.123905 0.4655367 -0.125 1.082532 0.6250001 0 1.053525 0.6082533 0.125 0.9742785 0.5625001 0.2165063 0.8660253 0.5000001 0.25 0.8660253 0.5000001 -0.25 0.9742785 0.5625001 -0.2165063 1.053525 0.6082533 -0.125 0.9916918 0.7609516 0 0.9651196 0.740562 0.125 0.8925226 0.6848565 0.2165063 0.7933534 0.6087613 0.25 0.7933534 0.6087613 -0.25 0.8925226 0.6848565 -0.2165063 0.9651196 0.740562 -0.125 0.8838834 0.8838835 0 0.8601998 0.8601999 0.125 0.795495 0.7954952 0.2165063 0.7071067 0.7071068 0.25 0.7071067 0.7071068 -0.25 0.795495 0.7954952 -0.2165063 0.8601998 0.8601999 -0.125 0.7609519 0.9916915 0 0.7405623 0.9651193 0.125 0.6848568 0.8925223 0.2165063 0.6087616 0.7933532 0.25 0.6087616 0.7933532 -0.25 0.6848568 0.8925223 -0.2165063 0.7405623 0.9651193 -0.125 0.625 1.082532 0 0.6082531 1.053525 0.125 0.5625 0.9742786 0.2165063 0.5 0.8660255 0.25 0.5 0.8660255 -0.25 0.5625 0.9742786 -0.2165063 0.6082531 1.053525 -0.125 0.4783546 1.154849 0 0.4655371 1.123905 0.125 0.4305191 1.039364 0.2165063 0.3826836 0.9238795 0.25 0.3826836 0.9238795 -0.25 0.4305191 1.039364 -0.2165063 0.4655371 1.123905 -0.125 0.3235238 1.207407 0 0.314855 1.175055 0.125 0.2911714 1.086667 0.2165063 0.2588191 0.9659258 0.25 0.2588191 0.9659258 -0.25 0.2911714 1.086667 -0.2165063 0.314855 1.175055 -0.125 0.1631575 1.239306 0 0.1587857 1.206099 0.125 0.1468417 1.115375 0.2165063 0.130526 0.9914449 0.25 0.130526 0.9914449 -0.25 0.1468417 1.115375 -0.2165063 0.1587857 1.206099 -0.125 0 1.25 0 0 1.216506 0.125 0 1.125 0.2165063 0 1 0.25 0 1 -0.25 0 1.125 -0.2165063 0 1.216506 -0.125 -0.1631579 1.239306 0 -0.1587861 1.206099 0.125 -0.1468421 1.115375 0.2165063 -0.1305263 0.9914448 0.25 -0.1305263 0.9914448 -0.25 -0.1468421 1.115375 -0.2165063 -0.1587861 1.206099 -0.125 -0.3235237 1.207407 0 -0.3148549 1.175055 0.125 -0.2911713 1.086667 0.2165063 -0.2588189 0.9659259 0.25 -0.2588189 0.9659259 -0.25 -0.2911713 1.086667 -0.2165063 -0.3148549 1.175055 -0.125 -0.4783544 1.154849 0 -0.4655369 1.123905 0.125 -0.4305189 1.039364 0.2165063 -0.3826835 0.9238795 0.25 -0.3826835 0.9238795 -0.25 -0.4305189 1.039364 -0.2165063 -0.4655369 1.123905 -0.125 -0.6249998 1.082532 0 -0.608253 1.053526 0.125 -0.5624998 0.9742787 0.2165063 -0.4999998 0.8660255 0.25 -0.4999998 0.8660255 -0.25 -0.5624998 0.9742787 -0.2165063 -0.608253 1.053526 -0.125 -0.7609518 0.9916917 0 -0.7405622 0.9651194 0.125 -0.6848566 0.8925225 0.2165063 -0.6087614 0.7933533 0.25 -0.6087614 0.7933533 -0.25 -0.6848566 0.8925225 -0.2165063 -0.7405622 0.9651194 -0.125 -0.8838837 0.8838832 0 -0.8602001 0.8601997 0.125 -0.7954953 0.7954949 0.2165063 -0.707107 0.7071066 0.25 -0.707107 0.7071066 -0.25 -0.7954953 0.7954949 -0.2165063 -0.8602001 0.8601997 -0.125 -0.9916917 0.7609518 0 -0.9651194 0.7405622 0.125 -0.8925225 0.6848566 0.2165063 -0.7933533 0.6087614 0.25 -0.7933533 0.6087614 -0.25 -0.8925225 0.6848566 -0.2165063 -0.9651194 0.7405622 -0.125 -1.082532 0.6250003 0 -1.053525 0.6082535 0.125 -0.9742785 0.5625002 0.2165063 -0.8660253 0.5000002 0.25 -0.8660253 0.5000002 -0.25 -0.9742785 0.5625002 -0.2165063 -1.053525 0.6082535 -0.125 -1.154849 0.4783543 0 -1.123905 0.4655369 0.125 -1.039364 0.4305189 0.2165063 -0.9238795 0.3826835 0.25 -0.9238795 0.3826835 -0.25 -1.039364 0.4305189 -0.2165063 -1.123905 0.4655369 -0.125 -1.207407 0.3235237 0 -1.175055 0.3148549 0.125 -1.086667 0.2911713 0.2165063 -0.9659259 0.2588189 0.25 -0.9659259 0.2588189 -0.25 -1.086667 0.2911713 -0.2165063 -1.175055 0.3148549 -0.125 -1.239306 0.1631579 0 -1.206099 0.1587861 0.125 -1.115375 0.1468421 0.2165063 -0.9914448 0.1305263 0.25 -0.9914448 0.1305263 -0.25 -1.115375 0.1468421 -0.2165063 -1.206099 0.1587861 -0.125 -1.25 0 0 -1.216506 0 0.125 -1.125 0 0.2165063 -1 0 0.25 -1 0 -0.25 -1.125 0 -0.2165063 -1.216506 0 -0.125 -1.239306 -0.1631579 0 -1.206099 -0.1587861 0.125 -1.115375 -0.1468421 0.2165063 -0.9914448 -0.1305263 0.25 -0.9914448 -0.1305263 -0.25 -1.115375 -0.1468421 -0.2165063 -1.206099 -0.1587861 -0.125 -1.207407 -0.3235237 0 -1.175055 -0.3148549 0.125 -1.086667 -0.2911713 0.2165063 -0.9659259 -0.2588189 0.25 -0.9659259 -0.2588189 -0.25 -1.086667 -0.2911713 -0.2165063 -1.175055 -0.3148549 -0.125 -1.15485 -0.4783538 0 -1.123906 -0.4655364 0.125 -1.039365 -0.4305185 0.2165063 -0.9238797 -0.382683 0.25 -0.9238797 -0.382683 -0.25 -1.039365 -0.4305185 -0.2165063 -1.123906 -0.4655364 -0.125 -1.082532 -0.6249998 0 -1.053526 -0.608253 0.125 -0.9742787 -0.5624998 0.2165063 -0.8660255 -0.4999998 0.25 -0.8660255 -0.4999998 -0.25 -0.9742787 -0.5624998 -0.2165063 -1.053526 -0.608253 -0.125 -0.9916917 -0.7609518 0 -0.9651194 -0.7405622 0.125 -0.8925225 -0.6848566 0.2165063 -0.7933533 -0.6087614 0.25 -0.7933533 -0.6087614 -0.25 -0.8925225 -0.6848566 -0.2165063 -0.9651194 -0.7405622 -0.125 -0.8838837 -0.8838832 0 -0.8602001 -0.8601997 0.125 -0.7954953 -0.7954949 0.2165063 -0.707107 -0.7071066 0.25 -0.707107 -0.7071066 -0.25 -0.7954953 -0.7954949 -0.2165063 -0.8602001 -0.8601997 -0.125 -0.7609523 -0.9916913 0 -0.7405627 -0.965119 0.125 -0.6848571 -0.8925222 0.2165063 -0.6087619 -0.793353 0.25 -0.6087619 -0.793353 -0.25 -0.6848571 -0.8925222 -0.2165063 -0.7405627 -0.965119 -0.125 -0.6249998 -1.082532 0 -0.608253 -1.053526 0.125 -0.5624998 -0.9742787 0.2165063 -0.4999998 -0.8660255 0.25 -0.4999998 -0.8660255 -0.25 -0.5624998 -0.9742787 -0.2165063 -0.608253 -1.053526 -0.125 -0.4783544 -1.154849 0 -0.4655369 -1.123905 0.125 -0.4305189 -1.039364 0.2165063 -0.3826835 -0.9238795 0.25 -0.3826835 -0.9238795 -0.25 -0.4305189 -1.039364 -0.2165063 -0.4655369 -1.123905 -0.125 -0.3235242 -1.207407 0 -0.3148554 -1.175055 0.125 -0.2911718 -1.086666 0.2165063 -0.2588194 -0.9659258 0.25 -0.2588194 -0.9659258 -0.25 -0.2911718 -1.086666 -0.2165063 -0.3148554 -1.175055 -0.125 -0.1631585 -1.239306 0 -0.1587867 -1.206099 0.125 -0.1468425 -1.115375 0.2165063 -0.1305268 -0.9914448 0.25 -0.1305268 -0.9914448 -0.25 -0.1468425 -1.115375 -0.2165063 -0.1587867 -1.206099 -0.125 0 -1.25 0 0 -1.216506 0.125 0 -1.125 0.2165063 0 -1 0.25 0 -1 -0.25 0 -1.125 -0.2165063 0 -1.216506 -0.125 0.1631575 -1.239306 0 0.1587857 -1.206099 0.125 0.1468417 -1.115375 0.2165063 0.130526 -0.9914449 0.25 0.130526 -0.9914449 -0.25 0.1468417 -1.115375 -0.2165063 0.1587857 -1.206099 -0.125 0.3235232 -1.207407 0 0.3148545 -1.175055 0.125 0.2911709 -1.086667 0.2165063 0.2588186 -0.9659259 0.25 0.2588186 -0.9659259 -0.25 0.2911709 -1.086667 -0.2165063 0.3148545 -1.175055 -0.125 0.4783546 -1.154849 0 0.4655371 -1.123905 0.125 0.4305191 -1.039364 0.2165063 0.3826836 -0.9238795 0.25 0.3826836 -0.9238795 -0.25 0.4305191 -1.039364 -0.2165063 0.4655371 -1.123905 -0.125 0.625 -1.082532 0 0.6082531 -1.053525 0.125 0.5625 -0.9742786 0.2165063 0.5 -0.8660255 0.25 0.5 -0.8660255 -0.25 0.5625 -0.9742786 -0.2165063 0.6082531 -1.053525 -0.125 0.7609515 -0.9916919 0 0.7405619 -0.9651196 0.125 0.6848564 -0.8925227 0.2165063 0.6087612 -0.7933535 0.25 0.6087612 -0.7933535 -0.25 0.6848564 -0.8925227 -0.2165063 0.7405619 -0.9651196 -0.125 0.883883 -0.883884 0 0.8601995 -0.8602004 0.125 0.7954947 -0.7954956 0.2165063 0.7071064 -0.7071072 0.25 0.7071064 -0.7071072 -0.25 0.7954947 -0.7954956 -0.2165063 0.8601995 -0.8602004 -0.125 0.9916918 -0.7609516 0 0.9651196 -0.740562 0.125 0.8925226 -0.6848565 0.2165063 0.7933534 -0.6087613 0.25 0.7933534 -0.6087613 -0.25 0.8925226 -0.6848565 -0.2165063 0.9651196 -0.740562 -0.125 1.082532 -0.6250001 0 1.053525 -0.6082533 0.125 0.9742785 -0.5625001 0.2165063 0.8660253 -0.5000001 0.25 0.8660253 -0.5000001 -0.25 0.9742785 -0.5625001 -0.2165063 1.053525 -0.6082533 -0.125 1.154849 -0.4783548 0 1.123905 -0.4655373 0.125 1.039364 -0.4305193 0.2165063 0.9238794 -0.3826838 0.25 0.9238794 -0.3826838 -0.25 1.039364 -0.4305193 -0.2165063 1.123905 -0.4655373 -0.125 1.207407 -0.3235235 0 1.175055 -0.3148547 0.125 1.086667 -0.2911711 0.2165063 0.9659259 -0.2588188 0.25 0.9659259 -0.2588188 -0.25 1.086667 -0.2911711 -0.2165063 1.175055 -0.3148547 -0.125 1.239306 -0.1631577 0 1.206099 -0.1587859 0.125 1.115375 -0.1468419 0.2165063 0.9914449 -0.1305261 0.25 0.9914449 -0.1305261 -0.25 1.115375 -0.1468419 -0.2165063 1.206099 -0.1587859 -0.125 0.878136 -0.3637363 0.2367331 0.8196217 -0.473209 0.2356426 0.8196217 -0.473209 -0.2356426 0.7905616 -0.5275767 -0.2372655 0.7905616 -0.5275767 0.2372645 -0.1256166 0.9541519 0.2399212 -0.007649242 0.9657707 0.2409631 -0.007649242 0.9657707 -0.2409618 -0.1256166 0.954152 -0.2399212 -0.1949346 0.9473248 0.241757 -0.1949346 0.9473248 -0.2417557 -0.2494072 0.9308008 0.2402562 -0.2494072 0.9308008 -0.2402562 -0.3703535 0.8941124 0.2413667 -0.3750241 0.8926956 0.2415806 -0.3750241 0.8926956 -0.2415785 -0.3703535 0.8941124 -0.2413667 -0.8945739 -0.3616047 0.2407279 -0.8945739 -0.3616047 -0.2407298 -0.8313127 -0.4799584 0.2392598 -0.8906618 -0.3689238 -0.2403659 -0.8313127 -0.4799584 -0.2392598 -0.8906618 -0.3689238 0.2403659 -0.8058605 -0.5275762 0.2406809 -0.8058605 -0.5275762 -0.2406813 -0.7601456 -0.5832802 0.2387843 -0.7601455 -0.5832802 -0.2387843 -0.9492033 -0.1815152 0.2415472 -0.9287734 -0.2488639 0.2396938 -0.9492033 -0.1815152 -0.2415475 -0.9287734 -0.2488639 -0.2396938 -0.6791011 -0.6791008 0.2393875 -0.6791011 -0.6791008 -0.2393875 -0.5821475 -0.7586686 0.2382856 -0.5821475 -0.7586686 -0.2382856 -0.6864722 -0.6730514 0.2398036 -0.6864722 -0.6730514 -0.2398047 -0.1949363 -0.9357831 0.2387148 -0.1949363 -0.9357831 -0.2387151 -0.124117 -0.9427582 0.2368419 -0.124117 -0.9427582 -0.2368419 -0.0076496 -0.9542293 0.2378708 -0.0076496 -0.9542293 -0.2378695 -0.3661065 -0.8838591 0.238393 -0.2465476 -0.920127 0.2372953 -0.3661065 -0.8838591 -0.238393 -0.2465476 -0.9201269 -0.2372953 -0.3750258 -0.8811535 0.2388023 -0.3750258 -0.8811535 -0.238801 0.9339045 0.1930574 0.2381212 0.9339045 0.1930574 -0.2381222 0.9178626 0.2459405 0.2366672 0.9178627 0.2459405 -0.2366672 0.881684 0.3652054 0.2377622 0.5256981 0.8039815 0.2399808 0.5256981 0.8039815 -0.2399811 0.4786866 0.8291097 0.2385782 0.3679467 0.8883014 0.2396814 0.3679467 0.8883014 -0.2396814 0.4786866 0.8291097 -0.2385782 0.940721 0.1238481 0.2362913 0.940721 0.1238481 -0.2362913 0.9523507 0.005770683 0.2373335 0.9523507 0.005770683 -0.2373338 0.8243359 0.4759307 0.2371011 0.879275 0.3731468 0.2381259 0.879275 0.3731468 -0.2381238 0.8243358 0.4759307 -0.2371011 0.1796371 -0.9357832 0.2379153 0.1796371 -0.9357832 -0.2379125 0.881684 0.3652054 -0.2377622 -0.6854403 0.68544 0.2417896 -0.6854403 0.68544 -0.2417896 -0.6864709 0.684594 0.2418476 -0.6864709 0.684594 -0.2418479 -0.5875811 0.7657506 0.2406774 -0.5409957 0.8039822 0.2422625 -0.5409957 0.8039822 -0.2422628 -0.5875812 0.7657506 -0.2406774 0.1239205 -0.9412708 0.2364399 0 -0.9534758 0.2375339 0 -0.9534758 -0.2375339 0.1239205 -0.9412708 -0.2364398 -0.7659574 0.5877398 0.2407472 -0.7659574 0.5877398 -0.2407472 0 0.9650173 -0.2406263 -0.8058595 0.5391191 0.2424015 -0.8058595 0.5391191 -0.2424027 0.9339046 -0.1815159 -0.2375159 0.9339046 -0.1815159 0.2375156 0.9517823 0 0.23708 0.9395989 -0.1237004 0.235988 0.9395989 -0.1237004 -0.235988 0.5762355 -0.7509651 0.2356836 0.5762355 -0.7509652 -0.2356836 0.5256981 -0.7924402 0.2374051 0.5256981 -0.7924402 -0.2374038 0.6711732 -0.6730518 0.2367622 0.6711732 -0.6730518 -0.2367625 0.9146248 -0.2450727 -0.235769 0.9146248 -0.2450727 0.235769 0.8792751 -0.3616052 -0.236838 0.8792751 -0.3616052 0.2368377 0.7507584 -0.576077 -0.2356138 0.7507584 -0.576077 0.2356138 0.6720196 -0.6720204 0.2367043 0.6720196 -0.6720204 -0.2367042 0.878136 -0.3637363 -0.2367331 0.9517823 0 -0.23708 -0.9676494 0.005771577 0.2414344 -0.9670808 0 0.2411793 -0.9676494 0.005771577 -0.2414331 -0.9670808 0 -0.2411793 -0.9547017 -0.125689 0.2400697 -0.9547017 -0.125689 -0.2400697 -0.4822943 0.8353586 -0.2405115 -0.4822943 0.8353586 0.2405115 -0.4772023 -0.826539 0.2377828 -0.5409972 -0.7924398 0.2396868 -0.5409972 -0.7924398 -0.2396863 -0.4772023 -0.8265389 -0.2377828 -0.949203 0.1930583 0.2421504 -0.9558238 0.1258367 0.240373 -0.949203 0.1930583 -0.2421507 -0.9558238 0.1258367 -0.240373 0.6711732 0.6845932 -0.2390918 0.6711732 0.6845932 0.2390938 0.5816699 0.7580466 0.2380754 0.5816699 0.7580466 -0.2380754 0.4735946 -0.8202901 0.2358494 0.3640328 -0.8788521 0.2369409 0.4735946 -0.8202901 -0.2358494 0.3640327 -0.8788521 -0.2369409 0.3597266 -0.8811538 0.237154 0.3597266 -0.8811538 -0.2371535 0.6772222 0.6772224 -0.2386756 0.6772223 0.6772224 0.2386756 0.7565702 0.5805366 0.2375767 0.7565702 0.5805366 -0.2375767 0.7905616 0.5391181 0.2389875 0.7905616 0.5391181 -0.2389877 0.2453969 -0.9158353 0.2361047 0.2453969 -0.9158353 -0.2361047 -0.8945732 0.3731477 0.2418095 -0.8945732 0.3731477 -0.2418106 -0.8360266 0.4826805 0.2407184 -0.8360266 0.4826805 -0.2407184 0.3597268 0.892695 -0.2400884 0.3597268 0.892695 0.2400889 0.2482573 0.9265089 0.2390657 0.2482573 0.9265089 -0.2390657 -0.8952748 0.370835 0.2417039 -0.8952748 0.370835 -0.2417039 -0.9320113 0.2497315 0.240592 -0.9320113 0.2497315 -0.240592 0.1796374 0.9473245 0.240952 0.1796374 0.9473245 -0.2409531 0.1254205 0.9526644 0.2395191 0.1254205 0.9526644 -0.2395191 0 0.9650173 0.2406263</float_array>
          <technique_common>
            <accessor source="#Torus-mesh-positions-array" count="496" stride="3">
              <param name="X" type="float"/>
              <param name="Y" type="float"/>
              <param name="Z" type="float"/>
            </accessor>
          </technique_common>
        </source>
        <source id="Torus-mesh-normals">
          <float_array id="Torus-mesh-normals-array" count="2970">0.9639953 0.0631811 0.2583045 0.7063497 0.04629886 0.7063473 0.2587823 0.01696139 0.9657868 -0.2587816 -0.01696306 0.965787 0.2587823 0.01696139 -0.9657868 0.7063497 0.04629886 -0.7063473 0.9639953 0.0631811 -0.2583045 0.9475017 0.1884709 0.2583007 0.6942608 0.1380971 0.7063506 0.2543551 0.05059266 0.9657867 -0.2543521 -0.05060327 0.9657869 0.2543553 0.05059266 -0.9657867 0.6942607 0.1380971 -0.7063507 0.9475017 0.1884709 -0.2583007 0.9147952 0.3105341 0.2582992 0.670298 0.2275386 0.7063475 0.2455735 0.08336246 0.965787 -0.2455746 -0.08336108 0.9657868 0.2455737 0.08336246 -0.9657869 0.6702973 0.2275403 -0.7063477 0.9147951 0.3105341 -0.2582992 0.866437 0.4272791 0.2583016 0.6348636 0.3130804 0.706349 0.2325934 0.1147025 0.9657865 -0.2325966 -0.1146967 0.9657865 0.2325934 0.1147025 -0.9657865 0.6348636 0.3130803 -0.7063491 0.866437 0.4272791 -0.2583016 0.8032516 0.5367168 0.258306 0.5885682 0.3932688 0.7063477 0.2156314 0.1440801 0.9657868 -0.215637 -0.1440727 0.9657866 0.2156311 0.1440799 -0.9657869 0.5885681 0.3932689 -0.7063478 0.8032516 0.5367168 -0.2583062 0.7263253 0.6369708 0.2583019 0.5322005 0.4667271 0.7063487 0.1949799 0.1709935 0.9657868 -0.1949807 -0.170993 0.9657867 0.1949799 0.1709935 -0.9657868 0.5322006 0.4667273 -0.7063485 0.7263253 0.6369707 -0.258302 0.6369708 0.7263252 0.258302 0.4667274 0.5322002 0.7063487 0.1709933 0.1949803 0.9657868 -0.1710014 -0.1949746 0.9657864 0.1709933 0.1949803 -0.9657868 0.4667276 0.5322004 -0.7063485 0.6369708 0.7263253 -0.2583019 0.5367147 0.8032549 0.2583003 0.3932687 0.5885673 0.7063487 0.1440806 0.2156314 0.9657867 -0.144074 -0.2156344 0.9657871 0.1440806 0.2156314 -0.9657867 0.3932687 0.588567 -0.7063488 0.5367146 0.8032549 -0.2583008 0.4272763 0.8664368 0.2583063 0.313082 0.6348657 0.7063465 0.1147017 0.2325931 0.9657867 -0.1147018 -0.2325927 0.9657869 0.1147016 0.2325931 -0.9657867 0.313082 0.6348658 -0.7063463 0.4272796 0.8664348 -0.2583077 0.310531 0.9147956 0.2583012 0.227539 0.670297 0.7063484 0.08336144 0.2455752 0.9657866 -0.0833587 -0.2455733 0.9657874 0.08336144 0.2455753 -0.9657865 0.2275388 0.6702967 -0.7063487 0.3105311 0.9147957 -0.2583007 0.1884707 0.9475025 0.2582982 0.1380937 0.6942651 0.706347 0.0505926 0.2543536 0.9657871 -0.05057692 -0.2543568 0.9657871 0.05059397 0.2543536 -0.965787 0.1380936 0.694265 -0.7063471 0.1884707 0.9475025 -0.2582982 0.06318432 0.963996 0.2583015 0.04629462 0.7063471 0.7063503 0.01696223 0.2587825 0.9657867 -0.01696223 -0.2587825 0.9657866 0.01696223 0.2587825 -0.9657867 0.0462985 0.7063465 -0.7063506 0.06318122 0.9639964 -0.2583006 -0.06318408 0.963995 0.2583049 -0.04629468 0.7063498 0.7063475 -0.01696217 0.258782 0.9657869 0.01695787 -0.258781 0.9657872 -0.01696217 0.258782 -0.9657869 -0.04629468 0.7063498 -0.7063475 -0.06318408 0.963995 -0.2583049 -0.1884697 0.9475016 0.258302 -0.1380938 0.6942624 0.7063497 -0.05059421 0.2543548 0.9657866 0.05055254 -0.2543676 0.9657855 -0.05059421 0.2543549 -0.9657866 -0.1380937 0.694262 -0.70635 -0.1884697 0.9475017 -0.2583017 -0.3105315 0.9147962 0.2582988 -0.2275373 0.6702978 0.7063482 -0.08336085 0.2455736 0.9657871 0.0833612 -0.2455759 0.9657864 -0.08336091 0.2455738 -0.9657871 -0.2275372 0.6702975 -0.7063485 -0.3105339 0.9147953 -0.2582991 -0.427277 0.8664383 0.2583002 -0.3130764 0.6348638 0.7063506 -0.1147015 0.2325935 0.9657866 0.1146999 -0.2325953 0.9657865 -0.1147015 0.2325935 -0.9657866 -0.3130784 0.6348646 -0.7063489 -0.4272749 0.8664392 -0.2583007 -0.5367174 0.8032532 0.2582996 -0.3932685 0.5885649 0.7063506 -0.1440802 0.2156311 0.9657868 0.1440936 -0.2156203 0.9657872 -0.1440803 0.2156312 -0.9657868 -0.3932684 0.5885646 -0.7063511 -0.5367174 0.8032534 -0.2582994 -0.6369705 0.7263253 0.2583025 -0.4667279 0.5322002 0.7063484 -0.170993 0.1949801 0.9657868 0.1709912 -0.1949799 0.9657872 -0.170993 0.1949801 -0.9657868 -0.4667271 0.5321996 -0.7063494 -0.6369706 0.7263253 -0.2583023 -0.7263257 0.6369702 0.2583022 -0.5322002 0.466727 0.706349 -0.1949805 0.1709933 0.9657867 0.1949833 -0.1709911 0.9657865 -0.1949803 0.1709933 -0.9657867 -0.5322002 0.466727 -0.706349 -0.7263258 0.6369703 -0.2583019 -0.8032546 0.5367146 0.2583014 -0.588568 0.393267 0.706349 -0.2156309 0.1440799 0.9657869 0.2156395 -0.1440648 0.9657873 -0.2156309 0.1440799 -0.9657869 -0.588568 0.393267 -0.706349 -0.8032546 0.5367146 -0.2583016 -0.8664352 0.4272796 0.2583068 -0.6348652 0.3130804 0.7063476 -0.2325925 0.1147021 0.9657868 0.2326025 -0.1146562 0.9657899 -0.2325925 0.114702 -0.9657869 -0.6348652 0.3130804 -0.7063476 -0.8664351 0.4272796 -0.2583066 -0.9147953 0.3105314 0.2583017 -0.6702961 0.227538 0.7063496 -0.2455746 0.08336281 0.9657866 0.2455736 -0.08336162 0.965787 -0.2455751 0.08336186 -0.9657866 -0.6702961 0.227538 -0.7063496 -0.9147946 0.3105336 -0.2583017 -0.9475021 0.1884713 0.2582991 -0.6942637 0.1380978 0.7063477 -0.2543541 0.05059289 0.965787 0.2543561 -0.05058884 0.9657866 -0.254354 0.05059289 -0.9657871 -0.6942636 0.1380978 -0.7063477 -0.9475021 0.1884713 -0.2582991 -0.9639964 0.0631811 0.2583007 -0.7063464 0.04629856 0.7063507 -0.2587828 0.01696187 0.9657867 0.2587817 -0.01719743 0.9657827 -0.2587828 0.01696187 -0.9657866 -0.7063463 0.04629856 -0.7063507 -0.9639964 0.0631811 -0.2583007 -0.9639952 -0.06318414 0.2583044 -0.7063498 -0.04629468 0.7063475 -0.2587822 -0.01696199 0.9657868 0.2587838 0.01696169 0.9657863 -0.2587822 -0.01696199 -0.9657868 -0.7063498 -0.04629468 -0.7063475 -0.9639952 -0.06318414 -0.2583044 -0.9475019 -0.1884698 0.2583007 -0.6942613 -0.1380926 0.706351 -0.2543553 -0.05059427 0.9657866 0.254358 0.05058068 0.9657865 -0.2543552 -0.05059427 -0.9657866 -0.6942614 -0.1380926 -0.7063509 -0.9475019 -0.1884698 -0.2583007 -0.9147974 -0.3105275 0.2582991 -0.670299 -0.2275344 0.7063479 -0.2455736 -0.08336079 0.9657871 0.2455312 0.08346557 0.9657889 -0.2455737 -0.08336079 -0.9657871 -0.670299 -0.2275344 -0.7063479 -0.9147971 -0.3105282 -0.2582992 -0.8664363 -0.4272806 0.258301 -0.6348641 -0.3130791 0.7063491 -0.2325919 -0.1147021 0.9657869 0.2325939 0.1147024 0.9657865 -0.2325919 -0.1147021 -0.965787 -0.634864 -0.3130791 -0.7063491 -0.8664364 -0.4272807 -0.2583009 -0.8032532 -0.5367174 0.2582998 -0.5885649 -0.3932693 0.7063503 -0.2156312 -0.14408 0.9657869 0.215632 0.1440791 0.9657868 -0.2156313 -0.14408 -0.9657868 -0.5885649 -0.3932693 -0.7063503 -0.8032532 -0.5367174 -0.2582998 -0.7263252 -0.6369709 0.2583017 -0.5322002 -0.4667271 0.706349 -0.1949802 -0.1709928 0.9657869 0.1949108 0.1710665 0.9657879 -0.1949802 -0.1709928 -0.9657869 -0.5322003 -0.4667272 -0.7063488 -0.7263252 -0.636971 -0.2583016 -0.6369705 -0.7263255 0.2583019 -0.4667275 -0.5321995 0.7063493 -0.1709932 -0.1949803 0.9657867 0.1709929 0.1949802 0.9657869 -0.1709932 -0.1949803 -0.9657867 -0.4667276 -0.5321994 -0.7063492 -0.6369705 -0.7263253 -0.2583024 -0.5367186 -0.803252 0.258301 -0.3932697 -0.5885664 0.7063487 -0.14408 -0.215631 0.9657869 0.1440809 0.2156308 0.9657868 -0.14408 -0.215631 -0.9657869 -0.3932682 -0.588568 -0.7063482 -0.5367187 -0.8032521 -0.2583007 -0.4272774 -0.8664384 0.2582994 -0.313076 -0.6348634 0.7063512 -0.1147019 -0.2325927 0.9657868 0.1148548 0.2325314 0.9657835 -0.1147019 -0.2325927 -0.9657868 -0.3130779 -0.6348642 -0.7063496 -0.4272753 -0.8664393 -0.2582998 -0.3105345 -0.9147943 0.2583018 -0.2275376 -0.6702967 0.7063491 -0.08336168 -0.245575 0.9657866 0.08336186 0.2455747 0.9657867 -0.08336174 -0.2455753 -0.9657866 -0.2275378 -0.670297 -0.7063487 -0.3105344 -0.9147942 -0.2583023 -0.18847 -0.9475022 0.2582995 -0.1380971 -0.6942606 0.7063508 -0.05059456 -0.2543547 0.9657867 0.05059325 0.2543534 0.9657871 -0.05059432 -0.2543557 -0.9657865 -0.1380978 -0.6942605 -0.7063508 -0.18847 -0.9475024 -0.2582989 -0.06318396 -0.9639963 0.2583001 -0.04629433 -0.7063465 0.7063509 -0.01696217 -0.2587829 0.9657866 0.01704883 0.2587808 0.9657856 -0.01696157 -0.2587828 -0.9657866 -0.04629433 -0.7063468 -0.7063506 -0.06318086 -0.9639964 -0.2583005 0.06318426 -0.9639948 0.2583055 0.04629486 -0.7063503 0.706347 0.01696139 -0.2587825 0.9657867 -0.01696151 0.2587817 0.9657869 0.01696139 -0.2587825 -0.9657867 0.04629874 -0.70635 -0.706347 0.06318116 -0.9639953 -0.2583047 0.1884713 -0.9475018 0.2583005 0.1380969 -0.6942604 0.7063511 0.05059313 -0.2543554 0.9657865 -0.05056792 0.2543631 0.9657859 0.05059313 -0.2543554 -0.9657865 0.138097 -0.6942607 -0.7063507 0.1884698 -0.947502 -0.2583007 0.3105301 -0.9147964 0.2582998 0.2275366 -0.6702982 0.706348 0.08336228 -0.2455743 0.9657868 -0.08345198 0.2455415 0.9657874 0.08336073 -0.245574 -0.9657869 0.2275366 -0.6702981 -0.7063481 0.3105301 -0.9147963 -0.2582999 0.427277 -0.8664379 0.2583016 0.3130785 -0.6348645 0.7063491 0.1147023 -0.2325934 0.9657866 -0.1147015 0.2325918 0.9657871 0.1147022 -0.2325933 -0.9657866 0.3130783 -0.6348642 -0.7063495 0.4272803 -0.866436 -0.2583029 0.5367133 -0.8032535 0.2583077 0.3932676 -0.5885705 0.7063465 0.1440803 -0.2156315 0.9657867 -0.1440721 0.2156383 0.9657864 0.1440801 -0.2156315 -0.9657867 0.3932675 -0.5885704 -0.7063466 0.5367134 -0.8032535 -0.2583074 0.6369703 -0.7263259 0.2583015 0.466727 -0.5322004 0.7063488 0.1709928 -0.19498 0.9657869 -0.1712273 0.1947141 0.965799 0.1709929 -0.1949801 -0.9657869 0.4667269 -0.5322007 -0.7063487 0.6369703 -0.7263259 -0.2583015 0.7263253 -0.6369708 0.2583016 0.5322003 -0.4667273 0.7063487 0.19498 -0.1709928 0.9657869 -0.1949803 0.1709928 0.9657869 0.19498 -0.1709927 -0.9657869 0.5322003 -0.4667272 -0.7063488 0.7263254 -0.6369709 -0.2583014 0.8032544 -0.5367144 0.2583021 0.5885685 -0.3932666 0.7063488 0.2156311 -0.1440801 0.9657868 -0.2156372 0.1440719 0.9657867 0.2156308 -0.1440799 -0.9657869 0.5885685 -0.3932666 -0.7063488 0.8032546 -0.5367145 -0.258302 0.8664344 -0.427281 0.2583069 0.6348656 -0.3130795 0.7063476 0.2325927 -0.1147019 0.9657868 -0.2325929 0.1147022 0.9657868 0.2325927 -0.1147019 -0.9657868 0.6348656 -0.3130795 -0.7063476 0.8664345 -0.427281 -0.2583068 0.9147958 -0.3105301 0.2583019 0.6702969 -0.2275356 0.7063496 0.2455749 -0.08336246 0.9657866 -0.245576 0.08335179 0.9657872 0.245575 -0.08336246 -0.9657865 0.6702962 -0.2275371 -0.7063497 0.9147958 -0.3105301 -0.2583019 0.9475021 -0.1884713 0.258299 0.6942644 -0.1380932 0.7063478 0.2543537 -0.05059438 0.965787 -0.2543583 0.05057007 0.965787 0.2543537 -0.05059438 -0.965787 0.6942645 -0.1380932 -0.7063478 0.9475024 -0.1884698 -0.258299 0.9639962 -0.06318426 0.2583007 0.7063467 -0.04629456 0.7063506 0.2587828 -0.01696246 0.9657867 -0.2587816 0.01696193 0.9657869 0.2587829 -0.01696246 -0.9657866 0.7063467 -0.04629456 -0.7063506 0.9639962 -0.06318426 -0.2583007 -0.6343937 -0.7730101 0 0.6343914 -0.7730122 0 0.1949819 -0.1709945 -0.9657862 0.9951847 -0.09801763 0 0.1147235 -0.2326369 -0.9657736 0.9569401 -0.2902857 0 -0.1709948 0.1949829 -0.9657859 -0.2902844 0.9569405 0 -0.2587817 0.01696205 -0.9657869 0.8819213 0.4713967 0 -0.8819213 -0.4713968 0 0.8819213 -0.4713969 0 -0.01696234 -0.2587828 -0.9657866 0.05058681 -0.2543185 -0.9657967 0.2587798 -0.01696139 -0.9657874 0.01696205 0.2587947 -0.9657834 0.2543575 -0.05059462 -0.965786 -0.05059373 -0.2543512 -0.9657876 0.2325939 0.1147024 -0.9657865 -0.144086 0.2156396 -0.965784 0.995185 0.09801506 0 0.9569411 0.2902823 0 0.016963 -0.2588028 -0.9657813 0.1709927 0.1949799 -0.965787 -0.7730108 -0.634393 0 -0.4713968 -0.8819212 0 0.2902845 0.9569405 0 -0.2902846 -0.9569404 0 -0.05059772 0.254373 -0.9657817 -0.9569407 -0.2902837 0 0.1709915 -0.1949797 -0.9657872 -0.01696151 0.2587817 -0.9657869 0.2543163 0.05058664 -0.9657972 -0.1949816 0.1709941 -0.9657864 -0.1147012 0.2325915 -0.9657872 -0.09801632 0.9951848 0 -0.2325928 0.1147023 -0.9657868 0.1949795 0.1709915 -0.9657872 0.1146991 0.232587 -0.9657885 0.2455525 0.08335411 -0.965793 -0.1440804 -0.215632 -0.9657866 -0.08336728 -0.2455911 -0.9657821 -0.2543441 -0.05059248 -0.9657896 0.2325643 -0.1146885 -0.9657952 0.7730088 -0.6343954 0 0.1440938 -0.2156512 -0.9657804 0.634393 0.7730107 0 -0.2156187 -0.1440716 -0.9657909 0.2587838 0.01696169 -0.9657863 0.09801757 0.9951848 0 -0.773009 0.6343953 0 -0.9951847 -0.09801769 0 -0.2455903 0.08336681 -0.9657823 -0.1949807 -0.1709935 -0.9657866 -0.4713969 0.8819212 0 0.4713976 0.8819209 2.70451e-7 0.2902828 -0.956941 0 0.08336132 -0.245576 -0.9657865 0.4713947 -0.8819224 0 -0.9569404 0.2902846 0 -0.2326176 -0.1147147 -0.9657794 -0.2543771 0.05059856 -0.9657806 -0.2587811 -0.01696145 -0.9657872 -0.8819217 0.471396 0 -0.2156267 0.1440773 -0.9657882 0.2156314 -0.14408 -0.9657868 -0.08336704 0.2455915 -0.9657819 0.09801638 -0.9951849 -4.4584e-7 -0.09801745 -0.9951848 0 -0.6343935 0.7730103 0 0.05059295 0.2543485 -0.9657885 0.7730122 0.6343913 2.16498e-7 -0.1147016 -0.2325924 -0.965787 0.2455735 -0.08336162 -0.965787 0.1440852 0.215639 -0.9657844 -0.9951848 0.09801584 0 -0.245575 -0.08336186 -0.9657866 0.08336186 0.2455747 -0.9657867 0.2156242 0.1440746 -0.9657893 -0.1710069 -0.1949958 -0.9657812 0.9639962 0.06318426 0.2583007 0.7063467 0.04629456 0.7063506 0.2587828 0.01696246 0.9657867 -0.2587837 -0.01694494 0.9657867 -0.2587849 -0.01696139 0.9657862 0.2587829 0.01696246 -0.9657866 0.7063467 0.04629456 -0.7063506 0.9639962 0.06318426 -0.2583007 0.9475025 0.1884697 0.2582991 0.6942647 0.1380929 0.7063476 0.2543537 0.05059421 0.965787 -0.2543551 -0.05058658 0.965787 -0.2543638 -0.05059623 0.9657843 0.2543537 0.05059421 -0.965787 0.6942647 0.138093 -0.7063476 0.9475025 0.1884697 -0.2582991 0.9147953 0.3105316 0.258302 0.670296 0.2275383 0.7063495 0.2455752 0.08336126 0.9657866 -0.2455732 -0.08336073 0.9657871 0.2455752 0.08336126 -0.9657866 0.670297 0.2275368 -0.706349 0.9147953 0.3105316 -0.258302 0.866437 0.4272757 0.2583068 0.6348658 0.3130785 0.7063478 0.2325931 0.1147013 0.9657868 -0.2325581 -0.114775 0.9657865 -0.2325793 -0.1146959 0.9657908 0.2325931 0.1147013 -0.9657868 0.6348658 0.3130785 -0.7063478 0.8664371 0.4272757 -0.2583066 0.8032544 0.5367144 0.2583021 0.5885685 0.3932666 0.7063488 0.2156309 0.1440799 0.9657869 -0.215628 -0.1440866 0.9657866 -0.2156218 -0.1440741 0.9657898 0.2156311 0.1440801 -0.9657868 0.5885685 0.3932666 -0.7063488 0.8032546 0.5367145 -0.258302 0.7263251 0.636971 0.2583018 0.5321992 0.4667282 0.706349 0.1949802 0.1709929 0.9657869 -0.1949814 -0.1709942 0.9657863 0.1949802 0.1709929 -0.9657869 0.5321994 0.4667282 -0.7063487 0.7263251 0.636971 -0.258302 0.6369705 0.7263258 0.2583011 0.466727 0.5321997 0.7063494 0.1709932 0.1949799 0.9657868 -0.1709056 -0.1950695 0.9657843 -0.1709766 -0.1949608 0.9657936 0.1709932 0.1949799 -0.9657868 0.4667268 0.5321996 -0.7063496 0.6369705 0.7263258 -0.258301 0.5367175 0.8032512 0.2583057 0.3932672 0.5885694 0.7063477 0.1440799 0.2156309 0.9657869 -0.1440849 -0.2156298 0.9657864 -0.1440849 -0.2156382 0.9657846 0.1440799 0.2156309 -0.9657869 0.3932671 0.5885693 -0.7063479 0.5367175 0.8032512 -0.258306 0.4272803 0.8664358 0.2583034 0.3130785 0.6348645 0.7063491 0.1147023 0.2325934 0.9657866 -0.1147017 -0.2325928 0.9657868 0.1147022 0.2325933 -0.9657866 0.3130783 0.6348642 -0.7063495 0.427277 0.8664378 -0.2583021 0.3105336 0.9147952 0.2582996 0.2275372 0.6702976 0.7063483 0.08336228 0.2455734 0.9657871 -0.08338224 -0.2455676 0.9657867 -0.08336311 -0.2455794 0.9657855 0.08336228 0.2455732 -0.9657871 0.2275372 0.6702975 -0.7063485 0.3105336 0.9147952 -0.2582996 0.1884692 0.947502 0.2583013 0.1380966 0.694261 0.7063506 0.05059438 0.2543559 0.9657864 -0.05060756 -0.2543499 0.9657872 -0.05059897 -0.2543798 0.9657799 0.05059301 0.2543554 -0.9657866 0.1380966 0.6942613 -0.7063503 0.1884692 0.947502 -0.2583014 0.06318116 0.9639953 0.2583047 0.04629874 0.70635 0.706347 0.01696139 0.2587825 0.9657867 -0.01696145 -0.2587841 0.9657863 0.01696139 0.2587825 -0.9657867 0.04629486 0.7063503 -0.706347 0.06318426 0.9639948 -0.2583055 -0.0631811 0.9639965 0.2583001 -0.04629838 0.7063463 0.7063508 -0.01696163 0.2587831 0.9657866 0.01703494 -0.2587843 0.9657849 0.01696056 -0.258769 0.9657904 -0.01696163 0.2587833 -0.9657866 -0.04629838 0.7063466 -0.7063505 -0.0631811 0.9639965 -0.2583004 -0.1884713 0.9475023 0.2582983 -0.1380976 0.6942639 0.7063475 -0.0505926 0.2543537 0.9657871 0.0506283 -0.2543487 0.9657865 0.05057948 -0.2542812 0.9658068 -0.05059266 0.2543538 -0.965787 -0.1380976 0.6942642 -0.7063472 -0.1884712 0.9475021 -0.2582989 -0.3105335 0.9147944 0.2583025 -0.2275388 0.6702961 0.7063493 -0.08336311 0.2455749 0.9657865 0.08336174 -0.2455753 0.9657866 -0.08336311 0.2455749 -0.9657865 -0.2275389 0.6702964 -0.7063489 -0.3105312 0.9147953 -0.2583022 -0.4272753 0.8664394 0.2583 -0.3130778 0.6348638 0.7063499 -0.1147019 0.2325927 0.9657868 0.1147847 -0.2325608 0.9657846 0.1146971 -0.2325828 0.9657898 -0.1147019 0.2325927 -0.9657868 -0.3130758 0.634863 -0.7063515 -0.4272774 0.8664384 -0.2582995 -0.5367186 0.8032522 0.2583009 -0.3932676 0.5885676 0.7063489 -0.1440801 0.2156311 0.9657869 0.1440674 -0.2156401 0.9657868 0.1440987 -0.2156585 0.9657779 -0.1440801 0.2156311 -0.9657869 -0.3932676 0.5885676 -0.7063489 -0.5367186 0.8032521 -0.258301 -0.6369706 0.7263255 0.2583016 -0.4667267 0.5321999 0.7063496 -0.1709929 0.1949802 0.9657869 0.1709954 -0.1949828 0.9657858 -0.1709929 0.1949802 -0.9657869 -0.4667274 0.5322004 -0.7063485 -0.6369705 0.7263255 -0.258302 -0.7263252 0.6369709 0.2583017 -0.5322002 0.4667271 0.706349 -0.1949802 0.1709928 0.9657869 0.1948016 -0.1711122 0.9658018 0.1949878 -0.1710004 0.965784 -0.1949802 0.1709928 -0.9657869 -0.5322003 0.4667272 -0.7063488 -0.7263252 0.636971 -0.2583016 -0.803251 0.5367178 0.2583061 -0.5885678 0.3932687 0.7063481 -0.2156313 0.1440804 0.9657867 0.2156199 -0.1440938 0.9657874 0.2156604 -0.1440997 0.9657774 -0.2156314 0.1440805 -0.9657868 -0.5885678 0.3932687 -0.7063482 -0.803251 0.5367177 -0.2583059 -0.8664388 0.4272749 0.258302 -0.6348643 0.3130785 0.7063492 -0.2325938 0.1147015 0.9657866 0.2325906 -0.1147024 0.9657873 0.232595 -0.1147028 0.9657862 -0.2325938 0.1147015 -0.9657866 -0.6348643 0.3130785 -0.7063492 -0.8664388 0.4272749 -0.258302 -0.9147953 0.3105338 0.2582989 -0.6702979 0.2275384 0.7063477 -0.2455739 0.08336097 0.9657871 0.2455744 -0.08336186 0.9657868 -0.2455738 0.08336204 -0.9657869 -0.6702978 0.2275384 -0.7063477 -0.914796 0.3105316 -0.2582991 -0.9475019 0.1884698 0.2583007 -0.6942613 0.1380926 0.706351 -0.2543553 0.05059427 0.9657866 0.2543526 -0.05059963 0.9657871 0.2543671 -0.05059635 0.9657834 -0.2543552 0.05059427 -0.9657866 -0.6942614 0.1380926 -0.7063509 -0.9475019 0.1884698 -0.2583007 -0.9639952 0.06318414 0.2583044 -0.7063498 0.04629468 0.7063475 -0.2587822 0.01696199 0.9657868 0.2587832 -0.01695024 0.9657868 0.2587434 -0.01695895 0.9657973 -0.2587822 0.01696199 -0.9657868 -0.7063498 0.04629468 -0.7063475 -0.9639952 0.06318414 -0.2583044 -0.9639964 -0.0631811 0.2583007 -0.7063464 -0.04629856 0.7063507 -0.2587828 -0.01696187 0.9657867 0.2587826 0.01696169 0.9657868 -0.2587828 -0.01696187 -0.9657866 -0.7063463 -0.04629856 -0.7063507 -0.9639964 -0.0631811 -0.2583007 -0.9475021 -0.1884713 0.2582991 -0.6942637 -0.1380978 0.7063477 -0.2543541 -0.05059289 0.965787 0.2543525 0.05061197 0.9657863 0.2543269 0.05058825 0.9657943 -0.254354 -0.05059289 -0.9657871 -0.6942636 -0.1380978 -0.7063477 -0.9475021 -0.1884713 -0.2582991 -0.9147967 -0.310528 0.258301 -0.6702976 -0.2275352 0.706349 -0.2455738 -0.0833612 0.9657871 0.2455769 0.08335334 0.9657869 0.2456001 0.08337008 0.9657795 -0.2455737 -0.08336114 -0.9657871 -0.6702976 -0.2275353 -0.706349 -0.914797 -0.3105273 -0.2583009 -0.8664373 -0.4272792 0.2582999 -0.6348614 -0.313081 0.7063507 -0.2325924 -0.1147019 0.9657869 0.232593 0.1147025 0.9657866 -0.2325926 -0.1147019 -0.9657869 -0.6348614 -0.313081 -0.7063507 -0.8664374 -0.4272792 -0.2582997 -0.803252 -0.5367181 0.2583019 -0.5885672 -0.3932672 0.7063494 -0.2156312 -0.1440799 0.9657868 0.2156314 0.1440815 0.9657865 0.21563 0.1440793 0.9657872 -0.2156311 -0.1440799 -0.9657869 -0.5885673 -0.3932672 -0.7063494 -0.8032521 -0.5367182 -0.2583017 -0.7263257 -0.6369702 0.2583022 -0.5322002 -0.466727 0.706349 -0.1949805 -0.1709933 0.9657867 0.1949865 0.1709871 0.9657866 0.194998 0.1710088 0.9657804 -0.1949803 -0.1709933 -0.9657867 -0.5322002 -0.466727 -0.706349 -0.7263258 -0.6369703 -0.2583019 -0.636971 -0.7263252 0.2583015 -0.4667276 -0.5322006 0.7063484 -0.1709932 -0.19498 0.9657868 0.1709919 0.1949794 0.9657871 -0.1709932 -0.19498 -0.9657868 -0.4667277 -0.5322007 -0.7063481 -0.6369711 -0.7263253 -0.2583011 -0.5367178 -0.8032529 0.2583 -0.393267 -0.5885665 0.7063502 -0.1440801 -0.215631 0.9657868 0.1440789 0.2156313 0.9657869 0.144079 0.215629 0.9657875 -0.1440801 -0.2156311 -0.9657868 -0.3932685 -0.5885646 -0.7063509 -0.5367177 -0.8032529 -0.2582998 -0.4272749 -0.8664391 0.2583011 -0.3130786 -0.634865 0.7063485 -0.1147015 -0.2325935 0.9657866 0.1146913 0.2325996 0.9657864 0.1146864 0.2325615 0.9657962 -0.1147015 -0.2325935 -0.9657866 -0.3130766 -0.6348642 -0.7063503 -0.427277 -0.8664382 -0.2583007 -0.3105323 -0.9147956 0.2582995 -0.2275348 -0.6702954 0.7063512 -0.0833618 -0.2455754 0.9657865 0.08336174 0.2455748 0.9657867 -0.08336186 -0.2455755 -0.9657865 -0.2275348 -0.6702952 -0.7063513 -0.3105323 -0.9147959 -0.2582989 -0.1884712 -0.9475014 0.2583017 -0.1380978 -0.6942604 0.7063509 -0.05059427 -0.2543554 0.9657866 0.05059516 0.2543551 0.9657866 0.05059409 0.254355 0.9657866 -0.05059462 -0.2543546 -0.9657867 -0.1380971 -0.6942605 -0.7063509 -0.1884712 -0.9475014 -0.2583017 -0.0631808 -0.9639953 0.2583045 -0.04629844 -0.7063499 0.7063472 -0.01696151 -0.2587818 0.965787 0.01695579 0.2587814 0.9657871 0.01696068 0.258769 0.9657903 -0.01696211 -0.258782 -0.9657869 -0.04629844 -0.7063499 -0.7063472 -0.0631839 -0.9639953 -0.2583041 0.06318122 -0.9639964 0.2583006 0.0462985 -0.7063462 0.7063509 0.01696223 -0.2587825 0.9657867 -0.01696115 0.2587817 0.9657869 0.01696223 -0.2587825 -0.9657867 0.04629462 -0.7063468 -0.7063506 0.06318432 -0.9639959 -0.2583015 0.18847 -0.9475026 0.258298 0.1380941 -0.6942647 0.7063474 0.05059397 -0.2543536 0.9657871 -0.0506258 0.2543494 0.9657865 -0.05058711 0.254318 0.9657968 0.05059391 -0.2543535 -0.9657871 0.138094 -0.6942646 -0.7063475 0.1884715 -0.9475024 -0.2582979 0.3105325 -0.9147951 0.2583016 0.2275381 -0.6702968 0.7063488 0.08336114 -0.2455745 0.9657868 -0.08335876 0.2455767 0.9657864 -0.08336353 0.2455826 0.9657846 0.08336269 -0.245575 -0.9657866 0.227538 -0.6702964 -0.7063492 0.3105324 -0.9147949 -0.258302 0.4272797 -0.8664349 0.2583073 0.313082 -0.6348657 0.7063465 0.1147017 -0.2325931 0.9657867 -0.1147018 0.232593 0.9657867 0.1147016 -0.2325931 -0.9657867 0.313082 -0.6348658 -0.7063463 0.4272764 -0.866437 -0.258306 0.5367177 -0.8032525 0.2583015 0.3932681 -0.5885673 0.706349 0.1440799 -0.2156306 0.9657869 -0.1440916 0.2156252 0.9657865 -0.1440722 0.2156193 0.9657906 0.1440799 -0.2156306 -0.9657869 0.3932679 -0.5885671 -0.7063492 0.5367177 -0.8032525 -0.2583015 0.6369699 -0.726326 0.2583019 0.466727 -0.5322008 0.7063485 0.1709926 -0.1949805 0.9657868 -0.170991 0.1949828 0.9657866 -0.1709986 0.1949872 0.9657844 0.1709926 -0.1949805 -0.9657868 0.4667268 -0.5322003 -0.706349 0.63697 -0.7263261 -0.2583018 0.7263254 -0.6369705 0.2583023 0.5322005 -0.4667274 0.7063485 0.1949802 -0.1709933 0.9657867 -0.1949799 0.1709933 0.9657868 0.1949802 -0.1709933 -0.9657867 0.5322004 -0.4667272 -0.7063487 0.7263254 -0.6369705 -0.2583025 0.8032516 -0.5367168 0.258306 0.5885682 -0.3932688 0.7063477 0.215631 -0.14408 0.9657869 -0.2156257 0.1440886 0.9657868 -0.2156422 0.1440878 0.9657832 0.2156315 -0.1440802 -0.9657868 0.5885681 -0.3932689 -0.7063478 0.8032516 -0.5367168 -0.2583062 0.866438 -0.4272765 0.2583023 0.6348633 -0.3130815 0.7063488 0.2325931 -0.1147017 0.9657868 -0.2325928 0.1147018 0.9657868 0.2325931 -0.1147017 -0.9657868 0.6348632 -0.3130815 -0.7063488 0.866438 -0.4272765 -0.2583023 0.9147956 -0.3105327 0.2582992 0.6702976 -0.2275392 0.7063477 0.2455738 -0.08336114 0.9657871 -0.2453988 0.08382415 0.9657914 -0.2455956 0.08336842 0.9657808 0.2455738 -0.08336114 -0.9657869 0.6702983 -0.2275375 -0.7063477 0.9147956 -0.3105327 -0.2582992 0.9475019 -0.1884698 0.2583008 0.6942608 -0.1380972 0.7063506 0.2543555 -0.05059272 0.9657866 -0.2543479 0.05061537 0.9657875 -0.2543827 0.05059969 0.9657791 0.2543556 -0.05059272 -0.9657865 0.6942607 -0.1380972 -0.7063507 0.9475017 -0.1884711 -0.2583007 0.9639953 -0.0631811 0.2583045 0.7063497 -0.04629886 0.7063473 0.2587823 -0.01696139 0.9657868 -0.2587844 0.01696139 0.9657863 0.2587823 -0.01696139 -0.9657868 0.7063497 -0.04629886 -0.7063473 0.9639953 -0.0631811 -0.2583045 -0.6343935 -0.7730103 0 -0.6343928 -0.7730109 0 -0.6343923 -0.7730113 0 0.634392 -0.7730116 0 0.6343942 -0.7730098 0 0.6345046 -0.7729191 0 0.6343918 -0.7730117 0 0.6344711 -0.7729467 0 0.1949779 -0.1709508 -0.9657948 0.1949818 -0.1709933 -0.9657864 0.9951846 -0.09801882 0 0.9951847 -0.0980187 0 0.9951847 -0.09801757 0 0.1144011 -0.2327219 -0.9657914 0.1147142 -0.2325869 -0.9657868 0.956915 -0.2903683 0 0.9569482 -0.2902591 0 0.956941 -0.2902828 0 0.9569403 -0.2902851 0 0.9569391 -0.2902889 0 -0.1709929 0.1949815 -0.9657866 -0.1709948 0.1949391 -0.9657948 -0.2902829 0.956941 0 -0.2902831 0.9569409 0 -0.2902843 0.9569405 0 -0.2587844 0.01696139 -0.9657863 0.8819244 0.4713911 0 0.8819215 0.4713964 0 0.881922 0.4713954 0 0.8819217 0.4713962 0 0.8819216 0.4713961 0 -0.8819211 -0.4713972 2.02219e-7 -0.8819217 -0.4713962 0 -0.8819221 -0.4713953 2.19294e-7 0.8819212 -0.4713969 0 0.8819205 -0.4713983 0 0.8819214 -0.4713967 0 -0.01696145 -0.2587841 -0.9657863 0.05061149 -0.2543531 -0.9657863 0.05057376 -0.2543615 -0.965786 0.2587823 -0.01696056 -0.9657868 0.2587828 -0.01697647 -0.9657865 0.0169667 0.2587801 -0.9657872 0.01688259 0.2587816 -0.9657883 0.2543542 -0.05059474 -0.9657868 0.2543553 -0.05059337 -0.9657866 -0.05059373 -0.2543537 -0.9657871 -0.05059516 -0.2543542 -0.9657868 0.2325932 0.1147026 -0.9657866 -0.1440731 0.2156361 -0.9657868 -0.1440873 0.2156273 -0.9657866 0.9951832 0.09803265 0 0.9951843 0.0980221 0 0.9951846 0.09801936 0 0.9951849 0.09801614 0 0.995185 0.0980153 0 0.9569408 0.2902833 0 0.9569407 0.290284 0 0.9569405 0.2902842 0 0.01686537 -0.2587851 -0.9657878 0.0169683 -0.2587804 -0.9657872 0.1709921 0.1949797 -0.9657871 -0.7730096 -0.6343944 0 -0.7730098 -0.6343941 0 -0.7730049 -0.6344001 0 -0.7730197 -0.634382 3.33741e-7 -0.7730102 -0.6343936 2.49577e-7 -0.4713979 -0.8819207 0 -0.4713976 -0.8819208 0 -0.4713916 -0.8819241 0 -0.4713926 -0.8819236 0 -0.4713969 -0.8819212 0 0.2902773 0.9569427 0 0.2902778 0.9569424 0 0.2902857 0.95694 0 0.2902849 0.9569404 0 0.2902852 0.9569402 0 -0.2902846 -0.9569404 0 -0.2902846 -0.9569404 0 -0.2902846 -0.9569405 0 -0.05057936 0.2543572 -0.9657868 -0.05060601 0.2543527 -0.9657866 -0.9569413 -0.2902815 0 -0.9569395 -0.2902876 -2.49228e-7 -0.9569413 -0.2902815 0 -0.95694 -0.290286 0 -0.9569403 -0.2902849 -2.37427e-7 0.1709954 -0.1949825 -0.9657859 -0.01696115 0.2587832 -0.9657866 0.2543525 0.05061715 -0.9657862 0.2543591 0.05057609 -0.9657865 -0.1949809 0.1709927 -0.9657867 -0.1147017 0.2325931 -0.9657868 -0.09802258 0.9951843 0 -0.09802258 0.9951843 0 -0.09801739 0.9951848 0 -0.09801733 0.9951848 0 -0.09801632 0.9951849 0 -0.2325926 0.1147018 -0.9657868 0.19498 0.1709933 -0.9657868 0.1949889 0.1709859 -0.9657863 0.1147 0.2325936 -0.9657868 0.1147306 0.2325818 -0.965786 0.2455729 0.08336848 -0.9657866 0.2456156 0.08326011 -0.9657851 -0.1440818 -0.215632 -0.9657864 -0.144079 -0.2156321 -0.9657868 -0.08343082 -0.2455473 -0.9657878 -0.08335459 -0.2455745 -0.9657874 -0.254353 -0.05060029 -0.9657868 -0.2543575 -0.05058503 -0.9657865 0.2325955 -0.1146947 -0.965787 0.2324295 -0.1150582 -0.9657838 0.7730091 -0.634395 0 0.7730101 -0.6343938 0 0.7730097 -0.6343942 0 0.1440716 -0.215638 -0.9657866 0.1440895 -0.2156237 -0.9657871 0.6343957 0.7730085 0 0.6343958 0.7730084 0 0.6343951 0.773009 0 0.6343923 0.7730113 0 0.6343934 0.7730104 0 -0.2156264 -0.1440883 -0.9657866 -0.2156385 -0.1440696 -0.9657868 0.2587823 0.01696169 -0.9657868 0.09801739 0.9951848 0 0.09801757 0.9951847 0 0.09801745 0.9951847 0 -0.7730354 0.6343631 0 -0.7730249 0.6343758 0 -0.7730113 0.6343924 0 -0.7730098 0.6343941 0 -0.7730106 0.6343931 0 -0.9951846 -0.09801965 0 -0.9951848 -0.09801614 0 -0.9951848 -0.09801644 0 -0.2454431 0.08370292 -0.9657906 -0.2455753 0.08335393 -0.9657872 -0.1949811 -0.1709934 -0.9657865 -0.4714054 0.8819167 2.01255e-7 -0.4713927 0.8819235 0 -0.4713957 0.8819219 0 -0.4713963 0.8819215 0 -0.4713966 0.8819214 1.38259e-7 0.4713975 0.8819209 0 0.4713969 0.8819212 0 0.4713973 0.8819211 0 0.2902835 -0.9569407 0 0.2902837 -0.9569406 0 0.2902808 -0.9569415 0 0.2902818 -0.9569412 0 0.2902829 -0.9569409 0 0.0833618 -0.2455754 -0.9657865 0.471396 -0.8819217 0 0.471396 -0.8819217 0 0.471395 -0.8819221 0 -0.9569404 0.2902847 0 -0.9569403 0.2902848 0 -0.9569402 0.2902854 0 -0.232654 -0.1145486 -0.9657903 -0.2325873 -0.1147119 -0.9657869 -0.2543488 0.05061095 -0.9657874 -0.2543574 0.05057513 -0.965787 -0.2587828 -0.01697856 -0.9657864 -0.2587816 -0.01696145 -0.965787 -0.8819215 0.4713964 0 -0.8819218 0.4713959 0 -0.8819071 0.4714235 0 -0.8819212 0.4713971 0 -0.8819295 0.4713816 0 -0.2156342 0.1440765 -0.9657867 -0.2156298 0.1440855 -0.9657863 0.215632 -0.1440805 -0.9657866 0.2156315 -0.1440796 -0.9657868 -0.08335471 0.2455776 -0.9657866 -0.0835424 0.2455036 -0.9657892 0.09801685 -0.9951848 -2.61977e-7 0.09801733 -0.9951847 0 0.0980156 -0.995185 0 -0.09801745 -0.9951847 0 -0.09801751 -0.9951847 0 -0.0980187 -0.9951847 0 -0.6343939 0.77301 -2.41771e-7 -0.6343941 0.7730099 0 -0.6343935 0.7730104 -2.574e-7 0.05059009 0.2543557 -0.9657866 0.05059754 0.2543532 -0.9657869 0.7730099 0.6343939 0 0.7730104 0.6343935 1.34339e-7 0.7730108 0.634393 0 -0.1147018 -0.2325931 -0.9657867 0.2455747 -0.08336186 -0.9657867 0.1440865 0.2156257 -0.9657871 0.1440765 0.2156344 -0.9657866 -0.995185 0.09801489 0 -0.9951845 0.09802013 0 -0.9951838 0.09802711 0 -0.9951847 0.09801727 0 -0.9951835 0.09802961 0 -0.2455732 -0.08336073 -0.9657871 0.08336138 0.2455748 -0.9657868 0.2156271 0.1440863 -0.9657868 0.215633 0.1440764 -0.965787 -0.1710574 -0.1949153 -0.9657886 -0.1709882 -0.1949853 -0.9657866</float_array>
          <technique_common>
            <accessor source="#Torus-mesh-normals-array" count="990" stride="3">
              <param name="X" type="float"/>
              <param name="Y" type="float"/>
              <param name="Z" type="float"/>
            </accessor>
          </technique_common>
        </source>
        <vertices id="Torus-mesh-vertices">
          <input semantic="POSITION" source="#Torus-mesh-positions"/>
        </vertices>
        <triangles material="Material_001-material" count="992">
          <input semantic="VERTEX" source="#Torus-mesh-vertices" offset="0"/>
          <input semantic="NORMAL" source="#Torus-mesh-normals" offset="1"/>
          <p>0 0 8 0 1 0 1 1 9 1 2 1 2 2 10 2 3 2 10 3 396 3 398 3 11 4 5 4 4 4 12 5 6 5 5 5 13 6 0 6 6 6 14 7 8 7 7 7 15 8 9 8 8 8 16 9 10 9 9 9 17 10 387 10 385 10 11 11 19 11 12 11 12 12 20 12 13 12 13 13 14 13 7 13 14 14 22 14 15 14 22 15 16 15 15 15 23 16 17 16 16 16 17 17 389 17 387 17 18 18 26 18 19 18 26 19 20 19 19 19 27 20 14 20 20 20 21 21 29 21 22 21 29 22 23 22 22 22 23 23 31 23 24 23 31 24 400 24 401 24 32 25 26 25 25 25 26 26 34 26 27 26 34 27 21 27 27 27 35 28 29 28 28 28 29 29 37 29 30 29 37 30 31 30 30 30 38 31 473 31 475 31 39 32 33 32 32 32 40 33 34 33 33 33 34 34 35 34 28 34 42 35 36 35 35 35 43 36 37 36 36 36 44 37 38 37 37 37 38 38 472 38 473 38 39 39 47 39 40 39 40 40 48 40 41 40 41 41 42 41 35 41 42 42 50 42 43 42 43 43 51 43 44 43 51 44 45 44 44 44 52 45 463 45 462 45 46 46 54 46 47 46 54 47 48 47 47 47 55 48 42 48 48 48 49 49 57 49 50 49 50 50 58 50 51 50 51 51 59 51 52 51 59 52 392 52 390 52 60 53 54 53 53 53 61 54 55 54 54 54 62 55 49 55 55 55 63 56 57 56 56 56 64 57 58 57 57 57 65 58 59 58 58 58 59 59 393 59 392 59 60 60 68 60 61 60 61 61 69 61 62 61 69 62 56 62 62 62 70 63 64 63 63 63 64 64 72 64 65 64 65 65 73 65 66 65 73 66 485 66 484 66 74 67 68 67 67 67 75 68 69 68 68 68 69 69 70 69 63 69 77 70 71 70 70 70 71 71 79 71 72 71 79 72 73 72 72 72 80 73 493 73 491 73 81 74 75 74 74 74 82 75 76 75 75 75 76 76 77 76 70 76 84 77 78 77 77 77 85 78 79 78 78 78 86 79 80 79 79 79 80 80 495 80 493 80 81 81 89 81 82 81 89 82 83 82 82 82 90 83 77 83 83 83 91 84 85 84 84 84 92 85 86 85 85 85 93 86 87 86 86 86 94 87 341 87 342 87 88 88 96 88 89 88 89 89 97 89 90 89 90 90 91 90 84 90 91 91 99 91 92 91 92 92 100 92 93 92 93 93 101 93 94 93 101 94 347 94 345 94 102 95 96 95 95 95 103 96 97 96 96 96 104 97 91 97 97 97 105 98 99 98 98 98 106 99 100 99 99 99 100 100 108 100 101 100 101 101 349 101 347 101 109 102 103 102 102 102 103 103 111 103 104 103 111 104 98 104 104 104 112 105 106 105 105 105 113 106 107 106 106 106 114 107 108 107 107 107 115 108 452 108 350 108 109 109 117 109 110 109 117 110 111 110 110 110 118 111 105 111 111 111 119 112 113 112 112 112 120 113 114 113 113 113 121 114 115 114 114 114 122 115 411 115 412 115 116 116 124 116 117 116 117 117 125 117 118 117 118 118 119 118 112 118 119 119 127 119 120 119 127 120 121 120 120 120 121 121 129 121 122 121 122 122 407 122 411 122 130 123 124 123 123 123 131 124 125 124 124 124 132 125 119 125 125 125 126 126 134 126 127 126 134 127 128 127 127 127 135 128 129 128 128 128 136 129 419 129 409 129 130 130 138 130 131 130 131 131 139 131 132 131 139 132 126 132 132 132 133 133 141 133 134 133 141 134 135 134 134 134 135 135 143 135 136 135 143 136 481 136 422 136 144 137 138 137 137 137 138 138 146 138 139 138 146 139 133 139 139 139 140 140 148 140 141 140 148 141 142 141 141 141 142 142 150 142 143 142 150 143 487 143 479 143 151 144 145 144 144 144 145 145 153 145 146 145 153 146 140 146 146 146 154 147 148 147 147 147 148 148 156 148 149 148 156 149 150 149 149 149 157 150 487 150 150 150 158 151 152 151 151 151 159 152 153 152 152 152 160 153 147 153 153 153 161 154 155 154 154 154 162 155 156 155 155 155 163 156 157 156 156 156 164 157 458 157 457 157 158 158 166 158 159 158 159 159 167 159 160 159 160 160 161 160 154 160 161 161 169 161 162 161 162 162 170 162 163 162 163 163 171 163 164 163 171 164 446 164 445 164 172 165 166 165 165 165 173 166 167 166 166 166 174 167 161 167 167 167 175 168 169 168 168 168 176 169 170 169 169 169 177 170 171 170 170 170 178 171 446 171 171 171 172 172 180 172 173 172 173 173 181 173 174 173 174 174 175 174 168 174 175 175 183 175 176 175 176 176 184 176 177 176 177 177 185 177 178 177 185 178 364 178 363 178 186 179 180 179 179 179 187 180 181 180 180 180 188 181 175 181 181 181 189 182 183 182 182 182 190 183 184 183 183 183 184 184 192 184 185 184 192 185 358 185 353 185 193 186 187 186 186 186 187 187 195 187 188 187 195 188 182 188 188 188 196 189 190 189 189 189 197 190 191 190 190 190 198 191 192 191 191 191 199 192 358 192 192 192 193 193 201 193 194 193 194 194 202 194 195 194 195 195 196 195 189 195 203 196 197 196 196 196 204 197 198 197 197 197 205 198 199 198 198 198 206 199 361 199 359 199 200 200 208 200 201 200 201 201 209 201 202 201 202 202 203 202 196 202 210 203 204 203 203 203 204 204 212 204 205 204 205 205 213 205 206 205 213 206 367 206 371 206 214 207 208 207 207 207 215 208 209 208 208 208 209 209 210 209 203 209 217 210 211 210 210 210 211 211 219 211 212 211 212 212 220 212 213 212 220 213 367 213 213 213 221 214 215 214 214 214 222 215 216 215 215 215 223 216 210 216 216 216 217 217 225 217 218 217 225 218 219 218 218 218 219 219 227 219 220 219 227 220 453 220 454 220 228 221 222 221 221 221 229 222 223 222 222 222 230 223 217 223 223 223 231 224 225 224 224 224 232 225 226 225 225 225 226 226 234 226 227 226 234 227 379 227 383 227 235 228 229 228 228 228 236 229 230 229 229 229 237 230 224 230 230 230 231 231 239 231 232 231 239 232 233 232 232 232 240 233 234 233 233 233 241 234 379 234 234 234 235 235 243 235 236 235 236 236 244 236 237 236 244 237 231 237 237 237 238 238 246 238 239 238 246 239 240 239 239 239 247 240 241 240 240 240 248 241 375 241 373 241 249 242 243 242 242 242 250 243 244 243 243 243 251 244 238 244 244 244 252 245 246 245 245 245 253 246 247 246 246 246 254 247 248 247 247 247 255 248 416 248 377 248 256 249 250 249 249 249 250 250 258 250 251 250 258 251 245 251 251 251 259 252 253 252 252 252 260 253 254 253 253 253 254 254 262 254 255 254 262 255 416 255 255 255 263 256 257 256 256 256 264 257 258 257 257 257 265 258 252 258 258 258 266 259 260 259 259 259 267 260 261 260 260 260 268 261 262 261 261 261 269 262 477 262 404 262 263 263 271 263 264 263 264 264 272 264 265 264 272 265 259 265 265 265 273 266 267 266 266 266 274 267 268 267 267 267 275 268 269 268 268 268 276 269 466 269 469 269 277 270 271 270 270 270 271 271 279 271 272 271 272 272 273 272 266 272 280 273 274 273 273 273 274 274 282 274 275 274 275 275 283 275 276 275 283 276 466 276 276 276 284 277 278 277 277 277 285 278 279 278 278 278 286 279 273 279 279 279 280 280 288 280 281 280 288 281 282 281 281 281 289 282 283 282 282 282 290 283 429 283 431 283 284 284 292 284 285 284 285 285 293 285 286 285 293 286 280 286 286 286 287 287 295 287 288 287 295 288 289 288 288 288 289 289 297 289 290 289 297 290 441 290 433 290 298 291 292 291 291 291 299 292 293 292 292 292 300 293 287 293 293 293 294 294 302 294 295 294 302 295 296 295 295 295 296 296 304 296 297 296 304 297 441 297 297 297 305 298 299 298 298 298 299 299 307 299 300 299 307 300 294 300 300 300 301 301 309 301 302 301 309 302 303 302 302 302 310 303 304 303 303 303 311 304 337 304 340 304 312 305 306 305 305 305 306 306 314 306 307 306 314 307 301 307 307 307 308 308 316 308 309 308 309 309 317 309 310 309 310 310 318 310 311 310 311 311 336 311 337 311 319 312 313 312 312 312 320 313 314 313 313 313 321 314 308 314 314 314 322 315 316 315 315 315 323 316 317 316 316 316 324 317 318 317 317 317 325 318 436 318 438 318 319 319 327 319 320 319 327 320 321 320 320 320 321 321 322 321 315 321 329 322 323 322 322 322 323 323 331 323 324 323 324 324 332 324 325 324 332 325 427 325 425 325 333 326 327 326 326 326 334 327 328 327 327 327 335 328 322 328 328 328 0 329 330 329 329 329 1 330 331 330 330 330 2 331 332 331 331 331 332 332 426 332 427 332 333 333 5 333 334 333 334 334 6 334 335 334 335 335 0 335 329 335 390 336 391 336 464 336 411 337 407 337 408 337 410 338 137 338 130 338 458 339 447 339 460 339 351 340 116 340 109 340 487 341 489 341 490 341 434 342 298 342 291 342 477 343 470 343 478 343 444 344 333 344 428 344 358 345 355 345 357 345 475 346 476 346 403 346 482 347 422 347 481 347 421 348 81 348 494 348 346 349 102 349 95 349 447 350 172 350 165 350 378 351 256 351 249 351 459 352 165 352 158 352 492 353 81 353 74 353 356 354 200 354 193 354 432 355 291 355 284 355 446 356 449 356 450 356 366 357 363 357 364 357 343 358 95 358 88 358 368 359 221 359 214 359 474 360 473 360 472 360 392 361 393 361 394 361 380 362 373 362 382 362 491 363 492 363 486 363 405 364 270 364 263 364 387 365 389 365 406 365 408 366 123 366 414 366 417 367 263 367 256 367 365 368 186 368 179 368 442 369 305 369 298 369 468 370 284 370 277 370 416 371 415 371 418 371 443 372 312 372 338 372 372 373 214 373 207 373 384 374 235 374 228 374 354 375 193 375 186 375 391 376 60 376 53 376 483 377 74 377 67 377 386 378 18 378 11 378 480 379 151 379 144 379 420 380 409 380 419 380 413 381 123 381 116 381 367 382 369 382 370 382 476 383 39 383 32 383 448 384 179 384 172 384 375 385 378 385 376 385 440 386 340 386 439 386 397 387 398 387 396 387 437 388 326 388 319 388 471 389 39 389 474 389 466 390 465 390 467 390 453 391 384 391 456 391 347 392 349 392 352 392 352 393 102 393 348 393 412 394 413 394 451 394 435 395 438 395 436 395 402 396 32 396 25 396 424 397 333 397 326 397 399 398 11 398 4 398 337 399 336 399 443 399 339 400 312 400 305 400 423 401 144 401 137 401 470 402 277 402 270 402 341 403 346 403 344 403 493 404 495 404 421 404 433 405 434 405 430 405 374 406 249 406 242 406 362 407 359 407 361 407 394 408 60 408 395 408 488 409 158 409 151 409 455 410 228 410 221 410 427 411 426 411 444 411 406 412 18 412 388 412 381 413 242 413 235 413 360 414 207 414 200 414 461 415 53 415 46 415 0 416 7 416 8 416 1 417 8 417 9 417 2 418 9 418 10 418 426 419 3 419 398 419 3 420 10 420 398 420 11 421 12 421 5 421 12 422 13 422 6 422 13 423 7 423 0 423 14 424 15 424 8 424 15 425 16 425 9 425 16 426 17 426 10 426 396 427 10 427 385 427 10 428 17 428 385 428 11 429 18 429 19 429 12 430 19 430 20 430 13 431 20 431 14 431 14 432 21 432 22 432 22 433 23 433 16 433 23 434 24 434 17 434 17 435 24 435 389 435 18 436 25 436 26 436 26 437 27 437 20 437 27 438 21 438 14 438 21 439 28 439 29 439 29 440 30 440 23 440 23 441 30 441 31 441 389 442 24 442 401 442 24 443 31 443 401 443 32 444 33 444 26 444 26 445 33 445 34 445 34 446 28 446 21 446 35 447 36 447 29 447 29 448 36 448 37 448 37 449 38 449 31 449 400 450 31 450 475 450 31 451 38 451 475 451 39 452 40 452 33 452 40 453 41 453 34 453 34 454 41 454 35 454 42 455 43 455 36 455 43 456 44 456 37 456 44 457 45 457 38 457 38 458 45 458 472 458 39 459 46 459 47 459 40 460 47 460 48 460 41 461 48 461 42 461 42 462 49 462 50 462 43 463 50 463 51 463 51 464 52 464 45 464 472 465 45 465 462 465 45 466 52 466 462 466 46 467 53 467 54 467 54 468 55 468 48 468 55 469 49 469 42 469 49 470 56 470 57 470 50 471 57 471 58 471 51 472 58 472 59 472 463 473 52 473 390 473 52 474 59 474 390 474 60 475 61 475 54 475 61 476 62 476 55 476 62 477 56 477 49 477 63 478 64 478 57 478 64 479 65 479 58 479 65 480 66 480 59 480 59 481 66 481 393 481 60 482 67 482 68 482 61 483 68 483 69 483 69 484 63 484 56 484 70 485 71 485 64 485 64 486 71 486 72 486 65 487 72 487 73 487 393 488 66 488 484 488 66 489 73 489 484 489 74 490 75 490 68 490 75 491 76 491 69 491 69 492 76 492 70 492 77 493 78 493 71 493 71 494 78 494 79 494 79 495 80 495 73 495 485 496 73 496 491 496 73 497 80 497 491 497 81 498 82 498 75 498 82 499 83 499 76 499 76 500 83 500 77 500 84 501 85 501 78 501 85 502 86 502 79 502 86 503 87 503 80 503 80 504 87 504 495 504 81 505 88 505 89 505 89 506 90 506 83 506 90 507 84 507 77 507 91 508 92 508 85 508 92 509 93 509 86 509 93 510 94 510 87 510 495 511 87 511 342 511 87 512 94 512 342 512 88 513 95 513 96 513 89 514 96 514 97 514 90 515 97 515 91 515 91 516 98 516 99 516 92 517 99 517 100 517 93 518 100 518 101 518 341 519 94 519 345 519 94 520 101 520 345 520 102 521 103 521 96 521 103 522 104 522 97 522 104 523 98 523 91 523 105 524 106 524 99 524 106 525 107 525 100 525 100 526 107 526 108 526 101 527 108 527 349 527 109 528 110 528 103 528 103 529 110 529 111 529 111 530 105 530 98 530 112 531 113 531 106 531 113 532 114 532 107 532 114 533 115 533 108 533 349 534 108 534 350 534 108 535 115 535 350 535 109 536 116 536 117 536 117 537 118 537 111 537 118 538 112 538 105 538 119 539 120 539 113 539 120 540 121 540 114 540 121 541 122 541 115 541 452 542 115 542 412 542 115 543 122 543 412 543 116 544 123 544 124 544 117 545 124 545 125 545 118 546 125 546 119 546 119 547 126 547 127 547 127 548 128 548 121 548 121 549 128 549 129 549 122 550 129 550 407 550 130 551 131 551 124 551 131 552 132 552 125 552 132 553 126 553 119 553 126 554 133 554 134 554 134 555 135 555 128 555 135 556 136 556 129 556 407 557 129 557 409 557 129 558 136 558 409 558 130 559 137 559 138 559 131 560 138 560 139 560 139 561 133 561 126 561 133 562 140 562 141 562 141 563 142 563 135 563 135 564 142 564 143 564 419 565 136 565 422 565 136 566 143 566 422 566 144 567 145 567 138 567 138 568 145 568 146 568 146 569 140 569 133 569 140 570 147 570 148 570 148 571 149 571 142 571 142 572 149 572 150 572 481 573 143 573 479 573 143 574 150 574 479 574 151 575 152 575 145 575 145 576 152 576 153 576 153 577 147 577 140 577 154 578 155 578 148 578 148 579 155 579 156 579 156 580 157 580 150 580 157 581 489 581 487 581 158 582 159 582 152 582 159 583 160 583 153 583 160 584 154 584 147 584 161 585 162 585 155 585 162 586 163 586 156 586 163 587 164 587 157 587 489 588 157 588 457 588 157 589 164 589 457 589 158 590 165 590 166 590 159 591 166 591 167 591 160 592 167 592 161 592 161 593 168 593 169 593 162 594 169 594 170 594 163 595 170 595 171 595 458 596 164 596 445 596 164 597 171 597 445 597 172 598 173 598 166 598 173 599 174 599 167 599 174 600 168 600 161 600 175 601 176 601 169 601 176 602 177 602 170 602 177 603 178 603 171 603 178 604 449 604 446 604 172 605 179 605 180 605 173 606 180 606 181 606 174 607 181 607 175 607 175 608 182 608 183 608 176 609 183 609 184 609 177 610 184 610 185 610 449 611 178 611 363 611 178 612 185 612 363 612 186 613 187 613 180 613 187 614 188 614 181 614 188 615 182 615 175 615 189 616 190 616 183 616 190 617 191 617 184 617 184 618 191 618 192 618 364 619 185 619 353 619 185 620 192 620 353 620 193 621 194 621 187 621 187 622 194 622 195 622 195 623 189 623 182 623 196 624 197 624 190 624 197 625 198 625 191 625 198 626 199 626 192 626 199 627 355 627 358 627 193 628 200 628 201 628 194 629 201 629 202 629 195 630 202 630 196 630 203 631 204 631 197 631 204 632 205 632 198 632 205 633 206 633 199 633 355 634 199 634 359 634 199 635 206 635 359 635 200 636 207 636 208 636 201 637 208 637 209 637 202 638 209 638 203 638 210 639 211 639 204 639 204 640 211 640 212 640 205 641 212 641 213 641 361 642 206 642 371 642 206 643 213 643 371 643 214 644 215 644 208 644 215 645 216 645 209 645 209 646 216 646 210 646 217 647 218 647 211 647 211 648 218 648 219 648 212 649 219 649 220 649 220 650 369 650 367 650 221 651 222 651 215 651 222 652 223 652 216 652 223 653 217 653 210 653 217 654 224 654 225 654 225 655 226 655 219 655 219 656 226 656 227 656 369 657 220 657 454 657 220 658 227 658 454 658 228 659 229 659 222 659 229 660 230 660 223 660 230 661 224 661 217 661 231 662 232 662 225 662 232 663 233 663 226 663 226 664 233 664 234 664 453 665 227 665 383 665 227 666 234 666 383 666 235 667 236 667 229 667 236 668 237 668 230 668 237 669 231 669 224 669 231 670 238 670 239 670 239 671 240 671 233 671 240 672 241 672 234 672 241 673 380 673 379 673 235 674 242 674 243 674 236 675 243 675 244 675 244 676 238 676 231 676 238 677 245 677 246 677 246 678 247 678 240 678 247 679 248 679 241 679 380 680 241 680 373 680 241 681 248 681 373 681 249 682 250 682 243 682 250 683 251 683 244 683 251 684 245 684 238 684 252 685 253 685 246 685 253 686 254 686 247 686 254 687 255 687 248 687 375 688 248 688 377 688 248 689 255 689 377 689 256 690 257 690 250 690 250 691 257 691 258 691 258 692 252 692 245 692 259 693 260 693 253 693 260 694 261 694 254 694 254 695 261 695 262 695 262 696 415 696 416 696 263 697 264 697 257 697 264 698 265 698 258 698 265 699 259 699 252 699 266 700 267 700 260 700 267 701 268 701 261 701 268 702 269 702 262 702 415 703 262 703 404 703 262 704 269 704 404 704 263 705 270 705 271 705 264 706 271 706 272 706 272 707 266 707 259 707 273 708 274 708 267 708 274 709 275 709 268 709 275 710 276 710 269 710 477 711 269 711 469 711 269 712 276 712 469 712 277 713 278 713 271 713 271 714 278 714 279 714 272 715 279 715 273 715 280 716 281 716 274 716 274 717 281 717 282 717 275 718 282 718 283 718 283 719 465 719 466 719 284 720 285 720 278 720 285 721 286 721 279 721 286 722 280 722 273 722 280 723 287 723 288 723 288 724 289 724 282 724 289 725 290 725 283 725 465 726 283 726 431 726 283 727 290 727 431 727 284 728 291 728 292 728 285 729 292 729 293 729 293 730 287 730 280 730 287 731 294 731 295 731 295 732 296 732 289 732 289 733 296 733 297 733 429 734 290 734 433 734 290 735 297 735 433 735 298 736 299 736 292 736 299 737 300 737 293 737 300 738 294 738 287 738 294 739 301 739 302 739 302 740 303 740 296 740 296 741 303 741 304 741 304 742 440 742 441 742 305 743 306 743 299 743 299 744 306 744 307 744 307 745 301 745 294 745 301 746 308 746 309 746 309 747 310 747 303 747 310 748 311 748 304 748 440 749 304 749 340 749 304 750 311 750 340 750 312 751 313 751 306 751 306 752 313 752 314 752 314 753 308 753 301 753 308 754 315 754 316 754 309 755 316 755 317 755 310 756 317 756 318 756 311 757 318 757 336 757 319 758 320 758 313 758 320 759 321 759 314 759 321 760 315 760 308 760 322 761 323 761 316 761 323 762 324 762 317 762 324 763 325 763 318 763 336 764 318 764 438 764 318 765 325 765 438 765 319 766 326 766 327 766 327 767 328 767 321 767 321 768 328 768 322 768 329 769 330 769 323 769 323 770 330 770 331 770 324 771 331 771 332 771 436 772 325 772 425 772 325 773 332 773 425 773 333 774 334 774 327 774 334 775 335 775 328 775 335 776 329 776 322 776 0 777 1 777 330 777 1 778 2 778 331 778 2 779 3 779 332 779 332 780 3 780 426 780 333 781 4 781 5 781 334 782 5 782 6 782 335 783 6 783 0 783 464 784 461 784 463 784 461 785 462 785 463 785 463 786 390 786 464 786 414 787 413 787 412 787 414 788 412 788 411 788 409 789 410 789 408 789 408 790 414 790 411 790 407 791 409 791 408 791 130 792 408 792 410 792 410 793 420 793 137 793 460 794 459 794 457 794 458 795 445 795 447 795 460 796 457 796 458 796 109 797 352 797 351 797 351 798 451 798 116 798 488 799 480 799 479 799 488 800 479 800 487 800 457 801 459 801 490 801 490 802 488 802 487 802 489 803 457 803 490 803 291 804 430 804 434 804 434 805 442 805 298 805 478 806 405 806 477 806 405 807 404 807 477 807 477 808 469 808 470 808 444 809 4 809 333 809 356 810 354 810 353 810 356 811 353 811 358 811 359 812 360 812 357 812 357 813 356 813 358 813 355 814 359 814 357 814 403 815 402 815 400 815 402 816 401 816 400 816 400 817 475 817 403 817 482 818 423 818 422 818 481 819 479 819 482 819 479 820 480 820 482 820 421 821 88 821 81 821 95 822 344 822 346 822 346 823 348 823 102 823 165 824 460 824 447 824 447 825 448 825 172 825 249 826 376 826 378 826 378 827 417 827 256 827 158 828 490 828 459 828 459 829 460 829 165 829 74 830 486 830 492 830 492 831 494 831 81 831 356 832 357 832 200 832 284 833 467 833 432 833 432 834 430 834 291 834 448 835 447 835 446 835 447 836 445 836 446 836 363 837 365 837 450 837 450 838 448 838 446 838 449 839 363 839 450 839 366 840 365 840 363 840 364 841 353 841 366 841 353 842 354 842 366 842 88 843 421 843 343 843 343 844 344 844 95 844 368 845 370 845 221 845 474 846 476 846 475 846 474 847 475 847 473 847 462 848 461 848 472 848 461 849 471 849 472 849 471 850 474 850 472 850 395 851 391 851 390 851 395 852 390 852 392 852 484 853 483 853 393 853 483 854 394 854 393 854 394 855 395 855 392 855 381 856 384 856 379 856 384 857 383 857 379 857 373 858 374 858 382 858 382 859 381 859 380 859 381 860 379 860 380 860 486 861 483 861 485 861 483 862 484 862 485 862 485 863 491 863 486 863 263 864 418 864 405 864 405 865 478 865 270 865 388 866 386 866 385 866 388 867 385 867 387 867 401 868 402 868 389 868 402 869 406 869 389 869 406 870 388 870 387 870 408 871 130 871 123 871 417 872 418 872 263 872 179 873 450 873 365 873 365 874 366 874 186 874 442 875 439 875 305 875 468 876 467 876 284 876 417 877 378 877 416 877 378 878 377 878 416 878 404 879 405 879 415 879 405 880 418 880 415 880 418 881 417 881 416 881 443 882 319 882 312 882 207 883 362 883 372 883 372 884 368 884 214 884 228 885 456 885 384 885 384 886 381 886 235 886 186 887 366 887 354 887 354 888 356 888 193 888 53 889 464 889 391 889 391 890 395 890 60 890 67 891 394 891 483 891 483 892 486 892 74 892 11 893 397 893 386 893 386 894 388 894 18 894 144 895 482 895 480 895 480 896 488 896 151 896 420 897 410 897 409 897 419 898 422 898 420 898 422 899 423 899 420 899 116 900 451 900 413 900 413 901 414 901 123 901 368 902 372 902 371 902 368 903 371 903 367 903 454 904 455 904 369 904 455 905 370 905 369 905 370 906 368 906 367 906 32 907 403 907 476 907 476 908 474 908 39 908 448 909 450 909 179 909 376 910 374 910 373 910 375 911 377 911 378 911 376 912 373 912 375 912 442 913 434 913 433 913 442 914 433 914 441 914 340 915 339 915 439 915 439 916 442 916 440 916 442 917 441 917 440 917 397 918 399 918 398 918 396 919 385 919 397 919 385 920 386 920 397 920 319 921 443 921 437 921 437 922 435 922 326 922 471 923 46 923 39 923 468 924 470 924 466 924 470 925 469 925 466 925 431 926 432 926 465 926 432 927 467 927 465 927 467 928 468 928 466 928 456 929 455 929 453 929 455 930 454 930 453 930 453 931 383 931 384 931 348 932 346 932 347 932 346 933 345 933 347 933 350 934 351 934 349 934 351 935 352 935 349 935 352 936 348 936 347 936 352 937 109 937 102 937 451 938 351 938 452 938 351 939 350 939 452 939 452 940 412 940 451 940 435 941 437 941 438 941 436 942 425 942 435 942 425 943 424 943 435 943 25 944 406 944 402 944 402 945 403 945 32 945 326 946 435 946 424 946 424 947 428 947 333 947 4 948 444 948 399 948 399 949 397 949 11 949 338 950 339 950 340 950 338 951 340 951 337 951 438 952 437 952 443 952 443 953 338 953 337 953 336 954 438 954 443 954 305 955 439 955 339 955 339 956 338 956 312 956 137 957 420 957 423 957 423 958 482 958 144 958 270 959 478 959 470 959 470 960 468 960 277 960 344 961 343 961 341 961 343 962 342 962 341 962 341 963 345 963 346 963 494 964 492 964 491 964 494 965 491 965 493 965 342 966 343 966 495 966 343 966 421 966 495 966 421 404 494 404 493 404 430 967 432 967 429 967 432 968 431 968 429 968 429 969 433 969 430 969 242 970 382 970 374 970 374 971 376 971 249 971 362 972 360 972 359 972 361 973 371 973 362 973 371 974 372 974 362 974 394 975 67 975 60 975 488 976 490 976 158 976 221 977 370 977 455 977 455 978 456 978 228 978 428 979 424 979 425 979 428 980 425 980 427 980 398 981 399 981 444 981 444 982 428 982 427 982 426 983 398 983 444 983 406 984 25 984 18 984 381 985 382 985 242 985 200 986 357 986 360 986 360 987 362 987 207 987 46 988 471 988 461 988 461 989 464 989 53 989</p>
        </triangles>
      </mesh>
    </geometry>
    <geometry id="Cylinder_003-mesh" name="Cylinder.003">
      <mesh>
        <source id="Cylinder_003-mesh-positions">
          <float_array id="Cylinder_003-mesh-positions-array" count="192">0 1 -1 0.1950903 0.9807853 -1 0.3826835 0.9238795 -1 0.5555703 0.8314696 -1 0.7071068 0.7071068 -1 0.8314697 0.5555702 -1 0.9238795 0.3826834 -1 0.9807853 0.1950903 -1 1 0 -1 0.9807853 -0.1950902 -1 0.9238796 -0.3826833 -1 0.8314697 -0.5555702 -1 0.7071068 -0.7071068 -1 0.5555702 -0.8314697 -1 0.3826833 -0.9238796 -1 0.1950901 -0.9807853 -1 -3.25841e-7 -1 -1 -0.1950907 -0.9807852 -1 -0.3826839 -0.9238793 -1 -0.5555707 -0.8314693 -1 -0.7071073 -0.7071064 -1 -0.83147 -0.5555697 -1 -0.9238799 -0.3826827 -1 -0.9807854 -0.1950893 -1 -1 9.65599e-7 -1 -0.9807851 0.1950913 -1 -0.9238791 0.3826845 -1 -0.8314689 0.5555713 -1 -0.7071059 0.7071077 -1 -0.5555691 0.8314704 -1 -0.3826821 0.9238801 -1 -0.1950888 0.9807856 -1 -0.8314689 0.5555713 0.9783764 0.3826835 0.9238795 0.9783764 0.1950903 0.9807853 0.9783764 0.7071068 0.7071068 0.9783764 0.5555702 -0.8314697 0.9783764 0.8314697 0.5555702 0.9783764 -0.3826821 0.9238801 0.9783764 0.9807853 -0.1950902 0.9783764 0.7071068 -0.7071068 0.9783764 0.9238796 -0.3826833 0.9783764 1 0 0.9783764 -0.7071059 0.7071077 0.9783764 -0.5555691 0.8314704 0.9783764 0 1 0.9783764 0.9807853 0.1950903 0.9783764 0.5555703 0.8314696 0.9783764 0.9238795 0.3826834 0.9783764 0.8314697 -0.5555702 0.9783764 -0.1950888 0.9807856 0.9783764 -0.9238791 0.3826845 0.9783763 -0.9807851 0.1950913 0.9783763 0.3826833 -0.9238796 0.9783763 0.1950901 -0.9807853 0.9783763 -0.3826839 -0.9238793 0.9783763 -1 9.65599e-7 0.9783763 -0.5555707 -0.8314693 0.9783763 -3.25841e-7 -1 0.9783763 -0.9238799 -0.3826827 0.9783763 -0.83147 -0.5555697 0.9783763 -0.9807854 -0.1950893 0.9783763 -0.7071073 -0.7071064 0.9783763 -0.1950907 -0.9807852 0.9783763</float_array>
          <technique_common>
            <accessor source="#Cylinder_003-mesh-positions-array" count="64" stride="3">
              <param name="X" type="float"/>
              <param name="Y" type="float"/>
              <param name="Z" type="float"/>
            </accessor>
          </technique_common>
        </source>
        <source id="Cylinder_003-mesh-normals">
          <float_array id="Cylinder_003-mesh-normals-array" count="261">0.09801697 0.9951848 0 0.2902849 0.9569404 0 0.4713968 0.8819212 0 0.6343931 0.7730107 0 0.7730104 0.6343935 0 0.8819217 0.4713961 0 0.9569404 0.2902848 0 0.9951847 0.09801769 0 0.9951848 -0.09801656 0 0.9569407 -0.2902836 0 0.8819215 -0.4713964 0 0.7730107 -0.6343931 0 0.6343932 -0.7730106 0 0.4713966 -0.8819215 0 0.2902842 -0.9569405 0 0.09801691 -0.9951848 0 -0.09801757 -0.9951847 0 -0.2902851 -0.9569402 0 -0.4713972 -0.8819211 0 -0.6343935 -0.7730104 0 -0.7730111 -0.6343926 0 -0.8819214 -0.4713966 0 -0.956941 -0.2902828 0 -0.9951848 -0.09801644 0 -0.9951847 0.09801769 0 -0.9569402 0.2902852 0 -0.8819207 0.471398 0 -0.7730098 0.6343941 0 -0.634392 0.7730115 0 -0.4713954 0.881922 0 -0.2902833 0.9569408 0 -0.0980162 0.9951848 0 0 0 -1 0 0 1 0.09801697 0.9951848 0 0.2902847 0.9569404 0 0.4713966 0.8819213 0 0.6343934 0.7730105 0 0.7730107 0.6343931 0 0.8819214 0.4713966 0 0.9569404 0.2902848 0 0.9951848 0.0980165 0 0.9951847 -0.09801775 0 0.9569404 -0.2902848 0 0.8819212 -0.4713969 0 0.7730104 -0.6343935 0 0.6343935 -0.7730104 0 0.4713966 -0.8819214 0 0.09801691 -0.9951848 0 -0.09801757 -0.9951848 0 -0.2902851 -0.9569403 0 -0.471397 -0.8819211 0 -0.7730114 -0.6343923 0 -0.8819214 -0.4713966 0 -0.9569408 -0.2902833 0 -0.9951848 -0.09801644 0 -0.9951846 0.09801828 0 -0.9569399 0.2902863 0 -0.7730102 0.6343938 0 -0.6343923 0.7730113 0 -0.4713952 0.8819221 0 -0.2902832 0.9569408 0 0 0 -1 3.97513e-6 0 -1 -2.73706e-6 0 -1 3.88857e-7 0 -1 2.87797e-7 0 -1 0 0 -1 0 0 1 -5.36893e-6 0 1 -1.98756e-6 0 1 1.98757e-6 0 1 0 -2.07382e-7 1 -2.68447e-6 -3.33848e-7 1 0 4.52416e-7 1 3.97508e-6 0 1 -3.97509e-6 0 1 -1.98754e-6 0 1 1.98754e-6 -1.4914e-6 1 5.11539e-7 0 1 0 0 1 0 -1.29505e-7 1 1.02308e-6 0 1 0 -3.99186e-7 1 2.87797e-7 0 1 -2.87796e-7 0 1 0 0 1</float_array>
          <technique_common>
            <accessor source="#Cylinder_003-mesh-normals-array" count="87" stride="3">
              <param name="X" type="float"/>
              <param name="Y" type="float"/>
              <param name="Z" type="float"/>
            </accessor>
          </technique_common>
        </source>
        <vertices id="Cylinder_003-mesh-vertices">
          <input semantic="POSITION" source="#Cylinder_003-mesh-positions"/>
        </vertices>
        <triangles material="Material_002-material" count="124">
          <input semantic="VERTEX" source="#Cylinder_003-mesh-vertices" offset="0"/>
          <input semantic="NORMAL" source="#Cylinder_003-mesh-normals" offset="1"/>
          <p>45 0 1 0 0 0 34 1 2 1 1 1 33 2 3 2 2 2 47 3 4 3 3 3 35 4 5 4 4 4 37 5 6 5 5 5 48 6 7 6 6 6 46 7 8 7 7 7 42 8 9 8 8 8 39 9 10 9 9 9 41 10 11 10 10 10 49 11 12 11 11 11 40 12 13 12 12 12 13 13 53 13 14 13 53 14 15 14 14 14 54 15 16 15 15 15 58 16 17 16 16 16 63 17 18 17 17 17 55 18 19 18 18 18 57 19 20 19 19 19 62 20 21 20 20 20 60 21 22 21 21 21 59 22 23 22 22 22 61 23 24 23 23 23 56 24 25 24 24 24 52 25 26 25 25 25 51 26 27 26 26 26 32 27 28 27 27 27 43 28 29 28 28 28 44 29 30 29 29 29 38 30 31 30 30 30 50 31 0 31 31 31 7 32 15 32 23 32 52 33 63 33 39 33 45 34 34 34 1 34 34 35 33 35 2 35 33 36 47 36 3 36 47 37 35 37 4 37 35 38 37 38 5 38 37 39 48 39 6 39 48 40 46 40 7 40 46 41 42 41 8 41 42 42 39 42 9 42 39 43 41 43 10 43 41 44 49 44 11 44 49 45 40 45 12 45 40 46 36 46 13 46 13 47 36 47 53 47 53 14 54 14 15 14 54 48 58 48 16 48 58 49 63 49 17 49 63 50 55 50 18 50 55 51 57 51 19 51 57 19 62 19 20 19 62 52 60 52 21 52 60 53 59 53 22 53 59 54 61 54 23 54 61 55 56 55 24 55 56 56 52 56 25 56 52 57 51 57 26 57 51 26 32 26 27 26 32 58 43 58 28 58 43 59 44 59 29 59 44 60 38 60 30 60 38 61 50 61 31 61 50 31 45 31 0 31 31 62 0 62 1 62 1 62 2 62 3 62 3 62 4 62 5 62 5 62 6 62 3 62 6 62 7 62 3 62 7 63 8 63 9 63 9 62 10 62 7 62 10 64 11 64 7 64 11 62 12 62 15 62 12 62 13 62 15 62 13 62 14 62 15 62 15 62 16 62 17 62 17 62 18 62 19 62 19 62 20 62 21 62 21 62 22 62 23 62 23 62 24 62 25 62 25 62 26 62 27 62 27 62 28 62 31 62 28 62 29 62 31 62 29 62 30 62 31 62 31 62 1 62 3 62 15 62 17 62 23 62 17 62 19 62 23 62 19 62 21 62 23 62 23 65 25 65 31 65 25 62 27 62 31 62 31 62 3 62 7 62 7 66 11 66 15 66 31 67 7 67 23 67 39 68 42 68 46 68 46 69 48 69 39 69 48 68 37 68 39 68 37 70 35 70 47 70 47 71 33 71 34 71 34 68 45 68 50 68 50 68 38 68 44 68 44 72 43 72 52 72 43 73 32 73 52 73 32 74 51 74 52 74 52 68 56 68 61 68 61 75 59 75 60 75 60 76 62 76 57 76 57 77 55 77 63 77 63 68 58 68 54 68 54 78 53 78 36 78 36 68 40 68 49 68 49 68 41 68 36 68 41 68 39 68 36 68 37 79 47 79 34 79 34 80 50 80 52 80 50 81 44 81 52 81 52 82 61 82 60 82 60 68 57 68 52 68 57 68 63 68 52 68 63 83 54 83 36 83 39 84 37 84 34 84 63 85 36 85 39 85 39 86 34 86 52 86</p>
        </triangles>
      </mesh>
    </geometry>
    <geometry id="Icosphere-mesh" name="Icosphere">
      <mesh>
        <source id="Icosphere-mesh-positions">
          <float_array id="Icosphere-mesh-positions-array" count="132">0 0 -1 -0.276388 -0.8506492 -0.4472199 -0.8944262 0 -0.4472156 -0.276388 0.8506492 -0.4472199 -0.7236073 -0.5257253 0.4472195 -0.7236073 0.5257253 0.4472195 -0.1624554 -0.4999952 -0.8506544 0.4253227 -0.3090114 -0.8506542 0.2628688 -0.8090116 -0.5257377 0.4253227 0.3090114 -0.8506542 -0.5257298 0 -0.8506517 -0.6881894 -0.4999969 -0.5257362 -0.1624554 0.4999952 -0.8506544 -0.6881894 0.4999969 -0.5257362 0.2628688 0.8090116 -0.5257377 0 -1 0 -0.9510579 -0.3090126 0 -0.5877856 -0.8090167 0 -0.5877856 0.8090167 0 -0.9510579 0.3090126 0 0 1 0 -0.8506479 0 0.5257359 -0.3180299 -0.7750957 0.5163372 -0.2875287 -0.809012 0.4858362 -0.1983073 -0.8559191 0.3966146 0.0757451 -0.9590699 0.1225622 0.1983073 -0.935566 0 0.6568958 0.5667431 -0.4585884 0.6904172 0.5016115 -0.4921098 0.7788737 0.05214595 -0.5805662 0.6904172 -0.5016115 -0.4921098 0.7788738 -0.05214595 -0.5805662 0.6568958 -0.5667431 -0.4585884 0.4390201 -0.8090144 -0.2407127 -0.3180298 0.7750957 0.5163372 -0.5218254 0.3791239 0.7201327 -0.5540264 0.2155043 0.7523337 -0.5540264 -0.2155043 0.7523337 -0.1983073 0.855919 0.3966147 0.07574516 0.9590699 0.1225622 -0.5218254 -0.3791239 0.7201327 -0.2875288 0.8090121 0.4858362 0.1983073 0.935566 0 0.4390201 0.8090144 -0.2407127</float_array>
          <technique_common>
            <accessor source="#Icosphere-mesh-positions-array" count="44" stride="3">
              <param name="X" type="float"/>
              <param name="Y" type="float"/>
              <param name="Z" type="float"/>
            </accessor>
          </technique_common>
        </source>
        <source id="Icosphere-mesh-normals">
          <float_array id="Icosphere-mesh-normals-array" count="252">0.1023808 -0.3150898 -0.9435235 -0.2680341 -0.1947365 -0.9435229 -0.2680341 0.1947365 -0.9435229 0.1023808 0.3150898 -0.9435235 0.02474659 -0.9435214 -0.3303861 -0.8896973 -0.3150947 -0.3303849 -0.5746018 0.7487835 -0.3303877 -0.306569 -0.9435216 -0.1256289 -0.9920774 0 -0.1256284 -0.306569 0.9435216 -0.1256289 -0.4712998 -0.5831223 0.6616986 -0.7002237 0.2680314 0.6616994 -0.7002242 -0.2680318 0.6616986 -0.02474671 0.9435216 0.3303859 -0.303531 0.9341714 0.1875975 -0.5345762 0.7778644 0.3303866 -0.9049891 0.2680316 0.3303846 -0.9822458 0 0.1875985 -0.9049891 -0.2680316 0.3303846 -0.534576 -0.7778646 0.3303866 -0.3035314 -0.9341711 0.1875984 -0.02474659 -0.9435214 0.3303861 0.02474659 0.9435214 -0.3303861 -0.802609 0.5831265 0.1256274 -0.7946556 0.5773479 -0.1875951 -0.8896973 0.3150947 -0.3303849 -0.802609 -0.5831265 0.1256274 -0.7946556 -0.5773479 -0.1875951 -0.5746018 -0.7487835 -0.3303877 0.306569 -0.9435217 0.125628 0.3035308 -0.9341713 -0.1875984 0.5345759 -0.7778648 -0.3303863 0.4712993 0.5831224 -0.6616987 0.1875941 0.5773454 -0.7946578 -0.0385304 0.7487789 -0.6616991 -0.4089462 0.6284251 -0.6616985 -0.4911194 0.356821 -0.7946575 -0.7240422 0.1947361 -0.6616954 -0.7240422 -0.1947361 -0.6616954 -0.4911195 -0.356821 -0.7946575 -0.4089462 -0.6284251 -0.6616985 0.3313045 0 -0.943524 -0.0385304 -0.7487789 -0.6616991 0.1875941 -0.5773454 -0.7946578 0.4712997 -0.5831223 -0.6616986 0.7002241 -0.2680314 -0.6616989 0.306569 0.9435217 0.1256275 0.6070607 0 -0.7946556 0.7002241 0.2680315 -0.6616989 0.5345759 0.7778648 -0.3303863 -0.6070603 0 0.7946557 0.3035308 0.9341713 -0.1875984 -0.4712998 0.5831223 0.6616985 0.7071067 0 0.7071069 -0.7002242 0.2680318 0.6616986 -0.7002237 -0.2680314 0.6616994 -0.3035302 0.9341719 0.1875964 -0.5345764 0.7778638 0.3303882 -0.5345767 -0.7778646 0.3303854 -0.303531 -0.9341715 0.1875972 0.3035311 -0.9341715 -0.187597 0.4712997 0.5831223 -0.6616986 0.4712993 -0.5831224 -0.6616987 0.6070606 0 -0.7946556 0.3035311 0.9341714 -0.1875972 0.7071073 -4.14099e-7 0.7071064 0.7071059 1.65114e-6 0.7071076 0.7071075 -6.81209e-7 0.7071061 0.7071059 0 0.7071076 0.7071067 0 0.707107 0.7071065 5.60752e-7 0.7071071 0.7071059 -1.38033e-7 0.7071076 0.7071069 -1.70302e-7 0.7071067 0.7071143 9.90705e-6 0.7070994 0.7071066 -1.76569e-7 0.707107 0.7071067 0 0.7071068 0.707107 0 0.7071067 0.7071064 0 0.7071073 0.7071059 0 0.7071077 0.7071062 2.83081e-7 0.7071074 0.7071069 0 0.7071067 0.7071067 1.5695e-7 0.7071069 0.707107 -2.8015e-7 0.7071066 0.707107 0 0.7071066</float_array>
          <technique_common>
            <accessor source="#Icosphere-mesh-normals-array" count="84" stride="3">
              <param name="X" type="float"/>
              <param name="Y" type="float"/>
              <param name="Z" type="float"/>
            </accessor>
          </technique_common>
        </source>
        <vertices id="Icosphere-mesh-vertices">
          <input semantic="POSITION" source="#Icosphere-mesh-positions"/>
        </vertices>
        <triangles material="Material_001-material" count="84">
          <input semantic="VERTEX" source="#Icosphere-mesh-vertices" offset="0"/>
          <input semantic="NORMAL" source="#Icosphere-mesh-normals" offset="1"/>
          <p>0 0 7 0 6 0 0 1 6 1 10 1 0 2 10 2 12 2 0 3 12 3 9 3 1 4 8 4 15 4 2 5 11 5 16 5 3 6 13 6 18 6 1 7 15 7 17 7 2 8 16 8 19 8 3 9 18 9 20 9 4 10 22 10 40 10 5 11 36 11 35 11 4 12 37 12 21 12 20 13 38 13 39 13 18 14 38 14 20 14 5 15 41 15 18 15 19 16 21 16 5 16 19 17 16 17 21 17 16 18 4 18 21 18 23 19 4 19 17 19 17 20 24 20 23 20 15 21 25 21 24 21 14 22 3 22 20 22 18 23 19 23 5 23 18 24 13 24 19 24 13 25 2 25 19 25 16 26 17 26 4 26 16 27 11 27 17 27 11 28 1 28 17 28 15 29 26 29 25 29 15 30 33 30 26 30 8 31 32 31 33 31 9 32 27 32 28 32 9 33 12 33 14 33 12 34 3 34 14 34 12 35 13 35 3 35 12 36 10 36 13 36 10 37 2 37 13 37 10 38 11 38 2 38 10 39 6 39 11 39 6 40 1 40 11 40 7 41 0 41 9 41 6 42 8 42 1 42 6 43 7 43 8 43 7 44 32 44 8 44 31 45 30 45 7 45 39 46 42 46 20 46 29 47 7 47 9 47 28 48 29 48 9 48 43 49 27 49 14 49 37 50 36 50 21 50 43 51 20 51 42 51 35 52 34 52 5 52 33 53 29 53 43 53 5 54 21 54 36 54 4 55 40 55 37 55 18 56 41 56 38 56 5 57 34 57 41 57 23 58 22 58 4 58 17 59 15 59 24 59 15 60 8 60 33 60 9 61 14 61 27 61 7 62 30 62 32 62 29 63 31 63 7 63 43 64 14 64 20 64 42 65 39 65 38 65 38 66 41 66 34 66 34 67 35 67 38 67 35 68 36 68 38 68 36 69 37 69 33 69 37 70 40 70 24 70 26 71 24 71 25 71 40 72 22 72 24 72 22 73 23 73 24 73 26 74 33 74 37 74 36 75 33 75 43 75 33 76 32 76 31 76 32 77 30 77 31 77 31 78 29 78 33 78 29 79 28 79 27 79 27 80 43 80 29 80 43 81 42 81 36 81 42 82 38 82 36 82 24 83 26 83 37 83</p>
        </triangles>
      </mesh>
    </geometry>
  </library_geometries>
  <library_controllers/>
  <library_visual_scenes>
    <visual_scene id="Scene" name="Scene">
      <node id="Cylinder" name="Cylinder" type="NODE">
        <matrix sid="transform">0.3 0 0 0 0 0.3 0 0 0 0 0.25 0.2591597 0 0 0 1</matrix>
        <instance_geometry url="#Cylinder-mesh" name="Cylinder">
          <bind_material>
            <technique_common>
              <instance_material symbol="Material_002-material" target="#Material_002-material"/>
            </technique_common>
          </bind_material>
        </instance_geometry>
      </node>
      <node id="Torus" name="Torus" type="NODE">
        <matrix sid="transform">1.88745e-8 -0.286472 -2.44381e-8 -0.121151 0 -4.66722e-8 0.15 0 -0.25 -2.1628e-8 -1.84503e-15 0.4852511 0 0 0 1</matrix>
        <instance_geometry url="#Torus-mesh" name="Torus">
          <bind_material>
            <technique_common>
              <instance_material symbol="Material_001-material" target="#Material_001-material"/>
            </technique_common>
          </bind_material>
        </instance_geometry>
      </node>
      <node id="Cylinder_001" name="Cylinder_001" type="NODE">
        <matrix sid="transform">-1.74846e-9 -0.02828427 0.1979899 0.4204212 0.04000001 -1.04738e-9 9.97715e-9 0 -2.67232e-10 0.02828427 0.1979899 0.3359677 0 0 0 1</matrix>
        <instance_geometry url="#Cylinder_003-mesh" name="Cylinder_001">
          <bind_material>
            <technique_common>
              <instance_material symbol="Material_002-material" target="#Material_002-material"/>
            </technique_common>
          </bind_material>
        </instance_geometry>
      </node>
      <node id="Icosphere" name="Icosphere" type="NODE">
        <matrix sid="transform">0.1 0 0 0.6073871 0 0.1 0 0 0 0 0.1 0.5165882 0 0 0 1</matrix>
        <instance_geometry url="#Icosphere-mesh" name="Icosphere">
          <bind_material>
            <technique_common>
              <instance_material symbol="Material_001-material" target="#Material_001-material"/>
            </technique_common>
          </bind_material>
        </instance_geometry>
      </node>
    </visual_scene>
  </library_visual_scenes>
  <scene>
    <instance_visual_scene url="#Scene"/>
  </scene>
</COLLADA>