<?xml version="1.0" encoding="utf-8"?>
<COLLADA xmlns="http://www.collada.org/2005/11/COLLADASchema" version="1.4.1" xmlns:xsi="http://www.w3.org/2001/XMLSchema-instance">
  <asset>
    <contributor>
      <author>Blender User</author>
      <authoring_tool>Blender 2.79.0 commit date:2018-03-22, commit time:14:10, hash:f4dc9f9d68b</authoring_tool>
    </contributor>
    <created>2019-01-17T17:04:55</created>
    <modified>2019-01-17T17:04:55</modified>
    <unit name="meter" meter="1"/>
    <up_axis>Z_UP</up_axis>
  </asset>
  <library_images/>
  <library_effects>
    <effect id="Material_008-effect">
      <profile_COMMON>
        <technique sid="common">
          <phong>
            <emission>
              <color sid="emission">0 0 0 1</color>
            </emission>
            <ambient>
              <color sid="ambient">0 0 0 1</color>
            </ambient>
            <diffuse>
              <color sid="diffuse">0 0.3074991 0.01055737 1</color>
            </diffuse>
            <specular>
              <color sid="specular">0.5 0.5 0.5 1</color>
            </specular>
            <shininess>
              <float sid="shininess">50</float>
            </shininess>
            <index_of_refraction>
              <float sid="index_of_refraction">1</float>
            </index_of_refraction>
          </phong>
        </technique>
      </profile_COMMON>
    </effect>
    <effect id="Material_007-effect">
      <profile_COMMON>
        <technique sid="common">
          <phong>
            <emission>
              <color sid="emission">0 0 0 1</color>
            </emission>
            <ambient>
              <color sid="ambient">0 0 0 1</color>
            </ambient>
            <diffuse>
              <color sid="diffuse">0 0.3074991 0.01055737 1</color>
            </diffuse>
            <specular>
              <color sid="specular">0.5 0.5 0.5 1</color>
            </specular>
            <shininess>
              <float sid="shininess">50</float>
            </shininess>
            <index_of_refraction>
              <float sid="index_of_refraction">1</float>
            </index_of_refraction>
          </phong>
        </technique>
      </profile_COMMON>
    </effect>
    <effect id="Material_006-effect">
      <profile_COMMON>
        <technique sid="common">
          <phong>
            <emission>
              <color sid="emission">0 0 0 1</color>
            </emission>
            <ambient>
              <color sid="ambient">0 0 0 1</color>
            </ambient>
            <diffuse>
              <color sid="diffuse">0 0.3074991 0.01055737 1</color>
            </diffuse>
            <specular>
              <color sid="specular">0.5 0.5 0.5 1</color>
            </specular>
            <shininess>
              <float sid="shininess">50</float>
            </shininess>
            <index_of_refraction>
              <float sid="index_of_refraction">1</float>
            </index_of_refraction>
          </phong>
        </technique>
      </profile_COMMON>
    </effect>
    <effect id="Material_005-effect">
      <profile_COMMON>
        <technique sid="common">
          <phong>
            <emission>
              <color sid="emission">0 0 0 1</color>
            </emission>
            <ambient>
              <color sid="ambient">0 0 0 1</color>
            </ambient>
            <diffuse>
              <color sid="diffuse">0 0.3074991 0.01055737 1</color>
            </diffuse>
            <specular>
              <color sid="specular">0.5 0.5 0.5 1</color>
            </specular>
            <shininess>
              <float sid="shininess">50</float>
            </shininess>
            <index_of_refraction>
              <float sid="index_of_refraction">1</float>
            </index_of_refraction>
          </phong>
        </technique>
      </profile_COMMON>
    </effect>
    <effect id="Material_004-effect">
      <profile_COMMON>
        <technique sid="common">
          <phong>
            <emission>
              <color sid="emission">0 0 0 1</color>
            </emission>
            <ambient>
              <color sid="ambient">0 0 0 1</color>
            </ambient>
            <diffuse>
              <color sid="diffuse">0 0.3074991 0.01055737 1</color>
            </diffuse>
            <specular>
              <color sid="specular">0.5 0.5 0.5 1</color>
            </specular>
            <shininess>
              <float sid="shininess">50</float>
            </shininess>
            <index_of_refraction>
              <float sid="index_of_refraction">1</float>
            </index_of_refraction>
          </phong>
        </technique>
      </profile_COMMON>
    </effect>
    <effect id="Material_003-effect">
      <profile_COMMON>
        <technique sid="common">
          <phong>
            <emission>
              <color sid="emission">0 0 0 1</color>
            </emission>
            <ambient>
              <color sid="ambient">0 0 0 1</color>
            </ambient>
            <diffuse>
              <color sid="diffuse">0 0.3074991 0.01055737 1</color>
            </diffuse>
            <specular>
              <color sid="specular">0.5 0.5 0.5 1</color>
            </specular>
            <shininess>
              <float sid="shininess">50</float>
            </shininess>
            <index_of_refraction>
              <float sid="index_of_refraction">1</float>
            </index_of_refraction>
          </phong>
        </technique>
      </profile_COMMON>
    </effect>
    <effect id="Material_002-effect">
      <profile_COMMON>
        <technique sid="common">
          <phong>
            <emission>
              <color sid="emission">0 0 0 1</color>
            </emission>
            <ambient>
              <color sid="ambient">0 0 0 1</color>
            </ambient>
            <diffuse>
              <color sid="diffuse">0 0.3074991 0.01055737 1</color>
            </diffuse>
            <specular>
              <color sid="specular">0.5 0.5 0.5 1</color>
            </specular>
            <shininess>
              <float sid="shininess">50</float>
            </shininess>
            <index_of_refraction>
              <float sid="index_of_refraction">1</float>
            </index_of_refraction>
          </phong>
        </technique>
      </profile_COMMON>
    </effect>
    <effect id="Material_001-effect">
      <profile_COMMON>
        <technique sid="common">
          <phong>
            <emission>
              <color sid="emission">0 0 0 1</color>
            </emission>
            <ambient>
              <color sid="ambient">0 0 0 1</color>
            </ambient>
            <diffuse>
              <color sid="diffuse">0 0.3074991 0.01055737 1</color>
            </diffuse>
            <specular>
              <color sid="specular">0.5 0.5 0.5 1</color>
            </specular>
            <shininess>
              <float sid="shininess">50</float>
            </shininess>
            <index_of_refraction>
              <float sid="index_of_refraction">1</float>
            </index_of_refraction>
          </phong>
        </technique>
      </profile_COMMON>
    </effect>
  </library_effects>
  <library_materials>
    <material id="Material_008-material" name="Material_008">
      <instance_effect url="#Material_008-effect"/>
    </material>
    <material id="Material_007-material" name="Material_007">
      <instance_effect url="#Material_007-effect"/>
    </material>
    <material id="Material_006-material" name="Material_006">
      <instance_effect url="#Material_006-effect"/>
    </material>
    <material id="Material_005-material" name="Material_005">
      <instance_effect url="#Material_005-effect"/>
    </material>
    <material id="Material_004-material" name="Material_004">
      <instance_effect url="#Material_004-effect"/>
    </material>
    <material id="Material_003-material" name="Material_003">
      <instance_effect url="#Material_003-effect"/>
    </material>
    <material id="Material_002-material" name="Material_002">
      <instance_effect url="#Material_002-effect"/>
    </material>
    <material id="Material_001-material" name="Material_001">
      <instance_effect url="#Material_001-effect"/>
    </material>
  </library_materials>
  <library_geometries>
    <geometry id="Cone_007-mesh" name="Cone.007">
      <mesh>
        <source id="Cone_007-mesh-positions">
          <float_array id="Cone_007-mesh-positions-array" count="99">0 1 -1 0.1950903 0.9807853 -1 0.3826835 0.9238795 -1 0.5555703 0.8314696 -1 0.7071068 0.7071068 -1 0.8314697 0.5555702 -1 0.9238795 0.3826834 -1 0.9807853 0.1950903 -1 1 0 -1 0.9807853 -0.1950902 -1 0.9238796 -0.3826833 -1 0.8314697 -0.5555702 -1 0.7071068 -0.7071068 -1 0.5555702 -0.8314697 -1 0.3826833 -0.9238796 -1 0.1950901 -0.9807853 -1 -3.25841e-7 -1 -1 -0.1950907 -0.9807852 -1 -0.3826839 -0.9238793 -1 -0.5555707 -0.8314693 -1 -0.7071073 -0.7071064 -1 -0.83147 -0.5555697 -1 -0.9238799 -0.3826827 -1 0 0 1 -0.9807854 -0.1950894 -1 -1 9.65599e-7 -1 -0.9807851 0.1950913 -1 -0.9238791 0.3826845 -1 -0.8314689 0.5555713 -1 -0.7071059 0.7071077 -1 -0.5555691 0.8314704 -1 -0.3826821 0.9238801 -1 -0.1950888 0.9807856 -1</float_array>
          <technique_common>
            <accessor source="#Cone_007-mesh-positions-array" count="33" stride="3">
              <param name="X" type="float"/>
              <param name="Y" type="float"/>
              <param name="Z" type="float"/>
            </accessor>
          </technique_common>
        </source>
        <source id="Cone_007-mesh-normals">
          <float_array id="Cone_007-mesh-normals-array" count="111">0.08775365 0.8909768 0.4454883 0.2598883 0.856737 0.4454884 0.4220357 0.7895733 0.4454885 0.5679646 0.6920667 0.4454883 0.6920668 0.5679646 0.4454883 0.7895735 0.4220356 0.4454884 0.856737 0.2598884 0.4454883 0.8909767 0.08775365 0.4454883 0.8909767 -0.08775341 0.4454883 0.856737 -0.2598884 0.4454884 0.7895734 -0.4220355 0.4454883 0.6920668 -0.5679646 0.4454883 0.5679646 -0.6920668 0.4454883 0.4220357 -0.7895733 0.4454883 0.2598879 -0.8567371 0.4454883 0.08775335 -0.8909768 0.4454884 -0.08775389 -0.8909767 0.4454883 -0.2598888 -0.8567368 0.4454884 -0.422036 -0.7895731 0.4454883 -0.5679649 -0.6920665 0.4454885 -0.6920673 -0.567964 0.4454882 -0.7895737 -0.4220352 0.4454885 -0.8567373 -0.2598874 0.4454883 -0.8909768 -0.08775281 0.4454883 -0.8909767 0.08775442 0.4454883 -0.8567367 0.2598893 0.4454884 -0.7895729 0.4220365 0.4454883 -0.6920661 0.5679656 0.4454883 -0.5679637 0.6920675 0.4454883 -0.4220346 0.7895739 0.4454883 -0.2598869 0.8567374 0.4454883 -0.08775299 0.8909768 0.4454884 0 0 -1 -3.97511e-6 0 -1 3.97512e-6 0 -1 3.88857e-7 0 -1 0 0 -1</float_array>
          <technique_common>
            <accessor source="#Cone_007-mesh-normals-array" count="37" stride="3">
              <param name="X" type="float"/>
              <param name="Y" type="float"/>
              <param name="Z" type="float"/>
            </accessor>
          </technique_common>
        </source>
        <vertices id="Cone_007-mesh-vertices">
          <input semantic="POSITION" source="#Cone_007-mesh-positions"/>
        </vertices>
        <triangles material="Material_008-material" count="62">
          <input semantic="VERTEX" source="#Cone_007-mesh-vertices" offset="0"/>
          <input semantic="NORMAL" source="#Cone_007-mesh-normals" offset="1"/>
          <p>0 0 23 0 1 0 1 1 23 1 2 1 2 2 23 2 3 2 3 3 23 3 4 3 4 4 23 4 5 4 5 5 23 5 6 5 6 6 23 6 7 6 7 7 23 7 8 7 8 8 23 8 9 8 9 9 23 9 10 9 10 10 23 10 11 10 11 11 23 11 12 11 12 12 23 12 13 12 13 13 23 13 14 13 14 14 23 14 15 14 15 15 23 15 16 15 16 16 23 16 17 16 17 17 23 17 18 17 18 18 23 18 19 18 19 19 23 19 20 19 20 20 23 20 21 20 21 21 23 21 22 21 22 22 23 22 24 22 24 23 23 23 25 23 25 24 23 24 26 24 26 25 23 25 27 25 27 26 23 26 28 26 28 27 23 27 29 27 29 28 23 28 30 28 30 29 23 29 31 29 31 30 23 30 32 30 32 31 23 31 0 31 7 32 15 32 24 32 32 32 0 32 1 32 1 32 2 32 3 32 3 32 4 32 5 32 5 32 6 32 3 32 6 32 7 32 3 32 7 32 8 32 9 32 9 32 10 32 7 32 10 32 11 32 7 32 11 32 12 32 15 32 12 32 13 32 15 32 13 32 14 32 15 32 15 32 16 32 17 32 17 32 18 32 19 32 19 32 20 32 21 32 21 32 22 32 24 32 24 33 25 33 26 33 26 34 27 34 28 34 28 32 29 32 32 32 29 32 30 32 32 32 30 32 31 32 32 32 32 32 1 32 3 32 15 32 17 32 24 32 17 32 19 32 24 32 19 32 21 32 24 32 24 35 26 35 32 35 26 32 28 32 32 32 32 32 3 32 7 32 7 32 11 32 15 32 32 36 7 36 24 36</p>
        </triangles>
      </mesh>
    </geometry>
    <geometry id="Cone_006-mesh" name="Cone.006">
      <mesh>
        <source id="Cone_006-mesh-positions">
          <float_array id="Cone_006-mesh-positions-array" count="99">0 1 -1 0.1950903 0.9807853 -1 0.3826835 0.9238795 -1 0.5555703 0.8314696 -1 0.7071068 0.7071068 -1 0.8314697 0.5555702 -1 0.9238795 0.3826834 -1 0.9807853 0.1950903 -1 1 0 -1 0.9807853 -0.1950902 -1 0.9238796 -0.3826833 -1 0.8314697 -0.5555702 -1 0.7071068 -0.7071068 -1 0.5555702 -0.8314697 -1 0.3826833 -0.9238796 -1 0.1950901 -0.9807853 -1 -3.25841e-7 -1 -1 -0.1950907 -0.9807852 -1 -0.3826839 -0.9238793 -1 -0.5555707 -0.8314693 -1 -0.7071073 -0.7071064 -1 -0.83147 -0.5555697 -1 -0.9238799 -0.3826827 -1 0 0 1 -0.9807854 -0.1950894 -1 -1 9.65599e-7 -1 -0.9807851 0.1950913 -1 -0.9238791 0.3826845 -1 -0.8314689 0.5555713 -1 -0.7071059 0.7071077 -1 -0.5555691 0.8314704 -1 -0.3826821 0.9238801 -1 -0.1950888 0.9807856 -1</float_array>
          <technique_common>
            <accessor source="#Cone_006-mesh-positions-array" count="33" stride="3">
              <param name="X" type="float"/>
              <param name="Y" type="float"/>
              <param name="Z" type="float"/>
            </accessor>
          </technique_common>
        </source>
        <source id="Cone_006-mesh-normals">
          <float_array id="Cone_006-mesh-normals-array" count="111">0.08775365 0.8909768 0.4454883 0.2598883 0.856737 0.4454884 0.4220357 0.7895733 0.4454885 0.5679646 0.6920667 0.4454883 0.6920668 0.5679646 0.4454883 0.7895735 0.4220356 0.4454884 0.856737 0.2598884 0.4454883 0.8909767 0.08775365 0.4454883 0.8909767 -0.08775341 0.4454883 0.856737 -0.2598884 0.4454884 0.7895734 -0.4220355 0.4454883 0.6920668 -0.5679646 0.4454883 0.5679646 -0.6920668 0.4454883 0.4220357 -0.7895733 0.4454883 0.2598879 -0.8567371 0.4454883 0.08775335 -0.8909768 0.4454884 -0.08775389 -0.8909767 0.4454883 -0.2598888 -0.8567368 0.4454884 -0.422036 -0.7895731 0.4454883 -0.5679649 -0.6920665 0.4454885 -0.6920673 -0.567964 0.4454882 -0.7895737 -0.4220352 0.4454885 -0.8567373 -0.2598874 0.4454883 -0.8909768 -0.08775281 0.4454883 -0.8909767 0.08775442 0.4454883 -0.8567367 0.2598893 0.4454884 -0.7895729 0.4220365 0.4454883 -0.6920661 0.5679656 0.4454883 -0.5679637 0.6920675 0.4454883 -0.4220346 0.7895739 0.4454883 -0.2598869 0.8567374 0.4454883 -0.08775299 0.8909768 0.4454884 0 0 -1 -3.97511e-6 0 -1 3.97512e-6 0 -1 3.88857e-7 0 -1 0 0 -1</float_array>
          <technique_common>
            <accessor source="#Cone_006-mesh-normals-array" count="37" stride="3">
              <param name="X" type="float"/>
              <param name="Y" type="float"/>
              <param name="Z" type="float"/>
            </accessor>
          </technique_common>
        </source>
        <vertices id="Cone_006-mesh-vertices">
          <input semantic="POSITION" source="#Cone_006-mesh-positions"/>
        </vertices>
        <triangles material="Material_007-material" count="62">
          <input semantic="VERTEX" source="#Cone_006-mesh-vertices" offset="0"/>
          <input semantic="NORMAL" source="#Cone_006-mesh-normals" offset="1"/>
          <p>0 0 23 0 1 0 1 1 23 1 2 1 2 2 23 2 3 2 3 3 23 3 4 3 4 4 23 4 5 4 5 5 23 5 6 5 6 6 23 6 7 6 7 7 23 7 8 7 8 8 23 8 9 8 9 9 23 9 10 9 10 10 23 10 11 10 11 11 23 11 12 11 12 12 23 12 13 12 13 13 23 13 14 13 14 14 23 14 15 14 15 15 23 15 16 15 16 16 23 16 17 16 17 17 23 17 18 17 18 18 23 18 19 18 19 19 23 19 20 19 20 20 23 20 21 20 21 21 23 21 22 21 22 22 23 22 24 22 24 23 23 23 25 23 25 24 23 24 26 24 26 25 23 25 27 25 27 26 23 26 28 26 28 27 23 27 29 27 29 28 23 28 30 28 30 29 23 29 31 29 31 30 23 30 32 30 32 31 23 31 0 31 7 32 15 32 24 32 32 32 0 32 1 32 1 32 2 32 3 32 3 32 4 32 5 32 5 32 6 32 3 32 6 32 7 32 3 32 7 32 8 32 9 32 9 32 10 32 7 32 10 32 11 32 7 32 11 32 12 32 15 32 12 32 13 32 15 32 13 32 14 32 15 32 15 32 16 32 17 32 17 32 18 32 19 32 19 32 20 32 21 32 21 32 22 32 24 32 24 33 25 33 26 33 26 34 27 34 28 34 28 32 29 32 32 32 29 32 30 32 32 32 30 32 31 32 32 32 32 32 1 32 3 32 15 32 17 32 24 32 17 32 19 32 24 32 19 32 21 32 24 32 24 35 26 35 32 35 26 32 28 32 32 32 32 32 3 32 7 32 7 32 11 32 15 32 32 36 7 36 24 36</p>
        </triangles>
      </mesh>
    </geometry>
    <geometry id="Cone_005-mesh" name="Cone.005">
      <mesh>
        <source id="Cone_005-mesh-positions">
          <float_array id="Cone_005-mesh-positions-array" count="99">0 1 -1 0.1950903 0.9807853 -1 0.3826835 0.9238795 -1 0.5555703 0.8314696 -1 0.7071068 0.7071068 -1 0.8314697 0.5555702 -1 0.9238795 0.3826834 -1 0.9807853 0.1950903 -1 1 0 -1 0.9807853 -0.1950902 -1 0.9238796 -0.3826833 -1 0.8314697 -0.5555702 -1 0.7071068 -0.7071068 -1 0.5555702 -0.8314697 -1 0.3826833 -0.9238796 -1 0.1950901 -0.9807853 -1 -3.25841e-7 -1 -1 -0.1950907 -0.9807852 -1 -0.3826839 -0.9238793 -1 -0.5555707 -0.8314693 -1 -0.7071073 -0.7071064 -1 -0.83147 -0.5555697 -1 -0.9238799 -0.3826827 -1 0 0 1 -0.9807854 -0.1950894 -1 -1 9.65599e-7 -1 -0.9807851 0.1950913 -1 -0.9238791 0.3826845 -1 -0.8314689 0.5555713 -1 -0.7071059 0.7071077 -1 -0.5555691 0.8314704 -1 -0.3826821 0.9238801 -1 -0.1950888 0.9807856 -1</float_array>
          <technique_common>
            <accessor source="#Cone_005-mesh-positions-array" count="33" stride="3">
              <param name="X" type="float"/>
              <param name="Y" type="float"/>
              <param name="Z" type="float"/>
            </accessor>
          </technique_common>
        </source>
        <source id="Cone_005-mesh-normals">
          <float_array id="Cone_005-mesh-normals-array" count="111">0.08775365 0.8909768 0.4454883 0.2598883 0.856737 0.4454884 0.4220357 0.7895733 0.4454885 0.5679646 0.6920667 0.4454883 0.6920668 0.5679646 0.4454883 0.7895735 0.4220356 0.4454884 0.856737 0.2598884 0.4454883 0.8909767 0.08775365 0.4454883 0.8909767 -0.08775341 0.4454883 0.856737 -0.2598884 0.4454884 0.7895734 -0.4220355 0.4454883 0.6920668 -0.5679646 0.4454883 0.5679646 -0.6920668 0.4454883 0.4220357 -0.7895733 0.4454883 0.2598879 -0.8567371 0.4454883 0.08775335 -0.8909768 0.4454884 -0.08775389 -0.8909767 0.4454883 -0.2598888 -0.8567368 0.4454884 -0.422036 -0.7895731 0.4454883 -0.5679649 -0.6920665 0.4454885 -0.6920673 -0.567964 0.4454882 -0.7895737 -0.4220352 0.4454885 -0.8567373 -0.2598874 0.4454883 -0.8909768 -0.08775281 0.4454883 -0.8909767 0.08775442 0.4454883 -0.8567367 0.2598893 0.4454884 -0.7895729 0.4220365 0.4454883 -0.6920661 0.5679656 0.4454883 -0.5679637 0.6920675 0.4454883 -0.4220346 0.7895739 0.4454883 -0.2598869 0.8567374 0.4454883 -0.08775299 0.8909768 0.4454884 0 0 -1 -3.97511e-6 0 -1 3.97512e-6 0 -1 3.88857e-7 0 -1 0 0 -1</float_array>
          <technique_common>
            <accessor source="#Cone_005-mesh-normals-array" count="37" stride="3">
              <param name="X" type="float"/>
              <param name="Y" type="float"/>
              <param name="Z" type="float"/>
            </accessor>
          </technique_common>
        </source>
        <vertices id="Cone_005-mesh-vertices">
          <input semantic="POSITION" source="#Cone_005-mesh-positions"/>
        </vertices>
        <triangles material="Material_006-material" count="62">
          <input semantic="VERTEX" source="#Cone_005-mesh-vertices" offset="0"/>
          <input semantic="NORMAL" source="#Cone_005-mesh-normals" offset="1"/>
          <p>0 0 23 0 1 0 1 1 23 1 2 1 2 2 23 2 3 2 3 3 23 3 4 3 4 4 23 4 5 4 5 5 23 5 6 5 6 6 23 6 7 6 7 7 23 7 8 7 8 8 23 8 9 8 9 9 23 9 10 9 10 10 23 10 11 10 11 11 23 11 12 11 12 12 23 12 13 12 13 13 23 13 14 13 14 14 23 14 15 14 15 15 23 15 16 15 16 16 23 16 17 16 17 17 23 17 18 17 18 18 23 18 19 18 19 19 23 19 20 19 20 20 23 20 21 20 21 21 23 21 22 21 22 22 23 22 24 22 24 23 23 23 25 23 25 24 23 24 26 24 26 25 23 25 27 25 27 26 23 26 28 26 28 27 23 27 29 27 29 28 23 28 30 28 30 29 23 29 31 29 31 30 23 30 32 30 32 31 23 31 0 31 7 32 15 32 24 32 32 32 0 32 1 32 1 32 2 32 3 32 3 32 4 32 5 32 5 32 6 32 3 32 6 32 7 32 3 32 7 32 8 32 9 32 9 32 10 32 7 32 10 32 11 32 7 32 11 32 12 32 15 32 12 32 13 32 15 32 13 32 14 32 15 32 15 32 16 32 17 32 17 32 18 32 19 32 19 32 20 32 21 32 21 32 22 32 24 32 24 33 25 33 26 33 26 34 27 34 28 34 28 32 29 32 32 32 29 32 30 32 32 32 30 32 31 32 32 32 32 32 1 32 3 32 15 32 17 32 24 32 17 32 19 32 24 32 19 32 21 32 24 32 24 35 26 35 32 35 26 32 28 32 32 32 32 32 3 32 7 32 7 32 11 32 15 32 32 36 7 36 24 36</p>
        </triangles>
      </mesh>
    </geometry>
    <geometry id="Cone_004-mesh" name="Cone.004">
      <mesh>
        <source id="Cone_004-mesh-positions">
          <float_array id="Cone_004-mesh-positions-array" count="99">0 1 -1 0.1950903 0.9807853 -1 0.3826835 0.9238795 -1 0.5555703 0.8314696 -1 0.7071068 0.7071068 -1 0.8314697 0.5555702 -1 0.9238795 0.3826834 -1 0.9807853 0.1950903 -1 1 0 -1 0.9807853 -0.1950902 -1 0.9238796 -0.3826833 -1 0.8314697 -0.5555702 -1 0.7071068 -0.7071068 -1 0.5555702 -0.8314697 -1 0.3826833 -0.9238796 -1 0.1950901 -0.9807853 -1 -3.25841e-7 -1 -1 -0.1950907 -0.9807852 -1 -0.3826839 -0.9238793 -1 -0.5555707 -0.8314693 -1 -0.7071073 -0.7071064 -1 -0.83147 -0.5555697 -1 -0.9238799 -0.3826827 -1 0 0 1 -0.9807854 -0.1950894 -1 -1 9.65599e-7 -1 -0.9807851 0.1950913 -1 -0.9238791 0.3826845 -1 -0.8314689 0.5555713 -1 -0.7071059 0.7071077 -1 -0.5555691 0.8314704 -1 -0.3826821 0.9238801 -1 -0.1950888 0.9807856 -1</float_array>
          <technique_common>
            <accessor source="#Cone_004-mesh-positions-array" count="33" stride="3">
              <param name="X" type="float"/>
              <param name="Y" type="float"/>
              <param name="Z" type="float"/>
            </accessor>
          </technique_common>
        </source>
        <source id="Cone_004-mesh-normals">
          <float_array id="Cone_004-mesh-normals-array" count="111">0.08775365 0.8909768 0.4454883 0.2598883 0.856737 0.4454884 0.4220357 0.7895733 0.4454885 0.5679646 0.6920667 0.4454883 0.6920668 0.5679646 0.4454883 0.7895735 0.4220356 0.4454884 0.856737 0.2598884 0.4454883 0.8909767 0.08775365 0.4454883 0.8909767 -0.08775341 0.4454883 0.856737 -0.2598884 0.4454884 0.7895734 -0.4220355 0.4454883 0.6920668 -0.5679646 0.4454883 0.5679646 -0.6920668 0.4454883 0.4220357 -0.7895733 0.4454883 0.2598879 -0.8567371 0.4454883 0.08775335 -0.8909768 0.4454884 -0.08775389 -0.8909767 0.4454883 -0.2598888 -0.8567368 0.4454884 -0.422036 -0.7895731 0.4454883 -0.5679649 -0.6920665 0.4454885 -0.6920673 -0.567964 0.4454882 -0.7895737 -0.4220352 0.4454885 -0.8567373 -0.2598874 0.4454883 -0.8909768 -0.08775281 0.4454883 -0.8909767 0.08775442 0.4454883 -0.8567367 0.2598893 0.4454884 -0.7895729 0.4220365 0.4454883 -0.6920661 0.5679656 0.4454883 -0.5679637 0.6920675 0.4454883 -0.4220346 0.7895739 0.4454883 -0.2598869 0.8567374 0.4454883 -0.08775299 0.8909768 0.4454884 0 0 -1 -3.97511e-6 0 -1 3.97512e-6 0 -1 3.88857e-7 0 -1 0 0 -1</float_array>
          <technique_common>
            <accessor source="#Cone_004-mesh-normals-array" count="37" stride="3">
              <param name="X" type="float"/>
              <param name="Y" type="float"/>
              <param name="Z" type="float"/>
            </accessor>
          </technique_common>
        </source>
        <vertices id="Cone_004-mesh-vertices">
          <input semantic="POSITION" source="#Cone_004-mesh-positions"/>
        </vertices>
        <triangles material="Material_005-material" count="62">
          <input semantic="VERTEX" source="#Cone_004-mesh-vertices" offset="0"/>
          <input semantic="NORMAL" source="#Cone_004-mesh-normals" offset="1"/>
          <p>0 0 23 0 1 0 1 1 23 1 2 1 2 2 23 2 3 2 3 3 23 3 4 3 4 4 23 4 5 4 5 5 23 5 6 5 6 6 23 6 7 6 7 7 23 7 8 7 8 8 23 8 9 8 9 9 23 9 10 9 10 10 23 10 11 10 11 11 23 11 12 11 12 12 23 12 13 12 13 13 23 13 14 13 14 14 23 14 15 14 15 15 23 15 16 15 16 16 23 16 17 16 17 17 23 17 18 17 18 18 23 18 19 18 19 19 23 19 20 19 20 20 23 20 21 20 21 21 23 21 22 21 22 22 23 22 24 22 24 23 23 23 25 23 25 24 23 24 26 24 26 25 23 25 27 25 27 26 23 26 28 26 28 27 23 27 29 27 29 28 23 28 30 28 30 29 23 29 31 29 31 30 23 30 32 30 32 31 23 31 0 31 7 32 15 32 24 32 32 32 0 32 1 32 1 32 2 32 3 32 3 32 4 32 5 32 5 32 6 32 3 32 6 32 7 32 3 32 7 32 8 32 9 32 9 32 10 32 7 32 10 32 11 32 7 32 11 32 12 32 15 32 12 32 13 32 15 32 13 32 14 32 15 32 15 32 16 32 17 32 17 32 18 32 19 32 19 32 20 32 21 32 21 32 22 32 24 32 24 33 25 33 26 33 26 34 27 34 28 34 28 32 29 32 32 32 29 32 30 32 32 32 30 32 31 32 32 32 32 32 1 32 3 32 15 32 17 32 24 32 17 32 19 32 24 32 19 32 21 32 24 32 24 35 26 35 32 35 26 32 28 32 32 32 32 32 3 32 7 32 7 32 11 32 15 32 32 36 7 36 24 36</p>
        </triangles>
      </mesh>
    </geometry>
    <geometry id="Cone_003-mesh" name="Cone.003">
      <mesh>
        <source id="Cone_003-mesh-positions">
          <float_array id="Cone_003-mesh-positions-array" count="99">0 1 -1 0.1950903 0.9807853 -1 0.3826835 0.9238795 -1 0.5555703 0.8314696 -1 0.7071068 0.7071068 -1 0.8314697 0.5555702 -1 0.9238795 0.3826834 -1 0.9807853 0.1950903 -1 1 0 -1 0.9807853 -0.1950902 -1 0.9238796 -0.3826833 -1 0.8314697 -0.5555702 -1 0.7071068 -0.7071068 -1 0.5555702 -0.8314697 -1 0.3826833 -0.9238796 -1 0.1950901 -0.9807853 -1 -3.25841e-7 -1 -1 -0.1950907 -0.9807852 -1 -0.3826839 -0.9238793 -1 -0.5555707 -0.8314693 -1 -0.7071073 -0.7071064 -1 -0.83147 -0.5555697 -1 -0.9238799 -0.3826827 -1 0 0 1 -0.9807854 -0.1950894 -1 -1 9.65599e-7 -1 -0.9807851 0.1950913 -1 -0.9238791 0.3826845 -1 -0.8314689 0.5555713 -1 -0.7071059 0.7071077 -1 -0.5555691 0.8314704 -1 -0.3826821 0.9238801 -1 -0.1950888 0.9807856 -1</float_array>
          <technique_common>
            <accessor source="#Cone_003-mesh-positions-array" count="33" stride="3">
              <param name="X" type="float"/>
              <param name="Y" type="float"/>
              <param name="Z" type="float"/>
            </accessor>
          </technique_common>
        </source>
        <source id="Cone_003-mesh-normals">
          <float_array id="Cone_003-mesh-normals-array" count="111">0.08775365 0.8909768 0.4454883 0.2598883 0.856737 0.4454884 0.4220357 0.7895733 0.4454885 0.5679646 0.6920667 0.4454883 0.6920668 0.5679646 0.4454883 0.7895735 0.4220356 0.4454884 0.856737 0.2598884 0.4454883 0.8909767 0.08775365 0.4454883 0.8909767 -0.08775341 0.4454883 0.856737 -0.2598884 0.4454884 0.7895734 -0.4220355 0.4454883 0.6920668 -0.5679646 0.4454883 0.5679646 -0.6920668 0.4454883 0.4220357 -0.7895733 0.4454883 0.2598879 -0.8567371 0.4454883 0.08775335 -0.8909768 0.4454884 -0.08775389 -0.8909767 0.4454883 -0.2598888 -0.8567368 0.4454884 -0.422036 -0.7895731 0.4454883 -0.5679649 -0.6920665 0.4454885 -0.6920673 -0.567964 0.4454882 -0.7895737 -0.4220352 0.4454885 -0.8567373 -0.2598874 0.4454883 -0.8909768 -0.08775281 0.4454883 -0.8909767 0.08775442 0.4454883 -0.8567367 0.2598893 0.4454884 -0.7895729 0.4220365 0.4454883 -0.6920661 0.5679656 0.4454883 -0.5679637 0.6920675 0.4454883 -0.4220346 0.7895739 0.4454883 -0.2598869 0.8567374 0.4454883 -0.08775299 0.8909768 0.4454884 0 0 -1 -3.97511e-6 0 -1 3.97512e-6 0 -1 3.88857e-7 0 -1 0 0 -1</float_array>
          <technique_common>
            <accessor source="#Cone_003-mesh-normals-array" count="37" stride="3">
              <param name="X" type="float"/>
              <param name="Y" type="float"/>
              <param name="Z" type="float"/>
            </accessor>
          </technique_common>
        </source>
        <vertices id="Cone_003-mesh-vertices">
          <input semantic="POSITION" source="#Cone_003-mesh-positions"/>
        </vertices>
        <triangles material="Material_004-material" count="62">
          <input semantic="VERTEX" source="#Cone_003-mesh-vertices" offset="0"/>
          <input semantic="NORMAL" source="#Cone_003-mesh-normals" offset="1"/>
          <p>0 0 23 0 1 0 1 1 23 1 2 1 2 2 23 2 3 2 3 3 23 3 4 3 4 4 23 4 5 4 5 5 23 5 6 5 6 6 23 6 7 6 7 7 23 7 8 7 8 8 23 8 9 8 9 9 23 9 10 9 10 10 23 10 11 10 11 11 23 11 12 11 12 12 23 12 13 12 13 13 23 13 14 13 14 14 23 14 15 14 15 15 23 15 16 15 16 16 23 16 17 16 17 17 23 17 18 17 18 18 23 18 19 18 19 19 23 19 20 19 20 20 23 20 21 20 21 21 23 21 22 21 22 22 23 22 24 22 24 23 23 23 25 23 25 24 23 24 26 24 26 25 23 25 27 25 27 26 23 26 28 26 28 27 23 27 29 27 29 28 23 28 30 28 30 29 23 29 31 29 31 30 23 30 32 30 32 31 23 31 0 31 7 32 15 32 24 32 32 32 0 32 1 32 1 32 2 32 3 32 3 32 4 32 5 32 5 32 6 32 3 32 6 32 7 32 3 32 7 32 8 32 9 32 9 32 10 32 7 32 10 32 11 32 7 32 11 32 12 32 15 32 12 32 13 32 15 32 13 32 14 32 15 32 15 32 16 32 17 32 17 32 18 32 19 32 19 32 20 32 21 32 21 32 22 32 24 32 24 33 25 33 26 33 26 34 27 34 28 34 28 32 29 32 32 32 29 32 30 32 32 32 30 32 31 32 32 32 32 32 1 32 3 32 15 32 17 32 24 32 17 32 19 32 24 32 19 32 21 32 24 32 24 35 26 35 32 35 26 32 28 32 32 32 32 32 3 32 7 32 7 32 11 32 15 32 32 36 7 36 24 36</p>
        </triangles>
      </mesh>
    </geometry>
    <geometry id="Cone_002-mesh" name="Cone.002">
      <mesh>
        <source id="Cone_002-mesh-positions">
          <float_array id="Cone_002-mesh-positions-array" count="99">0 1 -1 0.1950903 0.9807853 -1 0.3826835 0.9238795 -1 0.5555703 0.8314696 -1 0.7071068 0.7071068 -1 0.8314697 0.5555702 -1 0.9238795 0.3826834 -1 0.9807853 0.1950903 -1 1 0 -1 0.9807853 -0.1950902 -1 0.9238796 -0.3826833 -1 0.8314697 -0.5555702 -1 0.7071068 -0.7071068 -1 0.5555702 -0.8314697 -1 0.3826833 -0.9238796 -1 0.1950901 -0.9807853 -1 -3.25841e-7 -1 -1 -0.1950907 -0.9807852 -1 -0.3826839 -0.9238793 -1 -0.5555707 -0.8314693 -1 -0.7071073 -0.7071064 -1 -0.83147 -0.5555697 -1 -0.9238799 -0.3826827 -1 0 0 1 -0.9807854 -0.1950894 -1 -1 9.65599e-7 -1 -0.9807851 0.1950913 -1 -0.9238791 0.3826845 -1 -0.8314689 0.5555713 -1 -0.7071059 0.7071077 -1 -0.5555691 0.8314704 -1 -0.3826821 0.9238801 -1 -0.1950888 0.9807856 -1</float_array>
          <technique_common>
            <accessor source="#Cone_002-mesh-positions-array" count="33" stride="3">
              <param name="X" type="float"/>
              <param name="Y" type="float"/>
              <param name="Z" type="float"/>
            </accessor>
          </technique_common>
        </source>
        <source id="Cone_002-mesh-normals">
          <float_array id="Cone_002-mesh-normals-array" count="111">0.08775365 0.8909768 0.4454883 0.2598883 0.856737 0.4454884 0.4220357 0.7895733 0.4454885 0.5679646 0.6920667 0.4454883 0.6920668 0.5679646 0.4454883 0.7895735 0.4220356 0.4454884 0.856737 0.2598884 0.4454883 0.8909767 0.08775365 0.4454883 0.8909767 -0.08775341 0.4454883 0.856737 -0.2598884 0.4454884 0.7895734 -0.4220355 0.4454883 0.6920668 -0.5679646 0.4454883 0.5679646 -0.6920668 0.4454883 0.4220357 -0.7895733 0.4454883 0.2598879 -0.8567371 0.4454883 0.08775335 -0.8909768 0.4454884 -0.08775389 -0.8909767 0.4454883 -0.2598888 -0.8567368 0.4454884 -0.422036 -0.7895731 0.4454883 -0.5679649 -0.6920665 0.4454885 -0.6920673 -0.567964 0.4454882 -0.7895737 -0.4220352 0.4454885 -0.8567373 -0.2598874 0.4454883 -0.8909768 -0.08775281 0.4454883 -0.8909767 0.08775442 0.4454883 -0.8567367 0.2598893 0.4454884 -0.7895729 0.4220365 0.4454883 -0.6920661 0.5679656 0.4454883 -0.5679637 0.6920675 0.4454883 -0.4220346 0.7895739 0.4454883 -0.2598869 0.8567374 0.4454883 -0.08775299 0.8909768 0.4454884 0 0 -1 -3.97511e-6 0 -1 3.97512e-6 0 -1 3.88857e-7 0 -1 0 0 -1</float_array>
          <technique_common>
            <accessor source="#Cone_002-mesh-normals-array" count="37" stride="3">
              <param name="X" type="float"/>
              <param name="Y" type="float"/>
              <param name="Z" type="float"/>
            </accessor>
          </technique_common>
        </source>
        <vertices id="Cone_002-mesh-vertices">
          <input semantic="POSITION" source="#Cone_002-mesh-positions"/>
        </vertices>
        <triangles material="Material_003-material" count="62">
          <input semantic="VERTEX" source="#Cone_002-mesh-vertices" offset="0"/>
          <input semantic="NORMAL" source="#Cone_002-mesh-normals" offset="1"/>
          <p>0 0 23 0 1 0 1 1 23 1 2 1 2 2 23 2 3 2 3 3 23 3 4 3 4 4 23 4 5 4 5 5 23 5 6 5 6 6 23 6 7 6 7 7 23 7 8 7 8 8 23 8 9 8 9 9 23 9 10 9 10 10 23 10 11 10 11 11 23 11 12 11 12 12 23 12 13 12 13 13 23 13 14 13 14 14 23 14 15 14 15 15 23 15 16 15 16 16 23 16 17 16 17 17 23 17 18 17 18 18 23 18 19 18 19 19 23 19 20 19 20 20 23 20 21 20 21 21 23 21 22 21 22 22 23 22 24 22 24 23 23 23 25 23 25 24 23 24 26 24 26 25 23 25 27 25 27 26 23 26 28 26 28 27 23 27 29 27 29 28 23 28 30 28 30 29 23 29 31 29 31 30 23 30 32 30 32 31 23 31 0 31 7 32 15 32 24 32 32 32 0 32 1 32 1 32 2 32 3 32 3 32 4 32 5 32 5 32 6 32 3 32 6 32 7 32 3 32 7 32 8 32 9 32 9 32 10 32 7 32 10 32 11 32 7 32 11 32 12 32 15 32 12 32 13 32 15 32 13 32 14 32 15 32 15 32 16 32 17 32 17 32 18 32 19 32 19 32 20 32 21 32 21 32 22 32 24 32 24 33 25 33 26 33 26 34 27 34 28 34 28 32 29 32 32 32 29 32 30 32 32 32 30 32 31 32 32 32 32 32 1 32 3 32 15 32 17 32 24 32 17 32 19 32 24 32 19 32 21 32 24 32 24 35 26 35 32 35 26 32 28 32 32 32 32 32 3 32 7 32 7 32 11 32 15 32 32 36 7 36 24 36</p>
        </triangles>
      </mesh>
    </geometry>
    <geometry id="Cone_001-mesh" name="Cone.001">
      <mesh>
        <source id="Cone_001-mesh-positions">
          <float_array id="Cone_001-mesh-positions-array" count="99">0 1 -1 0.1950903 0.9807853 -1 0.3826835 0.9238795 -1 0.5555703 0.8314696 -1 0.7071068 0.7071068 -1 0.8314697 0.5555702 -1 0.9238795 0.3826834 -1 0.9807853 0.1950903 -1 1 0 -1 0.9807853 -0.1950902 -1 0.9238796 -0.3826833 -1 0.8314697 -0.5555702 -1 0.7071068 -0.7071068 -1 0.5555702 -0.8314697 -1 0.3826833 -0.9238796 -1 0.1950901 -0.9807853 -1 -3.25841e-7 -1 -1 -0.1950907 -0.9807852 -1 -0.3826839 -0.9238793 -1 -0.5555707 -0.8314693 -1 -0.7071073 -0.7071064 -1 -0.83147 -0.5555697 -1 -0.9238799 -0.3826827 -1 0 0 1 -0.9807854 -0.1950894 -1 -1 9.65599e-7 -1 -0.9807851 0.1950913 -1 -0.9238791 0.3826845 -1 -0.8314689 0.5555713 -1 -0.7071059 0.7071077 -1 -0.5555691 0.8314704 -1 -0.3826821 0.9238801 -1 -0.1950888 0.9807856 -1</float_array>
          <technique_common>
            <accessor source="#Cone_001-mesh-positions-array" count="33" stride="3">
              <param name="X" type="float"/>
              <param name="Y" type="float"/>
              <param name="Z" type="float"/>
            </accessor>
          </technique_common>
        </source>
        <source id="Cone_001-mesh-normals">
          <float_array id="Cone_001-mesh-normals-array" count="111">0.08775365 0.8909768 0.4454883 0.2598883 0.856737 0.4454884 0.4220357 0.7895733 0.4454885 0.5679646 0.6920667 0.4454883 0.6920668 0.5679646 0.4454883 0.7895735 0.4220356 0.4454884 0.856737 0.2598884 0.4454883 0.8909767 0.08775365 0.4454883 0.8909767 -0.08775341 0.4454883 0.856737 -0.2598884 0.4454884 0.7895734 -0.4220355 0.4454883 0.6920668 -0.5679646 0.4454883 0.5679646 -0.6920668 0.4454883 0.4220357 -0.7895733 0.4454883 0.2598879 -0.8567371 0.4454883 0.08775335 -0.8909768 0.4454884 -0.08775389 -0.8909767 0.4454883 -0.2598888 -0.8567368 0.4454884 -0.422036 -0.7895731 0.4454883 -0.5679649 -0.6920665 0.4454885 -0.6920673 -0.567964 0.4454882 -0.7895737 -0.4220352 0.4454885 -0.8567373 -0.2598874 0.4454883 -0.8909768 -0.08775281 0.4454883 -0.8909767 0.08775442 0.4454883 -0.8567367 0.2598893 0.4454884 -0.7895729 0.4220365 0.4454883 -0.6920661 0.5679656 0.4454883 -0.5679637 0.6920675 0.4454883 -0.4220346 0.7895739 0.4454883 -0.2598869 0.8567374 0.4454883 -0.08775299 0.8909768 0.4454884 0 0 -1 -3.97511e-6 0 -1 3.97512e-6 0 -1 3.88857e-7 0 -1 0 0 -1</float_array>
          <technique_common>
            <accessor source="#Cone_001-mesh-normals-array" count="37" stride="3">
              <param name="X" type="float"/>
              <param name="Y" type="float"/>
              <param name="Z" type="float"/>
            </accessor>
          </technique_common>
        </source>
        <vertices id="Cone_001-mesh-vertices">
          <input semantic="POSITION" source="#Cone_001-mesh-positions"/>
        </vertices>
        <triangles material="Material_002-material" count="62">
          <input semantic="VERTEX" source="#Cone_001-mesh-vertices" offset="0"/>
          <input semantic="NORMAL" source="#Cone_001-mesh-normals" offset="1"/>
          <p>0 0 23 0 1 0 1 1 23 1 2 1 2 2 23 2 3 2 3 3 23 3 4 3 4 4 23 4 5 4 5 5 23 5 6 5 6 6 23 6 7 6 7 7 23 7 8 7 8 8 23 8 9 8 9 9 23 9 10 9 10 10 23 10 11 10 11 11 23 11 12 11 12 12 23 12 13 12 13 13 23 13 14 13 14 14 23 14 15 14 15 15 23 15 16 15 16 16 23 16 17 16 17 17 23 17 18 17 18 18 23 18 19 18 19 19 23 19 20 19 20 20 23 20 21 20 21 21 23 21 22 21 22 22 23 22 24 22 24 23 23 23 25 23 25 24 23 24 26 24 26 25 23 25 27 25 27 26 23 26 28 26 28 27 23 27 29 27 29 28 23 28 30 28 30 29 23 29 31 29 31 30 23 30 32 30 32 31 23 31 0 31 7 32 15 32 24 32 32 32 0 32 1 32 1 32 2 32 3 32 3 32 4 32 5 32 5 32 6 32 3 32 6 32 7 32 3 32 7 32 8 32 9 32 9 32 10 32 7 32 10 32 11 32 7 32 11 32 12 32 15 32 12 32 13 32 15 32 13 32 14 32 15 32 15 32 16 32 17 32 17 32 18 32 19 32 19 32 20 32 21 32 21 32 22 32 24 32 24 33 25 33 26 33 26 34 27 34 28 34 28 32 29 32 32 32 29 32 30 32 32 32 30 32 31 32 32 32 32 32 1 32 3 32 15 32 17 32 24 32 17 32 19 32 24 32 19 32 21 32 24 32 24 35 26 35 32 35 26 32 28 32 32 32 32 32 3 32 7 32 7 32 11 32 15 32 32 36 7 36 24 36</p>
        </triangles>
      </mesh>
    </geometry>
    <geometry id="Cone-mesh" name="Cone">
      <mesh>
        <source id="Cone-mesh-positions">
          <float_array id="Cone-mesh-positions-array" count="99">0 1 -1 0.1950903 0.9807853 -1 0.3826835 0.9238795 -1 0.5555703 0.8314696 -1 0.7071068 0.7071068 -1 0.8314697 0.5555702 -1 0.9238795 0.3826834 -1 0.9807853 0.1950903 -1 1 0 -1 0.9807853 -0.1950902 -1 0.9238796 -0.3826833 -1 0.8314697 -0.5555702 -1 0.7071068 -0.7071068 -1 0.5555702 -0.8314697 -1 0.3826833 -0.9238796 -1 0.1950901 -0.9807853 -1 -3.25841e-7 -1 -1 -0.1950907 -0.9807852 -1 -0.3826839 -0.9238793 -1 -0.5555707 -0.8314693 -1 -0.7071073 -0.7071064 -1 -0.83147 -0.5555697 -1 -0.9238799 -0.3826827 -1 0 0 1 -0.9807854 -0.1950894 -1 -1 9.65599e-7 -1 -0.9807851 0.1950913 -1 -0.9238791 0.3826845 -1 -0.8314689 0.5555713 -1 -0.7071059 0.7071077 -1 -0.5555691 0.8314704 -1 -0.3826821 0.9238801 -1 -0.1950888 0.9807856 -1</float_array>
          <technique_common>
            <accessor source="#Cone-mesh-positions-array" count="33" stride="3">
              <param name="X" type="float"/>
              <param name="Y" type="float"/>
              <param name="Z" type="float"/>
            </accessor>
          </technique_common>
        </source>
        <source id="Cone-mesh-normals">
          <float_array id="Cone-mesh-normals-array" count="111">0.08775365 0.8909768 0.4454883 0.2598883 0.856737 0.4454884 0.4220357 0.7895733 0.4454885 0.5679646 0.6920667 0.4454883 0.6920668 0.5679646 0.4454883 0.7895735 0.4220356 0.4454884 0.856737 0.2598884 0.4454883 0.8909767 0.08775365 0.4454883 0.8909767 -0.08775341 0.4454883 0.856737 -0.2598884 0.4454884 0.7895734 -0.4220355 0.4454883 0.6920668 -0.5679646 0.4454883 0.5679646 -0.6920668 0.4454883 0.4220357 -0.7895733 0.4454883 0.2598879 -0.8567371 0.4454883 0.08775335 -0.8909768 0.4454884 -0.08775389 -0.8909767 0.4454883 -0.2598888 -0.8567368 0.4454884 -0.422036 -0.7895731 0.4454883 -0.5679649 -0.6920665 0.4454885 -0.6920673 -0.567964 0.4454882 -0.7895737 -0.4220352 0.4454885 -0.8567373 -0.2598874 0.4454883 -0.8909768 -0.08775281 0.4454883 -0.8909767 0.08775442 0.4454883 -0.8567367 0.2598893 0.4454884 -0.7895729 0.4220365 0.4454883 -0.6920661 0.5679656 0.4454883 -0.5679637 0.6920675 0.4454883 -0.4220346 0.7895739 0.4454883 -0.2598869 0.8567374 0.4454883 -0.08775299 0.8909768 0.4454884 0 0 -1 -3.97511e-6 0 -1 3.97512e-6 0 -1 3.88857e-7 0 -1 0 0 -1</float_array>
          <technique_common>
            <accessor source="#Cone-mesh-normals-array" count="37" stride="3">
              <param name="X" type="float"/>
              <param name="Y" type="float"/>
              <param name="Z" type="float"/>
            </accessor>
          </technique_common>
        </source>
        <vertices id="Cone-mesh-vertices">
          <input semantic="POSITION" source="#Cone-mesh-positions"/>
        </vertices>
        <triangles material="Material_001-material" count="62">
          <input semantic="VERTEX" source="#Cone-mesh-vertices" offset="0"/>
          <input semantic="NORMAL" source="#Cone-mesh-normals" offset="1"/>
          <p>0 0 23 0 1 0 1 1 23 1 2 1 2 2 23 2 3 2 3 3 23 3 4 3 4 4 23 4 5 4 5 5 23 5 6 5 6 6 23 6 7 6 7 7 23 7 8 7 8 8 23 8 9 8 9 9 23 9 10 9 10 10 23 10 11 10 11 11 23 11 12 11 12 12 23 12 13 12 13 13 23 13 14 13 14 14 23 14 15 14 15 15 23 15 16 15 16 16 23 16 17 16 17 17 23 17 18 17 18 18 23 18 19 18 19 19 23 19 20 19 20 20 23 20 21 20 21 21 23 21 22 21 22 22 23 22 24 22 24 23 23 23 25 23 25 24 23 24 26 24 26 25 23 25 27 25 27 26 23 26 28 26 28 27 23 27 29 27 29 28 23 28 30 28 30 29 23 29 31 29 31 30 23 30 32 30 32 31 23 31 0 31 7 32 15 32 24 32 32 32 0 32 1 32 1 32 2 32 3 32 3 32 4 32 5 32 5 32 6 32 3 32 6 32 7 32 3 32 7 32 8 32 9 32 9 32 10 32 7 32 10 32 11 32 7 32 11 32 12 32 15 32 12 32 13 32 15 32 13 32 14 32 15 32 15 32 16 32 17 32 17 32 18 32 19 32 19 32 20 32 21 32 21 32 22 32 24 32 24 33 25 33 26 33 26 34 27 34 28 34 28 32 29 32 32 32 29 32 30 32 32 32 30 32 31 32 32 32 32 32 1 32 3 32 15 32 17 32 24 32 17 32 19 32 24 32 19 32 21 32 24 32 24 35 26 35 32 35 26 32 28 32 32 32 32 32 3 32 7 32 7 32 11 32 15 32 32 36 7 36 24 36</p>
        </triangles>
      </mesh>
    </geometry>
  </library_geometries>
  <library_controllers/>
  <library_visual_scenes>
    <visual_scene id="Scene" name="Scene">
      <node id="Cone_007" name="Cone_007" type="NODE">
        <matrix sid="transform">0.09 0 0 -0.2244424 0 0.09 0 -1.074541 0 0 0.08 0.08 0 0 0 1</matrix>
        <instance_geometry url="#Cone_007-mesh" name="Cone_007">
          <bind_material>
            <technique_common>
              <instance_material symbol="Material_008-material" target="#Material_008-material"/>
            </technique_common>
          </bind_material>
        </instance_geometry>
      </node>
      <node id="Cone_006" name="Cone_006" type="NODE">
        <matrix sid="transform">0.09 0 0 0.4345667 0 0.09 0 0.1014379 0 0 0.08 0.08 0 0 0 1</matrix>
        <instance_geometry url="#Cone_006-mesh" name="Cone_006">
          <bind_material>
            <technique_common>
              <instance_material symbol="Material_007-material" target="#Material_007-material"/>
            </technique_common>
          </bind_material>
        </instance_geometry>
      </node>
      <node id="Cone_005" name="Cone_005" type="NODE">
        <matrix sid="transform">0.09 0 0 0.09453189 0 0.09 0 -0.5434203 0 0 0.08 0.08 0 0 0 1</matrix>
        <instance_geometry url="#Cone_005-mesh" name="Cone_005">
          <bind_material>
            <technique_common>
              <instance_material symbol="Material_006-material" target="#Material_006-material"/>
            </technique_common>
          </bind_material>
        </instance_geometry>
      </node>
      <node id="Cone_004" name="Cone_004" type="NODE">
        <matrix sid="transform">0.09 0 0 -0.5131624 0 0.09 0 -0.2224744 0 0 0.08 0.08 0 0 0 1</matrix>
        <instance_geometry url="#Cone_004-mesh" name="Cone_004">
          <bind_material>
            <technique_common>
              <instance_material symbol="Material_005-material" target="#Material_005-material"/>
            </technique_common>
          </bind_material>
        </instance_geometry>
      </node>
      <node id="Cone_003" name="Cone_003" type="NODE">
        <matrix sid="transform">0.09 0 0 0.207745 0 0.09 0 -1.019714 0 0 0.08 0.08 0 0 0 1</matrix>
        <instance_geometry url="#Cone_003-mesh" name="Cone_003">
          <bind_material>
            <technique_common>
              <instance_material symbol="Material_004-material" target="#Material_004-material"/>
            </technique_common>
          </bind_material>
        </instance_geometry>
      </node>
      <node id="Cone_002" name="Cone_002" type="NODE">
        <matrix sid="transform">0.09 0 0 -0.3724047 0 0.09 0 -0.7487679 0 0 0.08 0.08 0 0 0 1</matrix>
        <instance_geometry url="#Cone_002-mesh" name="Cone_002">
          <bind_material>
            <technique_common>
              <instance_material symbol="Material_003-material" target="#Material_003-material"/>
            </technique_common>
          </bind_material>
        </instance_geometry>
      </node>
      <node id="Cone_001" name="Cone_001" type="NODE">
        <matrix sid="transform">0.09 0 0 0.4345667 0 0.09 0 -0.5434203 0 0 0.08 0.08 0 0 0 1</matrix>
        <instance_geometry url="#Cone_001-mesh" name="Cone_001">
          <bind_material>
            <technique_common>
              <instance_material symbol="Material_002-material" target="#Material_002-material"/>
            </technique_common>
          </bind_material>
        </instance_geometry>
      </node>
      <node id="Cone" name="Cone" type="NODE">
        <matrix sid="transform">0.09 0 0 0 0 0.09 0 0 0 0 0.08 0.08 0 0 0 1</matrix>
        <instance_geometry url="#Cone-mesh" name="Cone">
          <bind_material>
            <technique_common>
              <instance_material symbol="Material_001-material" target="#Material_001-material"/>
            </technique_common>
          </bind_material>
        </instance_geometry>
      </node>
    </visual_scene>
  </library_visual_scenes>
  <scene>
    <instance_visual_scene url="#Scene"/>
  </scene>
</COLLADA>